out/test_runs/test_n16_random/trace.vcd
$date
     Jun 30, 2026       06:40:18
$end

$version
 SystemC 2.3.3-Accellera --- Jun 25 2026 10:44:53
$end

$timescale
     1 ps
$end

$scope module SystemC $end
$scope module Control $end
$var wire    1  aaaaa  clk       $end
$var wire    1  aaaab  rst_n       $end
$var wire    1  aaaac  start_signal       $end
$upscope $end
$scope module Core0 $end
$var wire   32  aaaaf  base_addr [31:0]  $end
$var wire   32  aaaag  num_samples [31:0]  $end
$var wire    1  aaaah  start       $end
$var wire    1  aaaai  busy       $end
$scope module AXI_AR $end
$var wire    1  aaaaj  ar_val       $end
$var wire    1  aaaak  ar_rdy       $end
$var wire    4  aaaal  ar_msg_id [3:0]  $end
$var wire   32  aaaam  ar_msg_addr [31:0]  $end
$var wire    8  aaaan  ar_msg_len [7:0]  $end
$upscope $end
$scope module AXI_AW $end
$var wire    1  aaaau  aw_val       $end
$var wire    1  aaaav  aw_rdy       $end
$var wire    4  aaaaw  aw_msg_id [3:0]  $end
$var wire   32  aaaax  aw_msg_addr [31:0]  $end
$var wire    8  aaaay  aw_msg_len [7:0]  $end
$upscope $end
$scope module AXI_B $end
$var wire    1  aaabe  b_val       $end
$var wire    1  aaabf  b_rdy       $end
$var wire    4  aaabg  b_msg_id [3:0]  $end
$var wire    2  aaabh  b_msg_resp [1:0]  $end
$upscope $end
$scope module AXI_R $end
$var wire    1  aaaao  r_val       $end
$var wire    1  aaaap  r_rdy       $end
$var wire    4  aaaaq  r_msg_id [3:0]  $end
$var wire   64  aaaar  r_msg_data [63:0]  $end
$var wire    2  aaaas  r_msg_resp [1:0]  $end
$var wire    1  aaaat  r_msg_last       $end
$upscope $end
$scope module AXI_W $end
$var wire    1  aaaaz  w_val       $end
$var wire    1  aaaba  w_rdy       $end
$var wire   64  aaabb  w_msg_data [63:0]  $end
$var wire    1  aaabc  w_msg_last       $end
$var wire    8  aaabd  w_msg_wstrb [7:0]  $end
$upscope $end
$scope module Internal $end
$var wire    1  aaabi  dma_to_fft_val       $end
$var wire    1  aaabj  dma_to_fft_rdy       $end
$var real    1  aaabk  dma_to_fft_msg_real       $end
$var real    1  aaabl  dma_to_fft_msg_imag       $end
$var wire    1  aaabm  fft_to_dma_val       $end
$var wire    1  aaabn  fft_to_dma_rdy       $end
$var real    1  aaabo  fft_to_dma_msg_real       $end
$var real    1  aaabp  fft_to_dma_msg_imag       $end
$upscope $end
$upscope $end
$scope module Core1 $end
$var wire   32  aaabq  base_addr [31:0]  $end
$var wire   32  aaabr  num_samples [31:0]  $end
$var wire    1  aaabs  start       $end
$var wire    1  aaabt  busy       $end
$scope module AXI_AR $end
$var wire    1  aaabu  ar_val       $end
$var wire    1  aaabv  ar_rdy       $end
$var wire    4  aaabw  ar_msg_id [3:0]  $end
$var wire   32  aaabx  ar_msg_addr [31:0]  $end
$var wire    8  aaaby  ar_msg_len [7:0]  $end
$upscope $end
$scope module AXI_AW $end
$var wire    1  aaacf  aw_val       $end
$var wire    1  aaacg  aw_rdy       $end
$var wire    4  aaach  aw_msg_id [3:0]  $end
$var wire   32  aaaci  aw_msg_addr [31:0]  $end
$var wire    8  aaacj  aw_msg_len [7:0]  $end
$upscope $end
$scope module AXI_B $end
$var wire    1  aaacp  b_val       $end
$var wire    1  aaacq  b_rdy       $end
$var wire    4  aaacr  b_msg_id [3:0]  $end
$var wire    2  aaacs  b_msg_resp [1:0]  $end
$upscope $end
$scope module AXI_R $end
$var wire    1  aaabz  r_val       $end
$var wire    1  aaaca  r_rdy       $end
$var wire    4  aaacb  r_msg_id [3:0]  $end
$var wire   64  aaacc  r_msg_data [63:0]  $end
$var wire    2  aaacd  r_msg_resp [1:0]  $end
$var wire    1  aaace  r_msg_last       $end
$upscope $end
$scope module AXI_W $end
$var wire    1  aaack  w_val       $end
$var wire    1  aaacl  w_rdy       $end
$var wire   64  aaacm  w_msg_data [63:0]  $end
$var wire    1  aaacn  w_msg_last       $end
$var wire    8  aaaco  w_msg_wstrb [7:0]  $end
$upscope $end
$scope module Internal $end
$var wire    1  aaact  dma_to_fft_val       $end
$var wire    1  aaacu  dma_to_fft_rdy       $end
$var real    1  aaacv  dma_to_fft_msg_real       $end
$var real    1  aaacw  dma_to_fft_msg_imag       $end
$var wire    1  aaacx  fft_to_dma_val       $end
$var wire    1  aaacy  fft_to_dma_rdy       $end
$var real    1  aaacz  fft_to_dma_msg_real       $end
$var real    1  aaada  fft_to_dma_msg_imag       $end
$upscope $end
$upscope $end
$scope module Stagger $end
$var wire    1  aaaad  active       $end
$var wire   32  aaaae  counter [31:0]  $end
$upscope $end
$upscope $end
$enddefinitions  $end

$comment
All initial values are dumped below at time 0 sec = 0 timescale units.
$end

$dumpvars
1aaaaa
0aaaab
0aaaac
0aaaad
b0 aaaae
b0 aaaaf
b0 aaaag
0aaaah
0aaaai
0aaaaj
0aaaak
b0 aaaal
b0 aaaam
b0 aaaan
0aaaao
0aaaap
b0 aaaaq
b0 aaaar
b0 aaaas
0aaaat
0aaaau
0aaaav
b0 aaaaw
b0 aaaax
b0 aaaay
0aaaaz
0aaaba
b0 aaabb
0aaabc
b11111111 aaabd
0aaabe
0aaabf
b0 aaabg
b0 aaabh
0aaabi
0aaabj
r0 aaabk
r0 aaabl
0aaabm
0aaabn
r0 aaabo
r0 aaabp
b0 aaabq
b0 aaabr
0aaabs
0aaabt
0aaabu
0aaabv
b0 aaabw
b0 aaabx
b0 aaaby
0aaabz
0aaaca
b0 aaacb
b0 aaacc
b0 aaacd
0aaace
0aaacf
0aaacg
b0 aaach
b0 aaaci
b0 aaacj
0aaack
0aaacl
b0 aaacm
0aaacn
b11111111 aaaco
0aaacp
0aaacq
b0 aaacr
b0 aaacs
0aaact
0aaacu
r0 aaacv
r0 aaacw
0aaacx
0aaacy
r0 aaacz
r0 aaada
$end

#10
1aaaak
1aaaap
1aaaav
1aaaba
1aaabf
1aaabj
1aaabn
1aaabv
1aaaca
1aaacg
1aaacl
1aaacq
1aaacu
1aaacy

#500
0aaaaa

#1000
1aaaaa

#1500
0aaaaa

#2000
1aaaaa

#2500
0aaaaa

#3000
1aaaaa

#3500
0aaaaa

#4000
1aaaaa

#4500
0aaaaa

#5000
1aaaaa
1aaaab

#5500
0aaaaa

#6000
1aaaaa

#6500
0aaaaa

#7000
1aaaaa

#7500
0aaaaa

#8000
1aaaaa

#8500
0aaaaa

#9000
1aaaaa

#9500
0aaaaa

#10000
1aaaaa

#10500
0aaaaa

#11000
1aaaaa

#11500
0aaaaa

#12000
1aaaaa

#12500
0aaaaa

#13000
1aaaaa

#13500
0aaaaa

#14000
1aaaaa

#14500
0aaaaa

#15000
1aaaaa
1aaaac
1aaaad
b1 aaaae
b100000000 aaaag
1aaaah
b100000000 aaabr

#15500
0aaaaa

#16000
1aaaaa
0aaaac
b10 aaaae
0aaaah
1aaaai
b11111111 aaaan
b10000000 aaaax
b11111111 aaaay

#16010
1aaaaj
1aaaau

#16500
0aaaaa

#17000
1aaaaa
b11 aaaae
b100001010101011000000000000000000101010100010111 aaaar

#17010
0aaaaj
1aaaao
0aaaau

#17500
0aaaaa

#18000
1aaaaa
b100 aaaae
b10100110011101000000000000000001110011001100000 aaaar
r34134 aaabk
r21783 aaabl

#18010
1aaabi

#18500
0aaaaa

#19000
1aaaaa
b101 aaaae
b10110011010000100000000000000000010100101111101 aaaar
r21306 aaabk
r58976 aaabl
1aaabs

#19500
0aaaaa

#20000
1aaaaa
b110 aaaae
b101110110110000100000000000000001011111010110011 aaaar
r22945 aaabk
r10621 aaabl
0aaabs
1aaabt
b11111111 aaaby
b10000000 aaaci
b11111111 aaacj

#20010
1aaabu
1aaacf

#20500
0aaaaa

#21000
1aaaaa
b111 aaaae
b10100100000010000000000000000001110111101101001 aaaar
r47969 aaabk
r48819 aaabl
b1111100010111100000000000000000010010000011101 aaacc

#21010
0aaabu
1aaabz
0aaacf

#21500
0aaaaa

#22000
1aaaaa
b1000 aaaae
b101010001000101000000000000000000110101101111001 aaaar
r20996 aaabk
r61289 aaabl
b111001010100000000000000000001011001101001101 aaacc
r15919 aaacv
r9245 aaacw

#22010
1aaact

#22500
0aaaaa

#23000
1aaaaa
b1001 aaaae
b110110111001001000000000000000001001110100101011 aaaar
r43146 aaabk
r27513 aaabl
b101110110011111000000000000000001010100001010001 aaacc
r7336 aaacv
r45901 aaacw

#23500
0aaaaa

#24000
1aaaaa
b1010 aaaae
b100111100010001100000000000000000101111011101100 aaaar
r56210 aaabk
r40235 aaabl
b101110001110100000000000000001010000111011000 aaacc
r47934 aaacv
r43089 aaacw

#24500
0aaaaa

#25000
1aaaaa
b1011 aaaae
b10011010010110000000000000000000110011011000110 aaaar
r40483 aaabk
r24300 aaabl
b11110100011010100000000000000001001000001100100 aaacc
r5917 aaacv
r41432 aaacw

#25500
0aaaaa

#26000
1aaaaa
0aaaad
b1100 aaaae
b100111001001110100000000000000000010000101100000 aaaar
r19756 aaabk
r26310 aaabl
b11011101001011000000000000000001010001110000110 aaacc
r31285 aaacv
r36964 aaacw

#26500
0aaaaa

#27000
1aaaaa
b1111101111001100000000000000000010010100010011 aaaar
r40093 aaabk
r8544 aaabl
b10111011011110000000000000000001000001110100011 aaacc
r28310 aaacv
r41862 aaacw

#27500
0aaaaa

#28000
1aaaaa
b110101000010101100000000000000001110010001010111 aaaar
r16115 aaabk
r9491 aaabl
b110100010001001100000000000000001100011101010011 aaacc
r23996 aaacv
r33699 aaacw

#28500
0aaaaa

#29000
1aaaaa
b101011110010110000000000000000001100010110101000 aaaar
r54315 aaabk
r58455 aaabl
b110100110100010000000000000000001111111000000110 aaacc
r53523 aaacv
r51027 aaacw

#29500
0aaaaa

#30000
1aaaaa
b111100110101001000000000000000001010000100001100 aaaar
r44844 aaabk
r50600 aaabl
b111000111111110000000000000000001000000111000011 aaacc
r54084 aaacv
r65030 aaacw

#30500
0aaaaa

#31000
1aaaaa
b101101011010011000000000000000001100110000100100 aaaar
r62290 aaabk
r41228 aaabl
b101110110110100000000000000000000001110111111100 aaacc
r58364 aaacv
r33219 aaacw

#31500
0aaaaa

#32000
1aaaaa
b11011000010000000000000000000100101111001010 aaaar
r46502 aaabk
r52260 aaabl
b11111010000101100000000000000001011000011111100 aaacc
r47976 aaacv
r7676 aaacw

#32500
0aaaaa

#33000
1aaaaa
b100001000011100100000000000000001000100111101000 aaaar
r3460 aaabk
r19402 aaabl
b101011111010011100000000000000000001101111101100 aaacc
r32011 aaacv
r45308 aaacw

#33500
0aaaaa

#34000
1aaaaa
b10010010111100100000000000000000000111101100010 aaaar
r33849 aaabk
r35304 aaabl
b10111000010000000000000000000001011101110001 aaacc
r44967 aaacv
r7148 aaacw

#34500
0aaaaa

#35000
1aaaaa
b101000111111111100000000000000000000001110100111 aaaar
r18809 aaabk
r3938 aaabl
b100011111000001100000000000000000010111001101000 aaacc
r2948 aaacv
r6001 aaacw

#35500
0aaaaa

#36000
1aaaaa
b100011101101011100000000000000000000010011100000 aaaar
r41983 aaabk
r935 aaabl
b10100101110001100000000000000001111110011101010 aaacc
r36739 aaacv
r11880 aaacw

#36500
0aaaaa

#37000
1aaaaa
b10111011010100100000000000000000011000000110001 aaaar
r36567 aaabk
r1248 aaabl
r574564 aaabo
r559826 aaabp
b110010101110110000000000000000001001111111100001 aaacc
r21219 aaacv
r64746 aaacw

#37010
1aaabm

#37500
0aaaaa

#38000
1aaaaa
b110100111110110000000000000000000011111001011000 aaaar
b1000110001000110010000000000000010001000101011010010 aaabb
r23977 aaabk
r12337 aaabl
r-51560 aaabo
r-14648 aaabp
b101110110001111000000000000000001111100011001000 aaacc
r51948 aaacv
r40929 aaacw

#38010
1aaaaz

#38500
0aaaaa

#39000
1aaaaa
b110000010111100100000000000000000000000110001110 aaaar
b1111111111111111001101101001100011111111111111111100011011001000 aaabb
r54252 aaabk
r15960 aaabl
r-36757 aaabo
r26767 aaabp
b11001100001110000000000000000001100110110111001 aaacc
r47902 aaacv
r63688 aaacw

#39500
0aaaaa

#40000
1aaaaa
b11000010100100100000000000000001000011001001001 aaaar
b1111111111111111011100000110101100000000000000000110100010001111 aaabb
r49529 aaabk
r398 aaabl
r-7327.000000000002 aaabo
r67983 aaabp
b10001110111011000000000000000001010010101001011 aaacc
r26140 aaacv
r52665 aaacw

#40500
0aaaaa

#41000
1aaaaa
b100111011100011100000000000000001011000011010011 aaaar
b1111111111111111111000110110000100000000000000010000100110001111 aaabb
r24905 aaabk
r34377 aaabl
r-112636.3631305539 aaabo
r-56074.02507151235 aaabp
b100001000110000000000000000001000001000000010 aaacc
r18294 aaacv
r42315 aaacw
r512528 aaacz
r544227 aaada

#41010
1aaacx

#41500
0aaaaa

#42000
1aaaaa
b111011101001000000000000000000001001111111100000 aaaar
b1111111111111110010010000000010011111111111111110010010011110110 aaabb
r40391 aaabk
r45267 aaabl
r-56029.63686944607 aaabo
r55786.02507151234 aaabp
b10001010011001000000000000000000111100111110110 aaacc
b111110100100001000000000000000010000100110111100011 aaacm
r4236 aaacv
r33282 aaacw
r93272 aaacz
r-114765 aaada

#42010
1aaack

#42500
0aaaaa

#43000
1aaaaa
b11001101000010000000000000000001010010101011100 aaaar
b1111111111111111001001010010001000000000000000001101100111101010 aaabb
r61072 aaabk
r40928 aaabl
r176913.9929580788 aaabo
r-91746.88572467238 aaabp
b100001001001100000000000000000001011010010101011 aaacc
b1011011000101100011111111111111100011111110110011 aaacm
r17714 aaacv
r31222 aaacw
r-85920 aaacz
r37754.99999999999 aaada

#43500
0aaaaa

#44000
1aaaaa
b111010010011111100000000000000000101000100010000 aaaar
b10101100110001001011111111111111101001100110011101 aaabb
r26244 aaabk
r42332 aaabl
r-56047.99295807877 aaabo
r-163149.1142753276 aaabp
b101010110000111100000000000000000000111100011011 aaacc
b1111111111111110101100000110000000000000000000001001001101111011 aaacm
r33944 aaacv
r46251 aaacw
r65140 aaacz
r6331.000000000005 aaada

#44500
0aaaaa

#45000
1aaaaa
b111011010000111100000000000000000110000101100101 aaaar
b1111111111111111001001010001000011111111111111011000001010110011 aaabb
r59711 aaabk
r20752 aaabl
r-31735.75249023945 aaabo
r77128.82832433496 aaabp
b101100000100110000000000000000000011011110001010 aaacc
b111111100111010000000000000000000001100010111011 aaacm
r43791 aaacv
r3867 aaacw
r50895.20628158751 aaacz
r39296.72512271145 aaada

#45500
0aaaaa

#46000
1aaaaa
b101001000111101000000000000000001111000001001011 aaaar
b1111111111111111100001000000100000000000000000010010110101001001 aaabb
r60687 aaabk
r24933 aaabl
r62391.78909567482 aaabo
r-43271.11280584313 aaabp
b1011101011000000000000000000000011010010110010 aaacc
b110001101100111100000000000000001001100110000001 aaacm
r45132 aaacv
r14218 aaacw
r-53021.20628158751 aaacz
r-49320.72512271145 aaada

#46500
0aaaaa

#47000
1aaaaa
b111101010101000100000000000000001011110011111111 aaaar
b111100111011100011111111111111110101011011111001 aaabb
r42106 aaabk
r61515 aaabl
r128041.6496776641 aaabo
r-18545.92840130633 aaabp
b100101010101110000000000000000000101100011001011 aaacc
b1111111111111111001100001110001111111111111111110011111101010111 aaacm
r11952 aaacv
r13490 aaacw
r-60247.99531886974 aaacz
r24383.78944723753 aaada

#47500
0aaaaa

#48000
1aaaaa
b101101110010100000000000000000101010110111001 aaaar
b1111101000010101011111111111111111011011110001110 aaabb
r62801 aaabk
r48383 aaabl
r-58429.68628309949 aaabo
r61972.21288281451 aaabp
b101111101100110100000000000000001000001000001110 aaacc
b1111111111111111000101001010100000000000000000000101111101000000 aaacm
r38236 aaacv
r22731 aaacw
r37377.99531886974 aaacz
r106292.2105527625 aaada

#48500
0aaaaa

#49000
1aaaaa
b1000100101101100000000000000001110110000001110 aaaar
b1111111111111111000110111100001000000000000000001111001000010100 aaabb
r5861 aaabk
r21945 aaabl
r24893.04768085905 aaabo
r-62316.98670343566 aaabp
b1001011101000000000000000000000010101010111001 aaacc
b100100100000001000000000000000011001111100110100 aaacm
r48845 aaacv
r33294 aaacw
r-26425.54524227888 aaacz
r-6423.933827738947 aaada

#49500
0aaaaa

#50000
1aaaaa
b11100011001000100000000000000001101010001000000 aaaar
b11000010011110111111111111111110000110010010011 aaabb
r8795 aaabk
r60430 aaabl
r-28852.79781040415 aaabo
r-36425.25660410865 aaabp
b10001111001101000000000000000000000010100111011 aaacc
b1111111111111111100110001100011011111111111111111110011011101000 aaacm
r9680 aaacv
r10937 aaacw
r108627.7422997165 aaacz
r-40476.52661042116 aaada

#50500
0aaaaa

#51000
1aaaaa
b101101000100000000000000000000000111001111010010 aaaar
b1111111111111111100011110100101111111111111111110111000110110111 aaabb
r29073 aaabk
r54336 aaabl
r55622.37255590841 aaabo
r-34436.70048911104 aaabp
b100101011101100100000000000000001000100110101011 aaacc
b1101010000101010011111111111111110110000111100011 aaacm
r18330 aaacv
r1339 aaacw
r-86646.66062718352 aaacz
r-90552.5999679416 aaada

#51500
0aaaaa

#52000
1aaaaa
b101011100001101000000000000000001000101111000010 aaaar
b110110010100011011111111111111110111100101111011 aaabb
r46144 aaabk
r29650 aaabl
r-36906.6224263633 aaabo
r19678.94379665536 aaabp
b1111001111101100000000000000001111100000000011 aaacc
b1111111111111110101011011000100111111111111111101001111001000111 aaacm
r38361 aaacv
r35243 aaacw
r-28951.53643025412 aaacz
r-30958.93959389829 aaada

#52500
0aaaaa

#53000
1aaaaa
b1001110001001100000000000000000000011011110100 aaaar
b1111111111111111011011111101010100000000000000000100110011011111 aaabb
r44570 aaabk
r35778 aaabl
r642744 aaabo
r410552 aaabp
b100001010011010000000000000000001010010111111000 aaacc
b1111111111111111100011101110100011111111111111111000011100010001 aaacm
r15611 aaacv
r63491 aaacw
r-34041.65114734034 aaacz
r-6205.027010458078 aaada

#53500
0aaaaa

#54000
1aaaaa
b101100010111101000000000000000000111100010001000 aaaar
b1001110011101011100000000000000001100100001110111000 aaabb
r10003 aaabk
r1780 aaabl
r36178 aaabo
r9226 aaabp
b1111000100010000000000000000000100110101011011 aaacc
b1111111111111111011110110000011011111111111111111110011111000011 aaacm
r34100 aaacv
r42488 aaacw
r-38944.00470662336 aaacz
r-133873.0717615017 aaada

#54500
0aaaaa

#55000
1aaaaa
b101111001010011100000000000000000101100011000010 aaaar
b100011010101001000000000000000000010010000001010 aaabb
r45434 aaabk
r30856 aaabl
r22366 aaabo
r-23402 aaabp
b110001111100000000000000000000000000000110101001 aaacc
b1111111111111111011001111110000011111111111111011111010100001111 aaacm
r15428 aaacv
r19803 aaacw
r26364.35995400138 aaacz
r-70237.95819455676 aaada

#55500
0aaaaa

#56000
1aaaaa
b111000110011010000000000000000001111011000010101 aaaar
b10101110101111011111111111111111010010010010110 aaabb
r48295 aaabk
r22722 aaabl
r-65672 aaabo
r74988 aaabp
b111100101011110000000000000000000000100111010010 aaacc
b11001101111110011111111111111101110110110100010 aaacm
r51136 aaacv
r425 aaacw
r-225302.7041000377 aaacz
r-67551.9430334834 aaada

#56500
0aaaaa

#57000
1aaaaa
b10110101101110100000000000000001101110100001111 aaaar
b1111111111111110111111110111100000000000000000010010010011101100 aaabb
r58164 aaabk
r62997 aaabl
r-121240.3418543007 aaabo
r53942.29290069019 aaabp
b1001110110100000000000000000001010111001001010 aaacc
b1111111111111100100011111110100111111111111111101111100000100000 aaacm
r62140 aaacv
r2514 aaacw
r470116 aaacz
r508962 aaada

#57500
0aaaaa

#58000
1aaaaa
b101010011011110000000000000000000010100010000000 aaaar
b1111111111111110001001100110100000000000000000001101001010110110 aaabb
r23261 aaabk
r56591 aaabl
r89364.34185430066 aaabo
r120865.7070993098 aaabp
b111011111011101000000000000000000100110111111000 aaacc
b111001011000110010000000000000001111100010000100010 aaacm
r10088 aaacv
r44618 aaacw
r25238 aaacz
r3550 aaada

#58500
0aaaaa

#59000
1aaaaa
b111110101010000000000000000000000011011111110011 aaaar
b1010111010001010000000000000000011101100000100010 aaabb
r43452 aaabk
r10368 aaabl
r5737.613911107036 aaabo
r-36686.25493165491 aaabp
b111001101000000100000000000000001011000000111111 aaacc
b11000101001011000000000000000000000110111011110 aaacm
r61370 aaacv
r19960 aaacw
r-58913 aaacz
r-26881 aaada

#59500
0aaaaa

#60000
1aaaaa
b11101111101010000000000000000001011010000011100 aaaar
b101100110101011111111111111110111000010110010 aaabb
r64160 aaabk
r14323 aaabl
r-15557.61391110703 aaabo
r35082.25493165491 aaabp
b11010111001010100000000000000001001000100100000 aaacc
b1111111111111111000110011101111111111111111111111001011011111111 aaacm
r59009 aaacv
r45119 aaacw
r7543 aaacz
r-88167 aaada

#60500
0aaaaa

#61000
1aaaaa
b100111001001000100000000000000000001011110110011 aaaar
b1111111111111111110000110011101000000000000000001000100100001010 aaabb
r30676 aaabk
r46108 aaabl
r-201476.5425525202 aaabo
r13016.65260068405 aaabp
b1010110000101000000000000000001100000110010010 aaacc
b111010111011111111111111111101010011110011001 aaacm
r27541 aaacv
r37152 aaacw
r125814.6486017818 aaacz
r22264.54757853798 aaada

#61500
0aaaaa

#62000
1aaaaa
b11101100011101100000000000000000101110110000101 aaaar
b1111111111111100111011001111101100000000000000000011001011011001 aaabb
r40081 aaabk
r6067 aaabl
r77823.05557849407 aaabo
r46305.32148985547 aaabp
b10010101010001000000000000000001110010111101000 aaacc
b1111010110111011100000000000000000101011011111001 aaacm
r11018 aaacv
r49554 aaacw
r28317.35139821823 aaacz
r15449.45242146202 aaada

#62500
0aaaaa

#63000
1aaaaa
b110100001101011100000000000000001110111000101001 aaaar
b1001011111111111100000000000000001011010011100001 aaabb
r30267 aaabk
r23941 aaabl
r16616.5758395245 aaabo
r84056.78572675753 aaabp
b101000000011100000000000000000000100001111010111 aaacc
b11011101001110100000000000000000011110001011001 aaacm
r19106 aaacv
r58856 aaacw
r115279.994013759 aaacz
r-45022.742830722 aaada

#63500
0aaaaa

#64000
1aaaaa
b101010000010110100000000000000000111101111000000 aaaar
b10000001110100100000000000000010100100001011001 aaabb
r53463 aaabk
r60969 aaabl
r30484.91113450162 aaabo
r-36390.75981729705 aaabp
b101000010100010100000000000000001100100001110110 aaacc
b1110000100101000011111111111111110101000000100001 aaacm
r41016 aaacv
r17367 aaacw
r63244.00598624098 aaacz
r51020.742830722 aaada

#64500
0aaaaa

#65000
1aaaaa
b111101001100011100000000000000000110010100110001 aaaar
b11101110001010111111111111111110111000111011001 aaabb
r43053 aaabk
r31680 aaabl
r-66311.58976387396 aaabo
r-78814.01172321488 aaabp
b101011010000000000000000001101100111101111 aaacc
b111101110000110000000000000000001100011101001101 aaacm
r41285 aaacv
r51318 aaacw
r80739.84358171761 aaacz
r154945.9783441302 aaada

#65500
0aaaaa

#66000
1aaaaa
b100110001101000000000000000000010010111000110 aaaar
b1111111111111110111111001111100011111111111111101100110000100010 aaabb
r62663 aaabk
r25905 aaabl
r-89013.39652616385 aaabo
r-27337.69208407353 aaabp
b111110111010110100000000000000001001101100010101 aaacc
b1001110110110010000000000000000100101110101000010 aaacm
r692 aaacv
r55791 aaacw
r24623.14214349864 aaacz
r-40517.66390719003 aaada

#66500
0aaaaa

#67000
1aaaaa
b1101010011110000000000000000000001111111010101 aaaar
b1111111111111110101001000100101111111111111111111001010100110110 aaabb
r4890 aaabk
r9670 aaabl
r90411.05573517868 aaabo
r14466.89377751821 aaabp
b100000000001111100000000000000001100011111001111 aaacc
b11000000010111111111111111111110110000110111010 aaacm
r64429 aaacv
r39701 aaacw
r-48585.68166399306 aaacz
r-125380.680891391 aaada

#67500
0aaaaa

#68000
1aaaaa
b110000010101000000000000000001110010001100101 aaaar
b1011000010010101100000000000000000011100010000011 aaabb
r13628 aaabk
r8149 aaabl
r89129.93055485912 aaabo
r-95007.18997022981 aaabp
b100001111100101000000000000000000110010011100011 aaacc
b1111111111111111010000100011011011111111111111100001011000111011 aaacm
r32799 aaacv
r51151 aaacw
r59866.6959387768 aaacz
r139572.3664544509 aaada

#68500
0aaaaa

#69000
1aaaaa
b10001010001000000000000000001101100110000011 aaaar
b1010111000010101011111111111111101000110011100001 aaabb
r6186 aaabk
r58469 aaabl
r618891 aaabo
r548596 aaabp
b11110101000010000000000000000000110011011011110 aaacc
b111010011101101100000000000000100010000100110100 aaacm
r34762 aaacv
r25827 aaacw
r25884.6181570904 aaacz
r9686.297096974638 aaada

#69500
0aaaaa

#70000
1aaaaa
b110011011110001000000000000000001010001000010111 aaaar
b1001011100011000101100000000000010000101111011110100 aaabb
r2210 aaabk
r55683 aaabl
r-30487 aaabo
r-43532 aaabp
b110110010010110100000000000000000010010100110111 aaacc
b11001010001110100000000000000000010010111010110 aaacm
r31364 aaacv
r26334 aaacw
r11817.85945905185 aaacz
r29435.20557701909 aaada

#70500
0aaaaa

#71000
1aaaaa
b11110010011111100000000000000001001101111111010 aaaar
b1111111111111111100010001110100111111111111111110101010111110100 aaabb
r52706 aaabk
r41495 aaabl
r-186984 aaabo
r25441 aaabp
b10110101101000100000000000000001100010010101001 aaacc
b1011100010101000000000000000000111001011111011 aaacm
r55597 aaacv
r9527 aaacw
r-13296.71892848907 aaacz
r-66252.44271824483 aaada

#71500
0aaaaa

#72000
1aaaaa
b110010100100000100000000000000001111100111100110 aaaar
b1111111111111101001001011001100000000000000000000110001101100001 aaabb
r31039 aaabk
r39930 aaabl
r-72860 aaabo
r-31033 aaabp
b101100111010011000000000000000001010101010001001 aaacc
b1111111111111111110011000000111111111111111111101111110100110100 aaacm
r23249 aaacv
r50345 aaacw
r-86521.75868765317 aaacz
r112198.9400442511 aaada

#72500
0aaaaa

#73000
1aaaaa
b11011011001000000000000000000001001001011010 aaaar
b1111111111111110111000110110010011111111111111111000011011000111 aaabb
r51777 aaabk
r63974 aaabl
r-43666.79687979465 aaabo
r137287.9510706165 aaabp
b10001101011100000000000000000000000111110100101 aaacc
b1111111111111110101011100000011000000000000000011011011001000111 aaacm
r45990 aaacv
r43657 aaacw
r565919 aaacz
r561644 aaada

#73500
0aaaaa

#74000
1aaaaa
b110110111111010000000000000000000000011110100111 aaaar
b1111111111111111010101010110110100000000000000100001100001001000 aaabb
r3506 aaabk
r4698 aaabl
r-71825.20312020535 aaabo
r63968.04892938345 aaabp
b11101000111000100000000000000001001101001110000 aaacc
b1000101000101001111100000000000010001001000111101100 aaacm
r18104 aaacv
r4005 aaacw
r-86203 aaacz
r51382 aaada

#74500
0aaaaa

#75000
1aaaaa
b100100100011100000000000000001110001101001010 aaaar
b1111111111111110111001110110111100000000000000001111100111100000 aaabb
r56308 aaabk
r1959 aaabl
r3532.204965910649 aaabo
r122280.131631872 aaabp
b11000111101010100000000000000001000101101000001 aaacc
b1111111111111110101011110100010100000000000000001100100010110110 aaacm
r29809 aaacv
r39536 aaacw
r-106553 aaacz
r83784 aaada

#75500
0aaaaa

#76000
1aaaaa
b10101100111000100000000000000000010110111011101 aaaar
b11011100110000000000000000011101110110101000 aaabb
r4679 aaabk
r58186 aaabl
r39847.79503408935 aaabo
r113159.868368128 aaabp
b1001011100011000000000000000001000111001110010 aaacc
b1111111111111110010111111100011100000000000000010100011101001000 aaacm
r25557 aaacv
r35649 aaacw
r-149571 aaacz
r72994 aaada

#76500
0aaaaa

#77000
1aaaaa
b111011000101100000000000000001101010101100111 aaaar
b100110111010100000000000000000011011101000001000 aaabb
r22129 aaabk
r11741 aaabl
r-46121.8851705593 aaabo
r66152.73911817958 aaabp
b110001111001110100000000000000000110011111000000 aaacc
b1111111111111101101101111011110100000000000000010001110100100010 aaacm
r9670 aaacv
r36466 aaacw
r-130786.0365394748 aaacz
r46646.97568553242 aaada

#77500
0aaaaa

#78000
1aaaaa
b110001011100011000000000000000000100100010111010 aaaar
b1111111111111111010010111101011000000000000000010000001001101001 aaabb
r7563 aaabk
r54631 aaabl
r-41967.70552840158 aaabo
r110233.4655024544 aaabp
b111001011100000000000000000000110111001000000 aaacc
b1111111111111110000000010001111000000000000000001011011000110111 aaacm
r51101 aaacv
r26560 aaacw
r42506.03653947479 aaacz
r-64068.97568553243 aaada

#78500
0aaaaa

#79000
1aaaaa
b100110111010101000000000000000000001000100011000 aaaar
b1111111111111111010111000001000000000000000000011010111010011001 aaabb
r50630 aaabk
r18618 aaabl
r87509.16565167908 aaabo
r-30687.84954116128 aaabp
b101010011001001100000000000000001111101000001100 aaacc
b101001100000101011111111111111110000010110111011 aaacm
r7352 aaacv
r28224 aaacw
r213393.4543424121 aaacz
r7531.934972541686 aaada

#79500
0aaaaa

#80000
1aaaaa
b111110101001100000000000000000001101001100100010 aaaar
b1010101011101010111111111111111111000100000100000 aaabb
r39850 aaabk
r4376 aaabl
r-74431.57495271821 aaabo
r-10030.35507947275 aaabp
b1100010101110100000000000000001010000010010010 aaacc
b11010000011001000100000000000000000001110101101100 aaacm
r43411 aaacv
r64012 aaacw
r12238.54565758786 aaacz
r-23577.93497254168 aaada

#80500
0aaaaa

#81000
1aaaaa
b100111000101010000000000000000001000101101010001 aaaar
b1111111111111110110111010100000011111111111111111101100011010010 aaabb
r64152 aaabk
r54050 aaabl
r43450.91925096848 aaabo
r-16509.46102908768 aaabp
b1111001011000100000000000000001111000110100010 aaacc
b1011111100111111111111111111111010001111100110 aaacm
r12637 aaacv
r41106 aaacw
r-77226.99128361039 aaacz
r-119801.3494581565 aaada

#81500
0aaaaa

#82000
1aaaaa
b11000101110000000000000000000001010111000101111 aaaar
b101010011011101111111111111111111011111110000011 aaabb
r40020 aaabk
r35665 aaabl
r-78052.87825119028 aaabo
r-78946.48913143069 aaabp
b110111000100001100000000000000000110100000000001 aaacc
b1111111111111110110100100101010111111111111111100010110000000111 aaacm
r15537 aaacv
r61858 aaacw
r45800.15268306782 aaacz
r20069.90077165145 aaada

#82500
0aaaaa

