out/test_runs/test_n2_random/trace.vcd
$date
     Jun 30, 2026       06:39:31
$end

$version
 SystemC 2.3.3-Accellera --- Jun 25 2026 10:44:53
$end

$timescale
     1 ps
$end

$scope module SystemC $end
$scope module Control $end
$var wire    1  aaaaa  clk       $end
$var wire    1  aaaab  rst_n       $end
$var wire    1  aaaac  start_signal       $end
$upscope $end
$scope module Core0 $end
$var wire   32  aaaaf  base_addr [31:0]  $end
$var wire   32  aaaag  num_samples [31:0]  $end
$var wire    1  aaaah  start       $end
$var wire    1  aaaai  busy       $end
$scope module AXI_AR $end
$var wire    1  aaaaj  ar_val       $end
$var wire    1  aaaak  ar_rdy       $end
$var wire    4  aaaal  ar_msg_id [3:0]  $end
$var wire   32  aaaam  ar_msg_addr [31:0]  $end
$var wire    8  aaaan  ar_msg_len [7:0]  $end
$upscope $end
$scope module AXI_AW $end
$var wire    1  aaaau  aw_val       $end
$var wire    1  aaaav  aw_rdy       $end
$var wire    4  aaaaw  aw_msg_id [3:0]  $end
$var wire   32  aaaax  aw_msg_addr [31:0]  $end
$var wire    8  aaaay  aw_msg_len [7:0]  $end
$upscope $end
$scope module AXI_B $end
$var wire    1  aaabe  b_val       $end
$var wire    1  aaabf  b_rdy       $end
$var wire    4  aaabg  b_msg_id [3:0]  $end
$var wire    2  aaabh  b_msg_resp [1:0]  $end
$upscope $end
$scope module AXI_R $end
$var wire    1  aaaao  r_val       $end
$var wire    1  aaaap  r_rdy       $end
$var wire    4  aaaaq  r_msg_id [3:0]  $end
$var wire   64  aaaar  r_msg_data [63:0]  $end
$var wire    2  aaaas  r_msg_resp [1:0]  $end
$var wire    1  aaaat  r_msg_last       $end
$upscope $end
$scope module AXI_W $end
$var wire    1  aaaaz  w_val       $end
$var wire    1  aaaba  w_rdy       $end
$var wire   64  aaabb  w_msg_data [63:0]  $end
$var wire    1  aaabc  w_msg_last       $end
$var wire    8  aaabd  w_msg_wstrb [7:0]  $end
$upscope $end
$scope module Internal $end
$var wire    1  aaabi  dma_to_fft_val       $end
$var wire    1  aaabj  dma_to_fft_rdy       $end
$var real    1  aaabk  dma_to_fft_msg_real       $end
$var real    1  aaabl  dma_to_fft_msg_imag       $end
$var wire    1  aaabm  fft_to_dma_val       $end
$var wire    1  aaabn  fft_to_dma_rdy       $end
$var real    1  aaabo  fft_to_dma_msg_real       $end
$var real    1  aaabp  fft_to_dma_msg_imag       $end
$upscope $end
$upscope $end
$scope module Core1 $end
$var wire   32  aaabq  base_addr [31:0]  $end
$var wire   32  aaabr  num_samples [31:0]  $end
$var wire    1  aaabs  start       $end
$var wire    1  aaabt  busy       $end
$scope module AXI_AR $end
$var wire    1  aaabu  ar_val       $end
$var wire    1  aaabv  ar_rdy       $end
$var wire    4  aaabw  ar_msg_id [3:0]  $end
$var wire   32  aaabx  ar_msg_addr [31:0]  $end
$var wire    8  aaaby  ar_msg_len [7:0]  $end
$upscope $end
$scope module AXI_AW $end
$var wire    1  aaacf  aw_val       $end
$var wire    1  aaacg  aw_rdy       $end
$var wire    4  aaach  aw_msg_id [3:0]  $end
$var wire   32  aaaci  aw_msg_addr [31:0]  $end
$var wire    8  aaacj  aw_msg_len [7:0]  $end
$upscope $end
$scope module AXI_B $end
$var wire    1  aaacp  b_val       $end
$var wire    1  aaacq  b_rdy       $end
$var wire    4  aaacr  b_msg_id [3:0]  $end
$var wire    2  aaacs  b_msg_resp [1:0]  $end
$upscope $end
$scope module AXI_R $end
$var wire    1  aaabz  r_val       $end
$var wire    1  aaaca  r_rdy       $end
$var wire    4  aaacb  r_msg_id [3:0]  $end
$var wire   64  aaacc  r_msg_data [63:0]  $end
$var wire    2  aaacd  r_msg_resp [1:0]  $end
$var wire    1  aaace  r_msg_last       $end
$upscope $end
$scope module AXI_W $end
$var wire    1  aaack  w_val       $end
$var wire    1  aaacl  w_rdy       $end
$var wire   64  aaacm  w_msg_data [63:0]  $end
$var wire    1  aaacn  w_msg_last       $end
$var wire    8  aaaco  w_msg_wstrb [7:0]  $end
$upscope $end
$scope module Internal $end
$var wire    1  aaact  dma_to_fft_val       $end
$var wire    1  aaacu  dma_to_fft_rdy       $end
$var real    1  aaacv  dma_to_fft_msg_real       $end
$var real    1  aaacw  dma_to_fft_msg_imag       $end
$var wire    1  aaacx  fft_to_dma_val       $end
$var wire    1  aaacy  fft_to_dma_rdy       $end
$var real    1  aaacz  fft_to_dma_msg_real       $end
$var real    1  aaada  fft_to_dma_msg_imag       $end
$upscope $end
$upscope $end
$scope module Core2 $end
$var wire   32  aaadb  base_addr [31:0]  $end
$var wire   32  aaadc  num_samples [31:0]  $end
$var wire    1  aaadd  start       $end
$var wire    1  aaade  busy       $end
$scope module AXI_AR $end
$var wire    1  aaadf  ar_val       $end
$var wire    1  aaadg  ar_rdy       $end
$var wire    4  aaadh  ar_msg_id [3:0]  $end
$var wire   32  aaadi  ar_msg_addr [31:0]  $end
$var wire    8  aaadj  ar_msg_len [7:0]  $end
$upscope $end
$scope module AXI_AW $end
$var wire    1  aaadq  aw_val       $end
$var wire    1  aaadr  aw_rdy       $end
$var wire    4  aaads  aw_msg_id [3:0]  $end
$var wire   32  aaadt  aw_msg_addr [31:0]  $end
$var wire    8  aaadu  aw_msg_len [7:0]  $end
$upscope $end
$scope module AXI_B $end
$var wire    1  aaaea  b_val       $end
$var wire    1  aaaeb  b_rdy       $end
$var wire    4  aaaec  b_msg_id [3:0]  $end
$var wire    2  aaaed  b_msg_resp [1:0]  $end
$upscope $end
$scope module AXI_R $end
$var wire    1  aaadk  r_val       $end
$var wire    1  aaadl  r_rdy       $end
$var wire    4  aaadm  r_msg_id [3:0]  $end
$var wire   64  aaadn  r_msg_data [63:0]  $end
$var wire    2  aaado  r_msg_resp [1:0]  $end
$var wire    1  aaadp  r_msg_last       $end
$upscope $end
$scope module AXI_W $end
$var wire    1  aaadv  w_val       $end
$var wire    1  aaadw  w_rdy       $end
$var wire   64  aaadx  w_msg_data [63:0]  $end
$var wire    1  aaady  w_msg_last       $end
$var wire    8  aaadz  w_msg_wstrb [7:0]  $end
$upscope $end
$scope module Internal $end
$var wire    1  aaaee  dma_to_fft_val       $end
$var wire    1  aaaef  dma_to_fft_rdy       $end
$var real    1  aaaeg  dma_to_fft_msg_real       $end
$var real    1  aaaeh  dma_to_fft_msg_imag       $end
$var wire    1  aaaei  fft_to_dma_val       $end
$var wire    1  aaaej  fft_to_dma_rdy       $end
$var real    1  aaaek  fft_to_dma_msg_real       $end
$var real    1  aaael  fft_to_dma_msg_imag       $end
$upscope $end
$upscope $end
$scope module Core3 $end
$var wire   32  aaaem  base_addr [31:0]  $end
$var wire   32  aaaen  num_samples [31:0]  $end
$var wire    1  aaaeo  start       $end
$var wire    1  aaaep  busy       $end
$scope module AXI_AR $end
$var wire    1  aaaeq  ar_val       $end
$var wire    1  aaaer  ar_rdy       $end
$var wire    4  aaaes  ar_msg_id [3:0]  $end
$var wire   32  aaaet  ar_msg_addr [31:0]  $end
$var wire    8  aaaeu  ar_msg_len [7:0]  $end
$upscope $end
$scope module AXI_AW $end
$var wire    1  aaafb  aw_val       $end
$var wire    1  aaafc  aw_rdy       $end
$var wire    4  aaafd  aw_msg_id [3:0]  $end
$var wire   32  aaafe  aw_msg_addr [31:0]  $end
$var wire    8  aaaff  aw_msg_len [7:0]  $end
$upscope $end
$scope module AXI_B $end
$var wire    1  aaafl  b_val       $end
$var wire    1  aaafm  b_rdy       $end
$var wire    4  aaafn  b_msg_id [3:0]  $end
$var wire    2  aaafo  b_msg_resp [1:0]  $end
$upscope $end
$scope module AXI_R $end
$var wire    1  aaaev  r_val       $end
$var wire    1  aaaew  r_rdy       $end
$var wire    4  aaaex  r_msg_id [3:0]  $end
$var wire   64  aaaey  r_msg_data [63:0]  $end
$var wire    2  aaaez  r_msg_resp [1:0]  $end
$var wire    1  aaafa  r_msg_last       $end
$upscope $end
$scope module AXI_W $end
$var wire    1  aaafg  w_val       $end
$var wire    1  aaafh  w_rdy       $end
$var wire   64  aaafi  w_msg_data [63:0]  $end
$var wire    1  aaafj  w_msg_last       $end
$var wire    8  aaafk  w_msg_wstrb [7:0]  $end
$upscope $end
$scope module Internal $end
$var wire    1  aaafp  dma_to_fft_val       $end
$var wire    1  aaafq  dma_to_fft_rdy       $end
$var real    1  aaafr  dma_to_fft_msg_real       $end
$var real    1  aaafs  dma_to_fft_msg_imag       $end
$var wire    1  aaaft  fft_to_dma_val       $end
$var wire    1  aaafu  fft_to_dma_rdy       $end
$var real    1  aaafv  fft_to_dma_msg_real       $end
$var real    1  aaafw  fft_to_dma_msg_imag       $end
$upscope $end
$upscope $end
$scope module Stagger $end
$var wire    1  aaaad  active       $end
$var wire   32  aaaae  counter [31:0]  $end
$upscope $end
$upscope $end
$enddefinitions  $end

$comment
All initial values are dumped below at time 0 sec = 0 timescale units.
$end

$dumpvars
1aaaaa
0aaaab
0aaaac
0aaaad
b0 aaaae
b0 aaaaf
b0 aaaag
0aaaah
0aaaai
0aaaaj
0aaaak
b0 aaaal
b0 aaaam
b0 aaaan
0aaaao
0aaaap
b0 aaaaq
b0 aaaar
b0 aaaas
0aaaat
0aaaau
0aaaav
b0 aaaaw
b0 aaaax
b0 aaaay
0aaaaz
0aaaba
b0 aaabb
0aaabc
b11111111 aaabd
0aaabe
0aaabf
b0 aaabg
b0 aaabh
0aaabi
0aaabj
r0 aaabk
r0 aaabl
0aaabm
0aaabn
r0 aaabo
r0 aaabp
b0 aaabq
b0 aaabr
0aaabs
0aaabt
0aaabu
0aaabv
b0 aaabw
b0 aaabx
b0 aaaby
0aaabz
0aaaca
b0 aaacb
b0 aaacc
b0 aaacd
0aaace
0aaacf
0aaacg
b0 aaach
b0 aaaci
b0 aaacj
0aaack
0aaacl
b0 aaacm
0aaacn
b11111111 aaaco
0aaacp
0aaacq
b0 aaacr
b0 aaacs
0aaact
0aaacu
r0 aaacv
r0 aaacw
0aaacx
0aaacy
r0 aaacz
r0 aaada
b0 aaadb
b0 aaadc
0aaadd
0aaade
0aaadf
0aaadg
b0 aaadh
b0 aaadi
b0 aaadj
0aaadk
0aaadl
b0 aaadm
b0 aaadn
b0 aaado
0aaadp
0aaadq
0aaadr
b0 aaads
b0 aaadt
b0 aaadu
0aaadv
0aaadw
b0 aaadx
0aaady
b11111111 aaadz
0aaaea
0aaaeb
b0 aaaec
b0 aaaed
0aaaee
0aaaef
r0 aaaeg
r0 aaaeh
0aaaei
0aaaej
r0 aaaek
r0 aaael
b0 aaaem
b0 aaaen
0aaaeo
0aaaep
0aaaeq
0aaaer
b0 aaaes
b0 aaaet
b0 aaaeu
0aaaev
0aaaew
b0 aaaex
b0 aaaey
b0 aaaez
0aaafa
0aaafb
0aaafc
b0 aaafd
b0 aaafe
b0 aaaff
0aaafg
0aaafh
b0 aaafi
0aaafj
b11111111 aaafk
0aaafl
0aaafm
b0 aaafn
b0 aaafo
0aaafp
0aaafq
r0 aaafr
r0 aaafs
0aaaft
0aaafu
r0 aaafv
r0 aaafw
$end

#10
1aaaak
1aaaap
1aaaav
1aaaba
1aaabf
1aaabj
1aaabn
1aaabv
1aaaca
1aaacg
1aaacl
1aaacq
1aaacu
1aaacy
1aaadg
1aaadl
1aaadr
1aaadw
1aaaeb
1aaaef
1aaaej
1aaaer
1aaaew
1aaafc
1aaafh
1aaafm
1aaafq
1aaafu

#500
0aaaaa

#1000
1aaaaa

#1500
0aaaaa

#2000
1aaaaa

#2500
0aaaaa

#3000
1aaaaa

#3500
0aaaaa

#4000
1aaaaa

#4500
0aaaaa

#5000
1aaaaa
1aaaab

#5500
0aaaaa

#6000
1aaaaa

#6500
0aaaaa

#7000
1aaaaa

#7500
0aaaaa

#8000
1aaaaa

#8500
0aaaaa

#9000
1aaaaa

#9500
0aaaaa

#10000
1aaaaa

#10500
0aaaaa

#11000
1aaaaa

#11500
0aaaaa

#12000
1aaaaa

#12500
0aaaaa

#13000
1aaaaa

#13500
0aaaaa

#14000
1aaaaa

#14500
0aaaaa

#15000
1aaaaa
1aaaac
1aaaad
b1 aaaae
b10000000 aaaag
1aaaah
b10000000 aaabr
b10000000 aaadc
b10000000 aaaen

#15500
0aaaaa

#16000
1aaaaa
0aaaac
b10 aaaae
0aaaah
1aaaai
b1111111 aaaan
b10000 aaaax
b1111111 aaaay
1aaabs

#16010
1aaaaj
1aaaau

#16500
0aaaaa

#17000
1aaaaa
b11 aaaae
b100001010101011000000000000000000101010100010111 aaaar
0aaabs
1aaabt
b1111111 aaaby
b10000 aaaci
b1111111 aaacj
1aaadd

#17010
0aaaaj
1aaaao
0aaaau
1aaabu
1aaacf

#17500
0aaaaa

#18000
1aaaaa
b100 aaaae
b10100110011101000000000000000001110011001100000 aaaar
r34134 aaabk
r21783 aaabl
b100100010000011000000000000000001110001110100011 aaacc
0aaadd
1aaade
b1111111 aaadj
b10000 aaadt
b1111111 aaadu
1aaaeo

#18010
1aaabi
0aaabu
1aaabz
0aaacf
1aaadf
1aaadq

#18500
0aaaaa

#19000
1aaaaa
b101 aaaae
b10110011010000100000000000000000010100101111101 aaaar
r21306 aaabk
r58976 aaabl
b10000110101110000000000000000000100101001001100 aaacc
r37126 aaacv
r58275 aaacw
b1111100010111100000000000000000010010000011101 aaadn
0aaaeo
1aaaep
b1111111 aaaeu
b10000 aaafe
b1111111 aaaff

#19010
1aaact
0aaadf
1aaadk
0aaadq
1aaaeq
1aaafb

#19500
0aaaaa

#20000
1aaaaa
b110 aaaae
b101110110110000100000000000000001011111010110011 aaaar
r22945 aaabk
r10621 aaabl
r55440 aaabo
r80759 aaabp
b1000010010011100000000000000001100110000010100 aaacc
r17244 aaacv
r19020 aaacw
b111001010100000000000000000001011001101001101 aaadn
r15919 aaaeg
r9245 aaaeh
b111001011010000000000000000000000100101101010100 aaaey

#20010
1aaabm
1aaaee
0aaaeq
1aaaev
0aaafb

#20500
0aaaaa

#21000
1aaaaa
b111 aaaae
b10100100000010000000000000000001110111101101001 aaaar
b110110001001000000000000000000010011101101110111 aaabb
r47969 aaabk
r48819 aaabl
r12828 aaabo
r-37193 aaabp
b111001001000100100000000000000000001111100010100 aaacc
r8487 aaacv
r52244 aaacw
r54370 aaacz
r77295 aaada
b101110110011111000000000000000001010100001010001 aaadn
r7336 aaaeg
r45901 aaaeh
b111111011010000100000000000000001110111000111001 aaaey
r58784 aaafr
r19284 aaafs

#21010
1aaaaz
1aaacx
1aaafp

#21500
0aaaaa

#22000
1aaaaa
0aaaad
b1000 aaaae
b101010001000101000000000000000000110101101111001 aaaar
b1100100001110011111111111111110110111010110111 aaabb
r20996 aaabk
r61289 aaabl
r70914 aaabo
r59440 aaabp
b1101101101101100000000000000001010000001100111 aaacc
b110101000110001000000000000000010010110111101111 aaacm
r58505 aaacv
r7956 aaacw
r19882 aaacz
r39255 aaada
b101110001110100000000000000001010000111011000 aaadn
r47934 aaaeg
r43089 aaaeh
r23255 aaaek
r55146 aaael
b101011010111000000000000000000101000010100111 aaaey
r64929 aaafr
r60985 aaafs

#22010
1aaack
1aaaei

#22500
0aaaaa

#23000
1aaaaa
b110110111001001000000000000000001001110100101011 aaaar
b1000101010000001000000000000000001110100000110000 aaabb
r43146 aaabk
r27513 aaabl
r-25024 aaabo
r-38198 aaabp
b111011000010100000000000000001110100001010011 aaacc
b10011011010101000000000000000001001100101010111 aaacm
r14043 aaacv
r41063 aaacw
r66992 aaacz
r60200 aaada
b11110100011010100000000000000001001000001100100 aaadn
b10110101101011100000000000000001101011101101010 aaadx
r5917 aaaeg
r41432 aaaeh
r8583 aaaek
r-36656 aaael
b101100010111001000000000000000000011001001101101 aaaey
r5550 aaafr
r20647 aaafs
r123713 aaafv
r80269 aaafw

#23010
1aaadv
1aaaft

#23500
0aaaaa

#24000
1aaaaa
b100111100010001100000000000000000101111011101100 aaaar
b1111111111111111100111100100000011111111111111110110101011001010 aaabb
r56210 aaabk
r40235 aaabl
r64142 aaabo
r88802 aaabp
b100111000011011100000000000000000110011010101110 aaacc
b1000001011011000000000000000000001110101100101000 aaacm
r7557 aaacv
r59475 aaacw
r-50018 aaacz
r44288 aaada
b11011101001011000000000000000001010001110000110 aaadn
b1000011000011111111111111111110111000011010000 aaadx
r31285 aaaeg
r36964 aaaeh
r53851 aaaek
r84521 aaael
b101111100111101100000000000000000001000000110010 aaaey
b1111000110100000100000000000000010011100110001101 aaafi
r45426 aaafr
r12909 aaafs
r-6145 aaafv
r-41701 aaafw

#24010
1aaafg

#24500
0aaaaa

#25000
1aaaaa
b10011010010110000000000000000000110011011000110 aaaar
b111110101000111000000000000000010101101011100010 aaabb
r40483 aaabk
r24300 aaabl
r-22150 aaabo
r33776 aaabp
b101101111111110000000000000000001110101001000000 aaacc
b1111111111111111001111001001111000000000000000001010110100000000 aaacm
r39991 aaacv
r26286 aaacw
r21600 aaacz
r100538 aaada
b10111011011110000000000000000001000001110100011 aaadn
b110100100101101100000000000000010100101000101001 aaadx
r28310 aaaeg
r41862 aaaeh
r42017 aaaek
r1657 aaael
b111001001100111100000000000000001001010001101110 aaaey
b1111111111111111111001111111111111111111111111110101110100011011 aaafi
r48763 aaafr
r4146 aaafs
r50976 aaafv
r33556 aaafw

#25500
0aaaaa

#26000
1aaaaa
b100111001001110100000000000000000010000101100000 aaaar
b1111111111111111101010010111101000000000000000001000001111110000 aaabb
r19756 aaabk
r26310 aaabl
r96693 aaabo
r64535 aaabp
b11111010110111100000000000000001101001110111011 aaacc
b10101000110000000000000000000011000100010111010 aaacm
r47100 aaacv
r59968 aaacw
r6486 aaacz
r-18412 aaada
b110100010001001100000000000000001100011101010011 aaadn
b101001000010000100000000000000000000011001111001 aaadx
r23996 aaaeg
r33699 aaaeh
r59595 aaaek
r78826 aaael
b111110100101100100000000000000000100111011111110 aaaey
b110001110010000000000000000000001000001100010100 aaafi
r58575 aaafr
r37998 aaafs
r-39876 aaafv
r7738 aaafw

#26500
0aaaaa

#27000
1aaaaa
b1111101111001100000000000000000010010100010011 aaaar
b1011110011011010100000000000000001111110000010111 aaabb
r40093 aaabk
r8544 aaabl
r15727 aaabo
r15935 aaabp
b101011001011000000000000000001111000001101100 aaacc
b110010101011011111111111111111011100000010100 aaacm
r32111 aaacv
r54203 aaacw
r87091 aaacz
r86254 aaada
b110100110100010000000000000000001111111000000110 aaadn
b111010001100101100000000000000010011001111101010 aaadx
r53523 aaaeg
r51027 aaaeh
r2975 aaaek
r-4898 aaael
b101100000101011100000000000000001011000100101110 aaaey
b1111111111111111011001000011110000000000000000000001111000111010 aaafi
r64089 aaafr
r20222 aaafs
r107338 aaafv
r42144 aaafw

#27500
0aaaaa

#28000
1aaaaa
b110101000010101100000000000000001110010001010111 aaaar
b1111010110111100000000000000000011111000111111 aaabb
r16115 aaabk
r9491 aaabl
r59849 aaabo
r34854 aaabp
b111101011111000000000000000000111000000001100 aaacc
b1010101000011001100000000000000010101000011101110 aaacm
r5526 aaacv
r61548 aaacw
r-7109 aaacz
r-33682 aaada
b111000111111110000000000000000001000000111000011 aaadn
b10111001111111111111111111111110110011011110 aaadx
r54084 aaaeg
r65030 aaaeh
r77519 aaaek
r84726 aaael
b100011110011100100000000000000000010011101010000 aaaey
b1101000110100101000000000000000001010010010100000 aaafi
r45143 aaafr
r45358 aaafs
r-9812 aaafv
r-33852 aaafw

#28500
0aaaaa

#29000
1aaaaa
b101011110010110000000000000000001100010110101000 aaaar
b111010011100100100000000000000001000100000100110 aaabb
r54315 aaabk
r58455 aaabl
r-20337 aaabo
r17766 aaabp
b101110000010000100000000000000000101010111101001 aaacc
b1111111111111111111001000011101111111111111111110111110001101110 aaacm
r7870 aaacv
r28684 aaacw
r37637 aaacz
r115751 aaada
b101110110110100000000000000000000001110111111100 aaadn
b1001011101100111100000000000000010100101011110110 aaadx
r58364 aaaeg
r33219 aaaeh
r-29527 aaaek
r-17328 aaael
b10010011000011000000000000000001010011101110000 aaaey
b1111111111111111110110011010110011111111111111110111101111000100 aaafi
r36665 aaafr
r10064 aaafs
r109232 aaafv
r65580 aaafw

#29500
0aaaaa

#30000
1aaaaa
b111100110101001000000000000000001010000100001100 aaaar
b1111111111111111101100001000111100000000000000000100010101100110 aaabb
r44844 aaabk
r50600 aaabl
r70430 aaabo
r67946 aaabp
b10011111011100000000000000001110111110000001 aaacc
b100100110000010100000000000000011100010000100111 aaacm
r47137 aaacv
r21993 aaacw
r26585 aaacz
r-7345 aaada
b11111010000101100000000000000001011000011111100 aaadn
b1111111111111111100011001010100111111111111111111011110001010000 aaadx
r47976 aaaeg
r7676 aaaeh
r112448 aaaek
r98249 aaael
b10100110111010000000000000000000101000110101000 aaaey
b1101010101011000000000000000000010000000000101100 aaafi
r18822 aaafr
r42864 aaafs
r18946 aaafv
r-25136 aaafw

#30500
0aaaaa

#31000
1aaaaa
b101101011010011000000000000000001100110000100100 aaaar
b1000100110001111000000000000000010000100101101010 aaabb
r62290 aaabk
r41228 aaabl
r-38200 aaabo
r-48964 aaabp
b10001000111010100000000000000000000001101100110 aaacc
b11001111101100111111111111111111110001101001111 aaacm
r2551 aaacv
r61313 aaacw
r55007 aaacz
r50677 aaada
b101011111010011100000000000000000001101111101100 aaadn
b1101101110100000000000000000000010111111111001001 aaadx
r32011 aaaeg
r45308 aaaeh
r-4280 aaaek
r31811 aaael
b111100100010000100000000000000001010101011100100 aaaey
b10010100000001011111111111111111001110111010000 aaafi
r21364 aaafr
r20904 aaafs
r55487 aaafv
r52928 aaafw

#31500
0aaaaa

#32000
1aaaaa
b11011000010000000000000000000100101111001010 aaaar
b1111111111111111011010101100100011111111111111110100000010111100 aaabb
r46502 aaabk
r52260 aaabl
r107134 aaabo
r91828 aaabp
b11010111111001100000000000000000001100010010001 aaacc
b110101101101111100000000000000001100010111110101 aaacm
r17525 aaacv
r870 aaacw
r-39267 aaacz
r6691 aaada
b10111000010000000000000000000001011101110001 aaadn
b1111111111111111111011110100100000000000000000000111110001000011 aaadx
r44967 aaaeg
r7148 aaaeh
r79987 aaaek
r52984 aaael
b101110011111100100000000000000000000010000111110 aaaey
b110110001011111100000000000000001100111011000000 aaafi
r61985 aaafr
r43748 aaafs
r17843 aaafv
r-32800 aaafw

#32500
0aaaaa

#33000
1aaaaa
b100001000011100100000000000000001000100111101000 aaaar
b1101000100111111000000000000000010110011010110100 aaabb
r3460 aaabk
r19402 aaabl
r-17446 aaabo
r9372 aaabp
b100010110110101100000000000000001101100111111111 aaacc
b1111111111111111011001101001110100000000000000000001101000100011 aaacm
r27635 aaacv
r6289 aaacw
r20076 aaacz
r62183 aaada
b100011111000001100000000000000000010111001101000 aaadn
b1001110000111001100000000000000001100111011111000 aaadx
r2948 aaaeg
r6001 aaaeh
r15965 aaaek
r-37632 aaael
b100100100100010100000000000000001010100100111000 aaaey
b10001011011001111111111111111110111111111100000 aaafi
r47609 aaafr
r1086 aaafs
r83349 aaafv
r64652 aaafw

#33500
0aaaaa

#34000
1aaaaa
b10010010111100100000000000000000000111101100010 aaaar
b1111111111111111101110111101101000000000000000000010010010011100 aaabb
r33849 aaabk
r35304 aaabl
r49962 aaabo
r71662 aaabp
b10111010101111000000000000000000010011101100010 aaacc
b10011100110110000000000000000001111001011100111 aaacm
r35691 aaacv
r55807 aaacw
r-14974 aaacz
r60443 aaada
b10100101110001100000000000000001111110011101010 aaadn
b1111100101110111111111111111110110110100000000 aaadx
r36739 aaaeg
r11880 aaaeh
r47915 aaaek
r13149 aaael
b11010110110100000000000000001010001001001101 aaaey
b1010001011001010100000000000000001111110010001100 aaafi
r37445 aaafr
r43320 aaafs
r-40621 aaafv
r-22844 aaafw

#34500
0aaaaa

#35000
1aaaaa
b101000111111111100000000000000000000001110100111 aaaar
b110000110010101000000000000000010001011111101110 aaabb
r18809 aaabk
r3938 aaabl
r43042 aaabo
r32858 aaabp
b1010110101100000000000000001010010100010101 aaacc
b1111111111111111110001011000001000000000000000001110110000011011 aaacm
r23902 aaacv
r10082 aaacw
r63326 aaacz
r62096 aaada
b110010101110110000000000000000001001111111100001 aaadn
b101110110010101100000000000000000011001101011101 aaadx
r21219 aaaeg
r64746 aaaeh
r42019 aaaek
r1147 aaael
b101100010101110000000000000000001010111000111100 aaaey
b1111111111111111011000010101001111111111111111111010011011000100 aaafi
r3437 aaafr
r41549 aaafs
r85054 aaafv
r44406 aaafw

#35500
0aaaaa

#36000
1aaaaa
b100011101101011100000000000000000000010011100000 aaaar
b101010000010001000000000000000001000000001011010 aaabb
r41983 aaabk
r935 aaabl
r52658 aaabo
r39242 aaabp
b1111000001000000000000000000001010111000000101 aaacc
b111101110101111000000000000000001111001010010000 aaacm
r1387 aaacv
r42261 aaacw
r-8056 aaacz
r-49518 aaada
b101110110001111000000000000000001111100011001000 aaadn
b101001000010001100000000000000000000010001111011 aaadx
r51948 aaaeg
r40929 aaaeh
r57958 aaaek
r76626 aaael
b11110001010000000000000000000001010010011100000 aaaey
b1010011000011111000000000000000001010110101110110 aaafi
r45404 aaafr
r44604 aaafs
r10164 aaafv
r-42234 aaafw

#36500
0aaaaa

#37000
1aaaaa
b10111011010100100000000000000000011000000110001 aaaar
b110011011011001000000000000000001001100101001010 aaabb
r36567 aaabk
r1248 aaabl
r15040 aaabo
r31366 aaabp
b100110110011010000000000000000001000110001101010 aaacc
b1111111111111111111000001000100011111111111111110011111010010010 aaacm
r15376 aaacv
r44549 aaacw
r25289 aaacz
r52343 aaada
b11001100001110000000000000000001100110110111001 aaadn
b111000100110011000000000000000010010101101010010 aaadx
r47902 aaaeg
r63688 aaaeh
r15520 aaaek
r-52866 aaael
b1010110001000000000000000000001011110101100 aaaey
b1001111011010011111111111111110101101100000110 aaafi
r30880 aaafr
r42208 aaafs
r48841 aaafv
r86153 aaafw

#37500
0aaaaa

#38000
1aaaaa
b110100111110110000000000000000000011111001011000 aaaar
b1110101100000000000000000000000111101010000110 aaabb
r23977 aaabk
r12337 aaabl
r78550 aaabo
r2183 aaabp
b10000100100010100000000000000000101101101011011 aaacc
b11000101100100100000000000000001100110001110111 aaacm
r39732 aaacv
r35946 aaacw
r22515 aaacz
r-32179 aaada
b10001110111011000000000000000001010010101001011 aaadn
b1111001010000011111111111111110011000101111110 aaadx
r26140 aaaeg
r52665 aaaeh
r99850 aaaek
r104617 aaael
b1011101001000100000000000000001000011111100111 aaaey
b101111101100100100000000000000010101000010001001 aaafi
r1378 aaafr
r6060 aaafs
r-41967 aaafv
r-3055 aaafw

#38500
0aaaaa

#39000
1aaaaa
b110000010111100100000000000000000000000110001110 aaaar
b1001100101101011000000000000000000000100010000111 aaabb
r54252 aaabk
r15960 aaabl
r5416 aaabo
r-313 aaabp
b1101111111010100000000000000000111101011010010 aaacc
b10101111111001111111111111111111000001001001101 aaacm
r16965 aaacv
r23387 aaacw
r55108 aaacz
r80495 aaada
b100001000110000000000000000001000001000000010 aaadn
b1100001100000101000000000000000011001100010101001 aaadx
r18294 aaaeg
r42315 aaaeh
r4046 aaaek
r-22759 aaael
b101001000000000100000000000000001110110101011110 aaaey
b1111111111111111010111000001000111111111111111111111010000010001 aaafi
r11921 aaafr
r34791 aaafs
r32258 aaafv
r48268 aaafw

#39500
0aaaaa

#40000
1aaaaa
b11000010100100100000000000000001000011001001001 aaaar
b101010010100011111111111111111111111011000111 aaabb
r49529 aaabk
r398 aaabl
r78229 aaabo
r28297 aaabp
b111110011111000000000000000000111111101001110 aaacc
b110101110100010000000000000000010011101001101111 aaacm
r14325 aaacv
r31442 aaacw
r-24356 aaacz
r8603 aaada
b10001010011001000000000000000000111100111110110 aaadn
b11111100111011111111111111111010011100011001 aaadx
r4236 aaaeg
r33282 aaaeh
r44434 aaaek
r94980 aaael
b11001100111011100000000000000001000111101010010 aaaey
b11111100000001000000000000000001011110010001100 aaafi
r41985 aaafr
r60766 aaafs
r29502 aaafv
r36148 aaafw

#40500
0aaaaa

#41000
1aaaaa
b100111011100011100000000000000001011000011010011 aaaar
b1001100011001010100000000000000000110111010001001 aaabb
r24905 aaabk
r34377 aaabl
r-30275 aaabo
r-3623 aaabp
b110000010011011100000000000000001011111011110100 aaacc
b1111111111111111101000001101110000000000000000000010000110011011 aaacm
r7998 aaacv
r32590 aaacw
r31290 aaacz
r54829 aaada
b100001001001100000000000000000001011010010101011 aaadn
b101011011001001000000000000000010111001100000100 aaadx
r17714 aaaeg
r31222 aaaeh
r7846 aaaek
r10350 aaael
b111111100101010100000000000000001110001101101001 aaaey
b11100110011111000000000000000001000110100110100 aaafi
r26231 aaafr
r36690 aaafs
r53906 aaafv
r95557 aaafw

#41500
0aaaaa

#42000
1aaaaa
b111011101001000000000000000000001001111111100000 aaaar
b1111111111111111100010011011110111111111111111111111000111011001 aaabb
r40391 aaabk
r45267 aaabl
r74434 aaabo
r34775 aaabp
b100100011000000100000000000000000111101100001101 aaacc
b11110100011101000000000000000001101011000101101 aaacm
r49463 aaacv
r48884 aaacw
r2640 aaacz
r-8055 aaada
b101010110000111100000000000000000000111100011011 aaadn
b111101010011000000000000000000010100001101110 aaadx
r33944 aaaeg
r46251 aaaeh
r21950 aaaek
r64504 aaael
b10101011010110000000000000000000111111100100011 aaaey
b110100101001001000000000000000010111010101000101 aaafi
r65109 aaafr
r58217 aaafs
r-30064 aaafv
r-25975 aaafw

#42500
0aaaaa

