out/test_runs/test_n8_file_stim/trace.vcd
$date
     Jun 30, 2026       06:40:08
$end

$version
 SystemC 2.3.3-Accellera --- Jun 25 2026 10:44:53
$end

$timescale
     1 ps
$end

$scope module SystemC $end
$scope module Control $end
$var wire    1  aaaaa  clk       $end
$var wire    1  aaaab  rst_n       $end
$var wire    1  aaaac  start_signal       $end
$upscope $end
$scope module Core0 $end
$var wire   32  aaaaf  base_addr [31:0]  $end
$var wire   32  aaaag  num_samples [31:0]  $end
$var wire    1  aaaah  start       $end
$var wire    1  aaaai  busy       $end
$scope module AXI_AR $end
$var wire    1  aaaaj  ar_val       $end
$var wire    1  aaaak  ar_rdy       $end
$var wire    4  aaaal  ar_msg_id [3:0]  $end
$var wire   32  aaaam  ar_msg_addr [31:0]  $end
$var wire    8  aaaan  ar_msg_len [7:0]  $end
$upscope $end
$scope module AXI_AW $end
$var wire    1  aaaau  aw_val       $end
$var wire    1  aaaav  aw_rdy       $end
$var wire    4  aaaaw  aw_msg_id [3:0]  $end
$var wire   32  aaaax  aw_msg_addr [31:0]  $end
$var wire    8  aaaay  aw_msg_len [7:0]  $end
$upscope $end
$scope module AXI_B $end
$var wire    1  aaabe  b_val       $end
$var wire    1  aaabf  b_rdy       $end
$var wire    4  aaabg  b_msg_id [3:0]  $end
$var wire    2  aaabh  b_msg_resp [1:0]  $end
$upscope $end
$scope module AXI_R $end
$var wire    1  aaaao  r_val       $end
$var wire    1  aaaap  r_rdy       $end
$var wire    4  aaaaq  r_msg_id [3:0]  $end
$var wire   64  aaaar  r_msg_data [63:0]  $end
$var wire    2  aaaas  r_msg_resp [1:0]  $end
$var wire    1  aaaat  r_msg_last       $end
$upscope $end
$scope module AXI_W $end
$var wire    1  aaaaz  w_val       $end
$var wire    1  aaaba  w_rdy       $end
$var wire   64  aaabb  w_msg_data [63:0]  $end
$var wire    1  aaabc  w_msg_last       $end
$var wire    8  aaabd  w_msg_wstrb [7:0]  $end
$upscope $end
$scope module Internal $end
$var wire    1  aaabi  dma_to_fft_val       $end
$var wire    1  aaabj  dma_to_fft_rdy       $end
$var real    1  aaabk  dma_to_fft_msg_real       $end
$var real    1  aaabl  dma_to_fft_msg_imag       $end
$var wire    1  aaabm  fft_to_dma_val       $end
$var wire    1  aaabn  fft_to_dma_rdy       $end
$var real    1  aaabo  fft_to_dma_msg_real       $end
$var real    1  aaabp  fft_to_dma_msg_imag       $end
$upscope $end
$upscope $end
$scope module Core1 $end
$var wire   32  aaabq  base_addr [31:0]  $end
$var wire   32  aaabr  num_samples [31:0]  $end
$var wire    1  aaabs  start       $end
$var wire    1  aaabt  busy       $end
$scope module AXI_AR $end
$var wire    1  aaabu  ar_val       $end
$var wire    1  aaabv  ar_rdy       $end
$var wire    4  aaabw  ar_msg_id [3:0]  $end
$var wire   32  aaabx  ar_msg_addr [31:0]  $end
$var wire    8  aaaby  ar_msg_len [7:0]  $end
$upscope $end
$scope module AXI_AW $end
$var wire    1  aaacf  aw_val       $end
$var wire    1  aaacg  aw_rdy       $end
$var wire    4  aaach  aw_msg_id [3:0]  $end
$var wire   32  aaaci  aw_msg_addr [31:0]  $end
$var wire    8  aaacj  aw_msg_len [7:0]  $end
$upscope $end
$scope module AXI_B $end
$var wire    1  aaacp  b_val       $end
$var wire    1  aaacq  b_rdy       $end
$var wire    4  aaacr  b_msg_id [3:0]  $end
$var wire    2  aaacs  b_msg_resp [1:0]  $end
$upscope $end
$scope module AXI_R $end
$var wire    1  aaabz  r_val       $end
$var wire    1  aaaca  r_rdy       $end
$var wire    4  aaacb  r_msg_id [3:0]  $end
$var wire   64  aaacc  r_msg_data [63:0]  $end
$var wire    2  aaacd  r_msg_resp [1:0]  $end
$var wire    1  aaace  r_msg_last       $end
$upscope $end
$scope module AXI_W $end
$var wire    1  aaack  w_val       $end
$var wire    1  aaacl  w_rdy       $end
$var wire   64  aaacm  w_msg_data [63:0]  $end
$var wire    1  aaacn  w_msg_last       $end
$var wire    8  aaaco  w_msg_wstrb [7:0]  $end
$upscope $end
$scope module Internal $end
$var wire    1  aaact  dma_to_fft_val       $end
$var wire    1  aaacu  dma_to_fft_rdy       $end
$var real    1  aaacv  dma_to_fft_msg_real       $end
$var real    1  aaacw  dma_to_fft_msg_imag       $end
$var wire    1  aaacx  fft_to_dma_val       $end
$var wire    1  aaacy  fft_to_dma_rdy       $end
$var real    1  aaacz  fft_to_dma_msg_real       $end
$var real    1  aaada  fft_to_dma_msg_imag       $end
$upscope $end
$upscope $end
$scope module Stagger $end
$var wire    1  aaaad  active       $end
$var wire   32  aaaae  counter [31:0]  $end
$upscope $end
$upscope $end
$enddefinitions  $end

$comment
All initial values are dumped below at time 0 sec = 0 timescale units.
$end

$dumpvars
1aaaaa
0aaaab
0aaaac
0aaaad
b0 aaaae
b0 aaaaf
b0 aaaag
0aaaah
0aaaai
0aaaaj
0aaaak
b0 aaaal
b0 aaaam
b0 aaaan
0aaaao
0aaaap
b0 aaaaq
b0 aaaar
b0 aaaas
0aaaat
0aaaau
0aaaav
b0 aaaaw
b0 aaaax
b0 aaaay
0aaaaz
0aaaba
b0 aaabb
0aaabc
b11111111 aaabd
0aaabe
0aaabf
b0 aaabg
b0 aaabh
0aaabi
0aaabj
r0 aaabk
r0 aaabl
0aaabm
0aaabn
r0 aaabo
r0 aaabp
b0 aaabq
b0 aaabr
0aaabs
0aaabt
0aaabu
0aaabv
b0 aaabw
b0 aaabx
b0 aaaby
0aaabz
0aaaca
b0 aaacb
b0 aaacc
b0 aaacd
0aaace
0aaacf
0aaacg
b0 aaach
b0 aaaci
b0 aaacj
0aaack
0aaacl
b0 aaacm
0aaacn
b11111111 aaaco
0aaacp
0aaacq
b0 aaacr
b0 aaacs
0aaact
0aaacu
r0 aaacv
r0 aaacw
0aaacx
0aaacy
r0 aaacz
r0 aaada
$end

#10
1aaaak
1aaaap
1aaaav
1aaaba
1aaabf
1aaabj
1aaabn
1aaabv
1aaaca
1aaacg
1aaacl
1aaacq
1aaacu
1aaacy

#500
0aaaaa

#1000
1aaaaa

#1500
0aaaaa

#2000
1aaaaa

#2500
0aaaaa

#3000
1aaaaa

#3500
0aaaaa

#4000
1aaaaa

#4500
0aaaaa

#5000
1aaaaa
1aaaab

#5500
0aaaaa

#6000
1aaaaa

#6500
0aaaaa

#7000
1aaaaa

#7500
0aaaaa

#8000
1aaaaa

#8500
0aaaaa

#9000
1aaaaa

#9500
0aaaaa

#10000
1aaaaa

#10500
0aaaaa

#11000
1aaaaa

#11500
0aaaaa

#12000
1aaaaa

#12500
0aaaaa

#13000
1aaaaa

#13500
0aaaaa

#14000
1aaaaa

#14500
0aaaaa

#15000
1aaaaa
1aaaac
1aaaad
b1 aaaae
b10000000 aaaag
1aaaah
b10000000 aaabr

#15500
0aaaaa

#16000
1aaaaa
0aaaac
b10 aaaae
0aaaah
1aaaai
b1111111 aaaan
b1000000 aaaax
b1111111 aaaay
1aaabs

#16010
1aaaaj
1aaaau

#16500
0aaaaa

#17000
1aaaaa
b11 aaaae
0aaabs
1aaabt
b1111111 aaaby
b1000000 aaaci
b1111111 aaacj

#17010
0aaaaj
1aaaao
0aaaau
1aaabu
1aaacf

#17500
0aaaaa

#18000
1aaaaa
b100 aaaae
b10110100000000000000000000000000000000 aaaar
b1010000000000000000000000000000000000 aaacc

#18010
1aaabi
0aaabu
1aaabz
0aaacf

#18500
0aaaaa

#19000
1aaaaa
b101 aaaae
b101100000000000000000000000000000000 aaaar
r45 aaabk
b0 aaacc
r20 aaacv

#19010
1aaact

#19500
0aaaaa

#20000
1aaaaa
0aaaad
b110 aaaae
b11100000000000000000000000000000000 aaaar
r11 aaabk
b1111111111111111111111111110110000000000000000000000000000000000 aaacc
r0 aaacv

#20500
0aaaaa

#21000
1aaaaa
b101000000000000000000000000000000000 aaaar
r7 aaabk
b0 aaacc
r-20 aaacv

#21500
0aaaaa

#22000
1aaaaa
b1010000000000000000000000000000000000 aaaar
r10 aaabk
b1010000000000000000000000000000000000 aaacc
r0 aaacv

#22500
0aaaaa

#23000
1aaaaa
b110000000000000000000000000000000000 aaaar
r20 aaabk
b0 aaacc
r20 aaacv

#23500
0aaaaa

#24000
1aaaaa
b1111111111111111111111111111001000000000000000000000000000000000 aaaar
r12 aaabk
b1111111111111111111111111110110000000000000000000000000000000000 aaacc
r0 aaacv

#24500
0aaaaa

#25000
1aaaaa
b1000000000000000000000000000000000 aaaar
r-14 aaabk
b0 aaacc
r-20 aaacv

#25500
0aaaaa

#26000
1aaaaa
b1111111111111111111111111110001000000000000000000000000000000000 aaaar
r2 aaabk
b1010000000000000000000000000000000000 aaacc
r0 aaacv

#26500
0aaaaa

#27000
1aaaaa
b1111111111111111111111111101001100000000000000000000000000000000 aaaar
r-30 aaabk
b0 aaacc
r20 aaacv

#27500
0aaaaa

#28000
1aaaaa
b11000000000000000000000000000000000 aaaar
r-45 aaabk
r91 aaabo
b1111111111111111111111111110110000000000000000000000000000000000 aaacc
r0 aaacv

#28010
1aaabm

#28500
0aaaaa

#29000
1aaaaa
b101000000000000000000000000000000000 aaaar
b101101100000000000000000000000000000000 aaabb
r6 aaabk
r-25 aaabo
b0 aaacc
r-20 aaacv

#29010
1aaaaz
1aaacx

#29500
0aaaaa

#30000
1aaaaa
b1111111111111111111111111111111000000000000000000000000000000000 aaaar
b1111111111111111111111111110011100000000000000000000000000000000 aaabb
r10 aaabk
r-13 aaabo
r-72 aaabp
b1010000000000000000000000000000000000 aaacc
r0 aaacv

#30010
1aaack

#30500
0aaaaa

#31000
1aaaaa
b1111111111111111111111111111000100000000000000000000000000000000 aaaar
b1111111111111111111111111111001111111111111111111111111110111000 aaabb
r-2 aaabk
r-13 aaabo
r72 aaabp
b0 aaacc
r20 aaacv
r80 aaacz

#31500
0aaaaa

#32000
1aaaaa
b110100000000000000000000000000000000 aaaar
b1111111111111111111111111111001100000000000000000000000001001000 aaabb
r-15 aaabk
r-7.171572875253808 aaabo
r-31.52691193458119 aaabp
b1111111111111111111111111110110000000000000000000000000000000000 aaacc
b101000000000000000000000000000000000000 aaacm
r0 aaacv

#32500
0aaaaa

#33000
1aaaaa
b11001100000000000000000000000000000000 aaaar
b1111111111111111111111111111100111111111111111111111111111100000 aaabb
r13 aaabk
r-12.82842712474619 aaabo
r33.52691193458119 aaabp
b0 aaacc
r-20 aaacv
r0 aaacz

#33500
0aaaaa

#34000
1aaaaa
b101000000000000000000000000000000000 aaaar
b1111111111111111111111111111001100000000000000000000000000100010 aaabb
r51 aaabk
r-12.82842712474618 aaabo
r-33.52691193458119 aaabp
b1010000000000000000000000000000000000 aaacc
b0 aaacm
r0 aaacv

#34500
0aaaaa

#35000
1aaaaa
b10000000000000000000000000000000000 aaaar
b1111111111111111111111111111001111111111111111111111111111011110 aaabb
r10 aaabk
r-7.171572875253815 aaabo
r31.52691193458119 aaabp
b0 aaacc
r20 aaacv

#35500
0aaaaa

#36000
1aaaaa
b100000000000000000000000000000000000 aaaar
b1111111111111111111111111111100100000000000000000000000000100000 aaabb
r4 aaabk
r-61 aaabo
r0 aaabp
b1111111111111111111111111110110000000000000000000000000000000000 aaacc
r0 aaacv

#36500
0aaaaa

#37000
1aaaaa
b1111111111111111111111111110101000000000000000000000000000000000 aaaar
b1111111111111111111111111100001100000000000000000000000000000000 aaabb
r8 aaabk
r-35 aaabo
b0 aaacc
r-20 aaacv

#37500
0aaaaa

#38000
1aaaaa
b1111111111111111111111111111001000000000000000000000000000000000 aaaar
b1111111111111111111111111101110100000000000000000000000000000000 aaabb
r-22 aaabk
r72 aaabo
r51 aaabp
b1010000000000000000000000000000000000 aaacc
r0 aaacv

#38500
0aaaaa

#39000
1aaaaa
b1111111111111111111111111111011000000000000000000000000000000000 aaaar
b100100000000000000000000000000000110011 aaabb
r-14 aaabk
r-51 aaabp
b0 aaacc
r20 aaacv
r80 aaacz

#39500
0aaaaa

#40000
1aaaaa
b1111111111111111111111111111110000000000000000000000000000000000 aaaar
b100100011111111111111111111111111001101 aaabb
r-10 aaabk
r-22.8492424049175 aaabo
r54.74873734152916 aaabp
b1111111111111111111111111110110000000000000000000000000000000000 aaacc
b101000000000000000000000000000000000000 aaacm
r0 aaacv

#40500
0aaaaa

#41000
1aaaaa
b1111111111111111111111111110011000000000000000000000000000000000 aaaar
b1111111111111111111111111110100100000000000000000000000000110111 aaabb
r-4 aaabk
r6.849242404917497 aaabo
r5.251262658470839 aaabp
b0 aaacc
r-20 aaacv
r0 aaacz

#41500
0aaaaa

#42000
1aaaaa
b1111111111111111111111111101100100000000000000000000000000000000 aaaar
b11100000000000000000000000000000101 aaabb
r-26 aaabk
r6.849242404917494 aaabo
r-5.251262658470836 aaabp
b1010000000000000000000000000000000000 aaacc
b0 aaacm
r0 aaacv

#42500
0aaaaa

#43000
1aaaaa
b1110100000000000000000000000000000000 aaaar
b11111111111111111111111111111111011 aaabb
r-39 aaabk
r-22.84924240491749 aaabo
r-54.74873734152916 aaabp
b0 aaacc
r20 aaacv

#43500
0aaaaa

#44000
1aaaaa
b10001000000000000000000000000000000000 aaaar
b1111111111111111111111111110100111111111111111111111111111001001 aaabb
r29 aaabk
r23 aaabo
r0 aaabp
b1111111111111111111111111110110000000000000000000000000000000000 aaacc
r0 aaacv

#44500
0aaaaa

#45000
1aaaaa
b10000000000000000000000000000000000 aaaar
b1011100000000000000000000000000000000 aaabb
r34 aaabk
b0 aaacc
r-20 aaacv

#45500
0aaaaa

#46000
1aaaaa
b101000000000000000000000000000000000 aaaar
r4 aaabk
r35 aaabo
r8 aaabp
b1010000000000000000000000000000000000 aaacc
r0 aaacv

#46500
0aaaaa

#47000
1aaaaa
b101100000000000000000000000000000000 aaaar
b10001100000000000000000000000000001000 aaabb
r10 aaabk
r-8 aaabp
b0 aaacc
r20 aaacv
r80 aaacz

#47500
0aaaaa

#48000
1aaaaa
b1011100000000000000000000000000000000 aaaar
b10001111111111111111111111111111111000 aaabb
r11 aaabk
r81.48528137423857 aaabo
r-39.45584412271571 aaabp
b1111111111111111111111111110110000000000000000000000000000000000 aaacc
b101000000000000000000000000000000000000 aaacm
r0 aaacv

#48500
0aaaaa

#49000
1aaaaa
b1111111111111111111111111111111000000000000000000000000000000000 aaaar
b101000111111111111111111111111111011001 aaabb
r23 aaabk
r64.51471862576143 aaabo
r11.45584412271571 aaabp
b0 aaacc
r-20 aaacv
r0 aaacz

#49500
0aaaaa

#50000
1aaaaa
b1111111111111111111111111111011100000000000000000000000000000000 aaaar
b100000100000000000000000000000000001011 aaabb
r-2 aaabk
r-11.45584412271571 aaabp
b1010000000000000000000000000000000000 aaacc
b0 aaacm
r0 aaacv

#50500
0aaaaa

#51000
1aaaaa
b1111111111111111111111111111111000000000000000000000000000000000 aaaar
b100000111111111111111111111111111110101 aaabb
r-9 aaabk
r81.48528137423857 aaabo
r39.45584412271571 aaabp
b0 aaacc
r20 aaacv

#51500
0aaaaa

#52000
1aaaaa
b1111111111111111111111111101000000000000000000000000000000000000 aaaar
b101000100000000000000000000000000100111 aaabb
r-2 aaabk
r46 aaabo
r0 aaabp
b1111111111111111111111111110110000000000000000000000000000000000 aaacc
r0 aaacv

#52500
0aaaaa

#53000
1aaaaa
b1111111111111111111111111110011100000000000000000000000000000000 aaaar
b10111000000000000000000000000000000000 aaabb
r-48 aaabk
r-10 aaabo
b0 aaacc
r-20 aaacv

#53500
0aaaaa

#54000
1aaaaa
b111100000000000000000000000000000000 aaaar
b1111111111111111111111111111011000000000000000000000000000000000 aaabb
r-25 aaabk
r-62.00000000000001 aaabo
r86 aaabp
b1010000000000000000000000000000000000 aaacc
r0 aaacv

#54500
0aaaaa

#55000
1aaaaa
b10100000000000000000000000000000000 aaaar
b1111111111111111111111111100001000000000000000000000000001010110 aaabb
r15 aaabk
r-61.99999999999999 aaabo
r-86 aaabp
b0 aaacc
r20 aaacv
r80 aaacz

#55500
0aaaaa

#56000
1aaaaa
b1111111111111111111111111111100100000000000000000000000000000000 aaaar
b1111111111111111111111111100001011111111111111111111111110101010 aaabb
r5 aaabk
r-72.42640687119285 aaabo
r8.870057685088803 aaabp
b1111111111111111111111111110110000000000000000000000000000000000 aaacc
b101000000000000000000000000000000000000 aaacm
r0 aaacv

#56500
0aaaaa

#57000
1aaaaa
b1111111111111111111111111111010000000000000000000000000000000000 aaaar
b1111111111111111111111111011100000000000000000000000000000001001 aaabb
r-7 aaabk
r12.42640687119285 aaabo
r-44.8700576850888 aaabp
b0 aaacc
r-20 aaacv
r0 aaacz

#57500
0aaaaa

#58000
1aaaaa
b10010000000000000000000000000000000000 aaaar
b110011111111111111111111111111010011 aaabb
r-12 aaabk
r12.42640687119285 aaabo
r44.87005768508881 aaabp
b1010000000000000000000000000000000000 aaacc
b0 aaacm
r0 aaacv

#58500
0aaaaa

#59000
1aaaaa
b10100000000000000000000000000000000000 aaaar
b110000000000000000000000000000101101 aaabb
r36 aaabk
r-72.42640687119285 aaabo
r-8.870057685088813 aaabp
b0 aaacc
r20 aaacv

#59500
0aaaaa

#60000
1aaaaa
b1111111111111111111111111111111000000000000000000000000000000000 aaaar
b1111111111111111111111111011100011111111111111111111111111110111 aaabb
r40 aaabk
r-73 aaabo
r0 aaabp
b1111111111111111111111111110110000000000000000000000000000000000 aaacc
r0 aaacv

#60500
0aaaaa

#61000
1aaaaa
b110000000000000000000000000000000000 aaaar
b1111111111111111111111111011011100000000000000000000000000000000 aaabb
r-2 aaabk
r25 aaabo
b0 aaacc
r-20 aaacv

#61500
0aaaaa

#62000
1aaaaa
b1111111111111111111111111111101100000000000000000000000000000000 aaaar
b1100100000000000000000000000000000000 aaabb
r12 aaabk
r-30 aaabo
r-61 aaabp
b1010000000000000000000000000000000000 aaacc
r0 aaacv

#62500
0aaaaa

#63000
1aaaaa
b1111111111111111111111111110101000000000000000000000000000000000 aaaar
b1111111111111111111111111110001011111111111111111111111111000011 aaabb
r-5 aaabk
r-30 aaabo
r61 aaabp
b0 aaacc
r20 aaacv
r80 aaacz

#63500
0aaaaa

#64000
1aaaaa
b1111111111111111111111111111011000000000000000000000000000000000 aaaar
b1111111111111111111111111110001000000000000000000000000000111101 aaabb
r-22 aaabk
r35.02081528017131 aaabo
r52.96194077712559 aaabp
b1111111111111111111111111110110000000000000000000000000000000000 aaacc
b101000000000000000000000000000000000000 aaacm
r0 aaacv

#64500
0aaaaa

#65000
1aaaaa
b1111111111111111111111111111011100000000000000000000000000000000 aaaar
b10001100000000000000000000000000110101 aaabb
r-10 aaabk
r10.9791847198287 aaabo
r-38.96194077712559 aaabp
b0 aaacc
r-20 aaacv
r0 aaacz

#65500
0aaaaa

#66000
1aaaaa
b1111111111111111111111111111101000000000000000000000000000000000 aaaar
b101111111111111111111111111111011001 aaabb
r-9 aaabk
r10.97918471982868 aaabo
r38.96194077712559 aaabp
b1010000000000000000000000000000000000 aaacc
b0 aaacm
r0 aaacv

#66500
0aaaaa

#67000
1aaaaa
b1111111111111111111111111101011100000000000000000000000000000000 aaaar
b101100000000000000000000000000100111 aaabb
r-6 aaabk
r35.02081528017132 aaabo
r-52.96194077712559 aaabp
b0 aaacc
r20 aaacv

#67500
0aaaaa

#68000
1aaaaa
b1111111111111111111111111111000100000000000000000000000000000000 aaaar
b10001111111111111111111111111111001011 aaabb
r-41 aaabk
r37 aaabo
r0 aaabp
b1111111111111111111111111110110000000000000000000000000000000000 aaacc
r0 aaacv

#68500
0aaaaa

#69000
1aaaaa
b10110000000000000000000000000000000000 aaaar
b10010100000000000000000000000000000000 aaabb
r-15 aaabk
r-1 aaabo
b0 aaacc
r-20 aaacv

#69500
0aaaaa

#70000
1aaaaa
b1001000000000000000000000000000000000 aaaar
b1111111111111111111111111111111100000000000000000000000000000000 aaabb
r44 aaabk
r-18 aaabo
r-43 aaabp
b1010000000000000000000000000000000000 aaacc
r0 aaacv

#70500
0aaaaa

#71000
1aaaaa
b10100000000000000000000000000000000 aaaar
b1111111111111111111111111110111011111111111111111111111111010101 aaabb
r18 aaabk
r-18 aaabo
r43 aaabp
b0 aaacc
r20 aaacv
r80 aaacz

#71500
0aaaaa

#72000
1aaaaa
b101000000000000000000000000000000000 aaaar
b1111111111111111111111111110111000000000000000000000000000101011 aaabb
r5 aaabk
r-0.6654762208439244 aaabo
r-96.64823227814082 aaabp
b1111111111111111111111111110110000000000000000000000000000000000 aaacc
b101000000000000000000000000000000000000 aaacm
r0 aaacv

#72500
0aaaaa

#73000
1aaaaa
b1000000000000000000000000000000000000 aaaar
b1111111111111111111111111111111111111111111111111111111110011111 aaabb
r10 aaabk
r-47.33452377915607 aaabo
r-27.35176772185918 aaabp
b0 aaacc
r-20 aaacv
r0 aaacz

#73500
0aaaaa

#74000
1aaaaa
b1001000000000000000000000000000000000 aaaar
b1111111111111111111111111101000111111111111111111111111111100101 aaabb
r16 aaabk
r-47.33452377915606 aaabo
r27.35176772185917 aaabp
b1010000000000000000000000000000000000 aaacc
b0 aaacm
r0 aaacv

#74500
0aaaaa

#75000
1aaaaa
b1111111111111111111111111111010000000000000000000000000000000000 aaaar
b1111111111111111111111111101000100000000000000000000000000011011 aaabb
r18 aaabk
r-0.6654762208439422 aaabo
r96.64823227814082 aaabp
b0 aaacc
r20 aaacv

#75500
0aaaaa

#76000
1aaaaa
b0 aaaar
b1111111111111111111111111111111100000000000000000000000001100001 aaabb
r-12 aaabk
r6 aaabo
r0 aaabp
b1111111111111111111111111110110000000000000000000000000000000000 aaacc
r0 aaacv

#76500
0aaaaa

#77000
1aaaaa
b1111111111111111111111111110110100000000000000000000000000000000 aaaar
b11000000000000000000000000000000000 aaabb
r0 aaabk
r-8 aaabo
b0 aaacc
r-20 aaacv

#77500
0aaaaa

#78000
1aaaaa
b1111111111111111111111111100111000000000000000000000000000000000 aaaar
b1111111111111111111111111111100000000000000000000000000000000000 aaabb
r-19 aaabk
r71 aaabo
r-17 aaabp
b1010000000000000000000000000000000000 aaacc
r0 aaacv

#78500
0aaaaa

#79000
1aaaaa
b1111111111111111111111111111110100000000000000000000000000000000 aaaar
b100011111111111111111111111111111101111 aaabb
r-50 aaabk
r17 aaabp
b0 aaacc
r20 aaacv
r80 aaacz

#79500
0aaaaa

#80000
1aaaaa
b110100000000000000000000000000000000 aaaar
b100011100000000000000000000000000010001 aaabb
r-3 aaabk
r-52.29289321881346 aaabo
r80.64823227814082 aaabp
b1111111111111111111111111110110000000000000000000000000000000000 aaacc
b101000000000000000000000000000000000000 aaacm
r0 aaacv

#80500
0aaaaa

#81000
1aaaaa
b0 aaaar
b1111111111111111111111111100110000000000000000000000000001010001 aaabb
r13 aaabk
r-53.70710678118654 aaabo
r11.35176772185918 aaabp
b0 aaacc
r-20 aaacv
r0 aaacz

#81500
0aaaaa

#82000
1aaaaa
b1111111111111111111111111111001100000000000000000000000000000000 aaaar
b1111111111111111111111111100101000000000000000000000000000001011 aaabb
r0 aaabk
r-53.70710678118655 aaabo
r-11.35176772185918 aaabp
b1010000000000000000000000000000000000 aaacc
b0 aaacm
r0 aaacv

#82500
0aaaaa

#83000
1aaaaa
b1100000000000000000000000000000000 aaaar
b1111111111111111111111111100101011111111111111111111111111110101 aaabb
r-13 aaabk
r-52.29289321881345 aaabo
r-80.64823227814082 aaabp
b0 aaacc
r20 aaacv

#83500
0aaaaa

#84000
1aaaaa
b11001000000000000000000000000000000000 aaaar
b1111111111111111111111111100110011111111111111111111111110101111 aaabb
r3 aaabk
r-37 aaabo
r0 aaabp
b1111111111111111111111111110110000000000000000000000000000000000 aaacc
r0 aaacv

#84500
0aaaaa

#85000
1aaaaa
b1001100000000000000000000000000000000 aaaar
b1111111111111111111111111101101100000000000000000000000000000000 aaabb
r50 aaabk
r1 aaabo
b0 aaacc
r-20 aaacv

#85500
0aaaaa

#86000
1aaaaa
b0 aaaar
b100000000000000000000000000000000 aaabb
r19 aaabk
r12 aaabo
r45 aaabp
b1010000000000000000000000000000000000 aaacc
r0 aaacv

#86500
0aaaaa

#87000
1aaaaa
b110000000000000000000000000000000000 aaaar
b110000000000000000000000000000101101 aaabb
r0 aaabk
r12 aaabo
r-45 aaabp
b0 aaacc
r20 aaacv
r80 aaacz

#87500
0aaaaa

#88000
1aaaaa
b1111111111111111111111111110111000000000000000000000000000000000 aaaar
b110011111111111111111111111111010011 aaabb
r12 aaabk
r92.27564927611036 aaabo
r-29.89087296526011 aaabp
b1111111111111111111111111110110000000000000000000000000000000000 aaacc
b101000000000000000000000000000000000000 aaacm
r0 aaacv

#88500
0aaaaa

#89000
1aaaaa
b1111111111111111111111111111000000000000000000000000000000000000 aaaar
b101110011111111111111111111111111100010 aaabb
r-18 aaabk
r-22.27564927611036 aaabo
r47.89087296526011 aaabp
b0 aaacc
r-20 aaacv
r0 aaacz

#89500
0aaaaa

#90000
1aaaaa
b1111111111111111111111111111011000000000000000000000000000000000 aaaar
b1111111111111111111111111110101000000000000000000000000000110000 aaabb
r-16 aaabk
r-22.27564927611035 aaabo
r-47.89087296526012 aaabp
b1010000000000000000000000000000000000 aaacc
b0 aaacm
r0 aaacv

#90500
0aaaaa

#91000
1aaaaa
b1111111111111111111111111111101100000000000000000000000000000000 aaaar
b1111111111111111111111111110101011111111111111111111111111010000 aaabb
r-10 aaabk
r92.27564927611036 aaabo
r29.89087296526012 aaabp
b0 aaacc
r20 aaacv

#91500
0aaaaa

#92000
1aaaaa
b1111111111111111111111111110111000000000000000000000000000000000 aaaar
b101110000000000000000000000000000011110 aaabb
r-5 aaabk
r53 aaabo
r0 aaabp
b1111111111111111111111111110110000000000000000000000000000000000 aaacc
r0 aaacv

#92500
0aaaaa

#93000
1aaaaa
b1111111111111111111111111101010000000000000000000000000000000000 aaaar
b11010100000000000000000000000000000000 aaabb
r-18 aaabk
r15 aaabo
b0 aaacc
r-20 aaacv

#93500
0aaaaa

#94000
1aaaaa
b111100000000000000000000000000000000 aaaar
b111100000000000000000000000000000000 aaabb
r-44 aaabk
r3.999999999999997 aaabo
r45 aaabp
b1010000000000000000000000000000000000 aaacc
r0 aaacv

#94500
0aaaaa

#95000
1aaaaa
b10100100000000000000000000000000000000 aaaar
b10000000000000000000000000000101101 aaabb
r15 aaabk
r4.000000000000003 aaabo
r-45 aaabp
b0 aaacc
r20 aaacv
r80 aaacz

#95500
0aaaaa

#96000
1aaaaa
b11000000000000000000000000000000000 aaaar
b10011111111111111111111111111010011 aaabb
r41 aaabk
r-76.27564927611036 aaabo
r-29.89087296526012 aaabp
b1111111111111111111111111110110000000000000000000000000000000000 aaacc
b101000000000000000000000000000000000000 aaacm
r0 aaacv

#96500
0aaaaa

#97000
1aaaaa
b100100000000000000000000000000000000 aaaar
b1111111111111111111111111011010011111111111111111111111111100010 aaabb
r6 aaabk
r38.27564927611035 aaabo
r47.89087296526012 aaabp
b0 aaacc
r-20 aaacv
r0 aaacz

#97500
0aaaaa

#98000
1aaaaa
b101000000000000000000000000000000000 aaaar
b10011000000000000000000000000000110000 aaabb
r9 aaabk
r38.27564927611036 aaabo
r-47.89087296526011 aaabp
b1010000000000000000000000000000000000 aaacc
b0 aaacm
r0 aaacv

#98500
0aaaaa

#99000
1aaaaa
b1011000000000000000000000000000000000 aaaar
b10011011111111111111111111111111010000 aaabb
r10 aaabk
r-76.27564927611036 aaabo
r29.89087296526011 aaabp
b0 aaacc
r20 aaacv

#99500
0aaaaa

#100000
1aaaaa
b10100000000000000000000000000000000 aaaar
b1111111111111111111111111011010000000000000000000000000000011110 aaabb
r22 aaabk
r-31 aaabo
r0 aaabp
b1111111111111111111111111110110000000000000000000000000000000000 aaacc
r0 aaacv

#100500
0aaaaa

#101000
1aaaaa
b1111111111111111111111111111010000000000000000000000000000000000 aaaar
b1111111111111111111111111110000100000000000000000000000000000000 aaabb
r5 aaabk
r-17 aaabo
b0 aaacc
r-20 aaacv

#101500
0aaaaa

#102000
1aaaaa
b1000000000000000000000000000000000 aaaar
b1111111111111111111111111110111100000000000000000000000000000000 aaabb
r-12 aaabk
r-96 aaabo
r-17 aaabp
b1010000000000000000000000000000000000 aaacc
r0 aaacv

#102500
0aaaaa

#103000
1aaaaa
b1111111111111111111111111101100000000000000000000000000000000000 aaaar
b1111111111111111111111111010000011111111111111111111111111101111 aaabb
r2 aaabk
r17 aaabp
b0 aaacc
r20 aaacv
r80 aaacz

#103500
0aaaaa

#104000
1aaaaa
b1111111111111111111111111101110000000000000000000000000000000000 aaaar
b1111111111111111111111111010000000000000000000000000000000010001 aaabb
r-40 aaabk
r27.29289321881345 aaabo
r80.64823227814082 aaabp
b1111111111111111111111111110110000000000000000000000000000000000 aaacc
b101000000000000000000000000000000000000 aaacm
r0 aaacv

#104500
0aaaaa

#105000
1aaaaa
b110000000000000000000000000000000000 aaaar
b1101100000000000000000000000001010001 aaabb
r-36 aaabk
r28.70710678118655 aaabo
r11.35176772185918 aaabp
b0 aaacc
r-20 aaacv
r0 aaacz

#105500
0aaaaa

#106000
1aaaaa
b11100000000000000000000000000000000 aaaar
b1110100000000000000000000000000001011 aaabb
r12 aaabk
r28.70710678118654 aaabo
r-11.35176772185918 aaabp
b1010000000000000000000000000000000000 aaacc
b0 aaacm
r0 aaacv

#106500
0aaaaa

#107000
1aaaaa
b1111111111111111111111111111101100000000000000000000000000000000 aaaar
b1110111111111111111111111111111110101 aaabb
r7 aaabk
r27.29289321881346 aaabo
r-80.64823227814082 aaabp
b0 aaacc
r20 aaacv

#107500
0aaaaa

#108000
1aaaaa
b1111111111111111111111111111000100000000000000000000000000000000 aaaar
b1101111111111111111111111111110101111 aaabb
r-5 aaabk
r-40 aaabo
r0 aaabp
b1111111111111111111111111110110000000000000000000000000000000000 aaacc
r0 aaacv

#108500
0aaaaa

