out/vcd/InterleavedFFT-DMA_N4_C2_H1_M4_A4_axi.vcd
$date
     Jun 18, 2026       18:09:13
$end

$version
 SystemC 2.3.3-Accellera --- Jun 12 2026 14:11:10
$end

$timescale
     1 ps
$end

$scope module SystemC $end
$var wire    1  aaaaa  clk       $end
$var wire   32  aaaab  cycle_count [31:0]  $end
$var wire    1  aaaac  rst       $end
$var wire    1  aaaad  start       $end
$var wire    1  aaaae  core_start_0       $end
$var wire    1  aaaaf  core_busy_0       $end
$var wire    1  aaaag  ar_val_0       $end
$var wire    1  aaaah  ar_rdy_0       $end
$var wire   32  aaaai  ar_addr_0 [31:0]  $end
$var wire    1  aaaaj  r_val_0       $end
$var wire    1  aaaak  r_rdy_0       $end
$var real    1  aaaal  r_real_0       $end
$var real    1  aaaam  r_imag_0       $end
$var wire    1  aaaan  aw_val_0       $end
$var wire    1  aaaao  aw_rdy_0       $end
$var wire   32  aaaap  aw_addr_0 [31:0]  $end
$var wire    1  aaaaq  w_val_0       $end
$var wire    1  aaaar  w_rdy_0       $end
$var real    1  aaaas  w_real_0       $end
$var real    1  aaaat  w_imag_0       $end
$var wire    1  aaaau  b_val_0       $end
$var wire    1  aaaav  b_rdy_0       $end
$var wire    1  aaaaw  core_start_1       $end
$var wire    1  aaaax  core_busy_1       $end
$var wire    1  aaaay  ar_val_1       $end
$var wire    1  aaaaz  ar_rdy_1       $end
$var wire   32  aaaba  ar_addr_1 [31:0]  $end
$var wire    1  aaabb  r_val_1       $end
$var wire    1  aaabc  r_rdy_1       $end
$var real    1  aaabd  r_real_1       $end
$var real    1  aaabe  r_imag_1       $end
$var wire    1  aaabf  aw_val_1       $end
$var wire    1  aaabg  aw_rdy_1       $end
$var wire   32  aaabh  aw_addr_1 [31:0]  $end
$var wire    1  aaabi  w_val_1       $end
$var wire    1  aaabj  w_rdy_1       $end
$var real    1  aaabk  w_real_1       $end
$var real    1  aaabl  w_imag_1       $end
$var wire    1  aaabm  b_val_1       $end
$var wire    1  aaabn  b_rdy_1       $end
$upscope $end
$enddefinitions  $end

$comment
All initial values are dumped below at time 0 sec = 0 timescale units.
$end

$dumpvars
1aaaaa
b1 aaaab
1aaaac
0aaaad
0aaaae
0aaaaf
0aaaag
0aaaah
b0 aaaai
0aaaaj
0aaaak
r0 aaaal
r0 aaaam
0aaaan
0aaaao
b0 aaaap
0aaaaq
0aaaar
r0 aaaas
r0 aaaat
0aaaau
0aaaav
0aaaaw
0aaaax
0aaaay
0aaaaz
b0 aaaba
0aaabb
0aaabc
r0 aaabd
r0 aaabe
0aaabf
0aaabg
b0 aaabh
0aaabi
0aaabj
r0 aaabk
r0 aaabl
0aaabm
0aaabn
$end

#500
0aaaaa

#1000
1aaaaa
b10 aaaab

#1500
0aaaaa

#2000
1aaaaa
b11 aaaab

#2500
0aaaaa

#3000
1aaaaa
b100 aaaab

#3500
0aaaaa

#4000
1aaaaa
b101 aaaab

#4500
0aaaaa

#5000
1aaaaa
b110 aaaab
0aaaac

#5500
0aaaaa

#6000
1aaaaa
b111 aaaab
1aaaah
1aaaao
1aaaaz
1aaabg

#6500
0aaaaa

#7000
1aaaaa
b1000 aaaab
0aaaah
0aaaao
0aaaaz
0aaabg

#7500
0aaaaa

#8000
1aaaaa
b1001 aaaab
1aaaah
1aaaao
1aaaaz
1aaabg

#8500
0aaaaa

#9000
1aaaaa
b1010 aaaab
0aaaah
0aaaao
0aaaaz
0aaabg

#9500
0aaaaa

#10000
1aaaaa
b1011 aaaab
1aaaah
1aaaao
1aaaaz
1aaabg

#10500
0aaaaa

#11000
1aaaaa
b1100 aaaab
0aaaah
0aaaao
0aaaaz
0aaabg

#11500
0aaaaa

#12000
1aaaaa
b1101 aaaab
1aaaah
1aaaao
1aaaaz
1aaabg

#12500
0aaaaa

#13000
1aaaaa
b1110 aaaab
0aaaah
0aaaao
0aaaaz
0aaabg

#13500
0aaaaa

#14000
1aaaaa
b1111 aaaab
1aaaah
1aaaao
1aaaaz
1aaabg

#14500
0aaaaa

#15000
1aaaaa
b10000 aaaab
0aaaah
0aaaao
0aaaaz
0aaabg

#15500
0aaaaa

#16000
1aaaaa
b10001 aaaab
1aaaah
1aaaao
1aaaaz
1aaabg

#16500
0aaaaa

#17000
1aaaaa
b10010 aaaab
0aaaah
0aaaao
0aaaaz
0aaabg

#17500
0aaaaa

#18000
1aaaaa
b10011 aaaab
1aaaah
1aaaao
1aaaaz
1aaabg

#18500
0aaaaa

#19000
1aaaaa
b10100 aaaab
0aaaah
0aaaao
0aaaaz
0aaabg

#19500
0aaaaa

#20000
1aaaaa
b10101 aaaab
1aaaah
1aaaao
1aaaaz
1aaabg

#20500
0aaaaa

#21000
1aaaaa
b10110 aaaab
0aaaah
0aaaao
0aaaaz
0aaabg

#21500
0aaaaa

#22000
1aaaaa
b10111 aaaab
1aaaah
1aaaao
1aaaaz
1aaabg

#22500
0aaaaa

#23000
1aaaaa
b11000 aaaab
0aaaah
0aaaao
0aaaaz
0aaabg

#23500
0aaaaa

#24000
1aaaaa
b11001 aaaab
1aaaah
1aaaao
1aaaaz
1aaabg

#24500
0aaaaa

#25000
1aaaaa
b11010 aaaab
0aaaah
0aaaao
0aaaaz
0aaabg

#25500
0aaaaa

#26000
1aaaaa
b11011 aaaab
1aaaah
1aaaao
1aaaaz
1aaabg

#26500
0aaaaa

#27000
1aaaaa
b11100 aaaab
0aaaah
0aaaao
0aaaaz
0aaabg

#27500
0aaaaa

#28000
1aaaaa
b11101 aaaab
1aaaah
1aaaao
1aaaaz
1aaabg

#28500
0aaaaa

#29000
1aaaaa
b11110 aaaab
0aaaah
0aaaao
0aaaaz
0aaabg

#29500
0aaaaa

#30000
1aaaaa
b11111 aaaab
1aaaah
1aaaao
1aaaaz
1aaabg

#30500
0aaaaa

#31000
1aaaaa
b100000 aaaab
0aaaah
0aaaao
0aaaaz
0aaabg

#31500
0aaaaa

#32000
1aaaaa
b100001 aaaab
1aaaah
1aaaao
1aaaaz
1aaabg

#32500
0aaaaa

#33000
1aaaaa
b100010 aaaab
0aaaah
0aaaao
0aaaaz
0aaabg

#33500
0aaaaa

#34000
1aaaaa
b100011 aaaab
1aaaah
1aaaao
1aaaaz
1aaabg

#34500
0aaaaa

#35000
1aaaaa
b100100 aaaab
0aaaah
0aaaao
0aaaaz
0aaabg

#35500
0aaaaa

#36000
1aaaaa
b100101 aaaab
1aaaah
1aaaao
1aaaaz
1aaabg

#36500
0aaaaa

#37000
1aaaaa
b100110 aaaab
0aaaah
0aaaao
0aaaaz
0aaabg

#37500
0aaaaa

#38000
1aaaaa
b100111 aaaab
1aaaah
1aaaao
1aaaaz
1aaabg

#38500
0aaaaa

#39000
1aaaaa
b101000 aaaab
0aaaah
0aaaao
0aaaaz
0aaabg

#39500
0aaaaa

#40000
1aaaaa
b101001 aaaab
1aaaah
1aaaao
1aaaaz
1aaabg

#40500
0aaaaa

#41000
1aaaaa
b101010 aaaab
0aaaah
0aaaao
0aaaaz
0aaabg

#41500
0aaaaa

#42000
1aaaaa
b101011 aaaab
1aaaah
1aaaao
1aaaaz
1aaabg

#42500
0aaaaa

#43000
1aaaaa
b101100 aaaab
0aaaah
0aaaao
0aaaaz
0aaabg

#43500
0aaaaa

#44000
1aaaaa
b101101 aaaab
1aaaah
1aaaao
1aaaaz
1aaabg

#44500
0aaaaa

#45000
1aaaaa
b101110 aaaab
0aaaah
0aaaao
0aaaaz
0aaabg

#45500
0aaaaa

#46000
1aaaaa
b101111 aaaab
1aaaah
1aaaao
1aaaaz
1aaabg

#46500
0aaaaa

#47000
1aaaaa
b110000 aaaab
0aaaah
0aaaao
0aaaaz
0aaabg

#47500
0aaaaa

#48000
1aaaaa
b110001 aaaab
1aaaah
1aaaao
1aaaaz
1aaabg

#48500
0aaaaa

#49000
1aaaaa
b110010 aaaab
0aaaah
0aaaao
0aaaaz
0aaabg

#49500
0aaaaa

#50000
1aaaaa
b110011 aaaab
1aaaah
1aaaao
1aaaaz
1aaabg

#50500
0aaaaa

#51000
1aaaaa
b110100 aaaab
0aaaah
0aaaao
0aaaaz
0aaabg

#51500
0aaaaa

#52000
1aaaaa
b110101 aaaab
1aaaah
1aaaao
1aaaaz
1aaabg

#52500
0aaaaa

#53000
1aaaaa
b110110 aaaab
0aaaah
0aaaao
0aaaaz
0aaabg

#53500
0aaaaa

#54000
1aaaaa
b110111 aaaab
1aaaah
1aaaao
1aaaaz
1aaabg

#54500
0aaaaa

#55000
1aaaaa
b111000 aaaab
0aaaah
0aaaao
0aaaaz
0aaabg

#55500
0aaaaa

#56000
1aaaaa
b111001 aaaab
1aaaah
1aaaao
1aaaaz
1aaabg

#56500
0aaaaa

#57000
1aaaaa
b111010 aaaab
0aaaah
0aaaao
0aaaaz
0aaabg

#57500
0aaaaa

#58000
1aaaaa
b111011 aaaab
1aaaah
1aaaao
1aaaaz
1aaabg

#58500
0aaaaa

#59000
1aaaaa
b111100 aaaab
1aaaad
0aaaah
0aaaao
0aaaaz
0aaabg

#59500
0aaaaa

#60000
1aaaaa
b111101 aaaab
0aaaad
1aaaae
1aaaah
1aaaao
1aaaaz
1aaabg

#60500
0aaaaa

#61000
1aaaaa
b111110 aaaab
0aaaae
1aaaaf
1aaaag
0aaaah
1aaaak
1aaaan
0aaaao
1aaaaw
0aaaaz
0aaabg

#61500
0aaaaa

#62000
1aaaaa
b111111 aaaab
1aaaah
1aaaao
b100 aaaap
0aaaaw
1aaaax
1aaaay
1aaaaz
1aaabc
1aaabf
1aaabg

#62500
0aaaaa

#63000
1aaaaa
b1000000 aaaab
0aaaag
0aaaah
1aaaaj
0aaaan
0aaaao
1aaaar
0aaaay
0aaaaz
b1000 aaaba
1aaabb
0aaabf
0aaabg
b1100 aaabh
1aaabj

#63500
0aaaaa

#64000
1aaaaa
b1000001 aaaab
b0 aaaap
b0 aaaba
r8 aaabd
b0 aaabh

#64500
0aaaaa

#65000
1aaaaa
b1000010 aaaab
r1 aaaal
r9 aaabd

#65500
0aaaaa

#66000
1aaaaa
b1000011 aaaab
r2 aaaal
r10 aaabd

#66500
0aaaaa

#67000
1aaaaa
b1000100 aaaab
1aaaah
0aaaaj
0aaaak
r3 aaaal
1aaaaz
0aaabb
0aaabc
r11 aaabd

#67500
0aaaaa

#68000
1aaaaa
b1000101 aaaab
0aaaah
r0 aaaal
0aaaaz
r0 aaabd

#68500
0aaaaa

#69000
1aaaaa
b1000110 aaaab
1aaaah
1aaaaz

#69500
0aaaaa

#70000
1aaaaa
b1000111 aaaab
0aaaah
0aaaaz

#70500
0aaaaa

#71000
1aaaaa
b1001000 aaaab
1aaaah
1aaaaz

#71500
0aaaaa

#72000
1aaaaa
b1001001 aaaab
0aaaah
0aaaaz

#72500
0aaaaa

#73000
1aaaaa
b1001010 aaaab
1aaaah
1aaaaz

#73500
0aaaaa

#74000
1aaaaa
b1001011 aaaab
0aaaah
0aaaaz

#74500
0aaaaa

#75000
1aaaaa
b1001100 aaaab
1aaaah
1aaaaq
1aaaaz
1aaabi

#75500
0aaaaa

#76000
1aaaaa
b1001101 aaaab
0aaaah
r6 aaaas
0aaaaz
r38 aaabk

#76500
0aaaaa

#77000
1aaaaa
b1001110 aaaab
1aaaah
0aaaaq
r-2 aaaas
1aaaaz
0aaabi
r-2 aaabk

#77500
0aaaaa

#78000
1aaaaa
b1001111 aaaab
0aaaah
1aaaaq
r0 aaaas
0aaaaz
1aaabi
r0 aaabk

#78500
0aaaaa

#79000
1aaaaa
b1010000 aaaab
1aaaah
r-2 aaaas
r2 aaaat
1aaaaz
r-2 aaabk
r2 aaabl

#79500
0aaaaa

#80000
1aaaaa
b1010001 aaaab
0aaaah
0aaaaq
0aaaar
r-2 aaaat
1aaaau
0aaaaz
0aaabi
0aaabj
r-2 aaabl
1aaabm

#80500
0aaaaa

#81000
1aaaaa
b1010010 aaaab
1aaaah
r0 aaaas
r0 aaaat
1aaaaz
r0 aaabk
r0 aaabl

#81500
0aaaaa

#82000
1aaaaa
b1010011 aaaab
0aaaah
0aaaaz

#82500
0aaaaa

#83000
1aaaaa
b1010100 aaaab
1aaaah
1aaaaz

#83500
0aaaaa

#84000
1aaaaa
b1010101 aaaab
0aaaah
0aaaaz

#84500
0aaaaa

#85000
1aaaaa
b1010110 aaaab
1aaaah
1aaaaz

#85500
0aaaaa

#86000
1aaaaa
b1010111 aaaab
0aaaah
0aaaaz

#86500
0aaaaa

#87000
1aaaaa
b1011000 aaaab
1aaaah
1aaaaz

#87500
0aaaaa

#88000
1aaaaa
b1011001 aaaab
0aaaah
0aaaaz

#88500
0aaaaa

#89000
1aaaaa
b1011010 aaaab
1aaaah
1aaaaz

#89500
0aaaaa

#90000
1aaaaa
b1011011 aaaab
0aaaah
0aaaaz

#90500
0aaaaa

#91000
1aaaaa
b1011100 aaaab
1aaaah
1aaaaz

#91500
0aaaaa

#92000
1aaaaa
b1011101 aaaab
0aaaah
0aaaaz

#92500
0aaaaa

#93000
1aaaaa
b1011110 aaaab
1aaaah
1aaaaz

#93500
0aaaaa

#94000
1aaaaa
b1011111 aaaab
0aaaah
0aaaaz

#94500
0aaaaa

#95000
1aaaaa
b1100000 aaaab
1aaaah
1aaaaz

#95500
0aaaaa

#96000
1aaaaa
b1100001 aaaab
0aaaah
0aaaaz

#96500
0aaaaa

#97000
1aaaaa
b1100010 aaaab
1aaaah
1aaaaz

#97500
0aaaaa

#98000
1aaaaa
b1100011 aaaab
0aaaah
0aaaaz

#98500
0aaaaa

#99000
1aaaaa
b1100100 aaaab
1aaaah
1aaaaz

#99500
0aaaaa

#100000
1aaaaa
b1100101 aaaab
0aaaah
0aaaaz

#100500
0aaaaa

#101000
1aaaaa
b1100110 aaaab
1aaaah
1aaaaz

#101500
0aaaaa

#102000
1aaaaa
b1100111 aaaab
0aaaah
0aaaaz

#102500
0aaaaa

#103000
1aaaaa
b1101000 aaaab
1aaaah
1aaaaz

#103500
0aaaaa

#104000
1aaaaa
b1101001 aaaab
0aaaah
0aaaaz

#104500
0aaaaa

#105000
1aaaaa
b1101010 aaaab
1aaaah
1aaaaz

#105500
0aaaaa

#106000
1aaaaa
b1101011 aaaab
0aaaah
0aaaaz

#106500
0aaaaa

#107000
1aaaaa
b1101100 aaaab
1aaaah
1aaaaz

#107500
0aaaaa

#108000
1aaaaa
b1101101 aaaab
0aaaah
0aaaaz

#108500
0aaaaa

#109000
1aaaaa
b1101110 aaaab
1aaaah
1aaaaz

#109500
0aaaaa

#110000
1aaaaa
b1101111 aaaab
0aaaah
0aaaaz

#110500
0aaaaa

#111000
1aaaaa
b1110000 aaaab
1aaaah
1aaaaz

#111500
0aaaaa

#112000
1aaaaa
b1110001 aaaab
0aaaah
0aaaaz

#112500
0aaaaa

#113000
1aaaaa
b1110010 aaaab
1aaaah
1aaaaz

#113500
0aaaaa

#114000
1aaaaa
b1110011 aaaab
0aaaah
0aaaaz

#114500
0aaaaa

#115000
1aaaaa
b1110100 aaaab
1aaaah
1aaaaz

#115500
0aaaaa

#116000
1aaaaa
b1110101 aaaab
0aaaah
0aaaaz

#116500
0aaaaa

#117000
1aaaaa
b1110110 aaaab
1aaaah
1aaaaz

#117500
0aaaaa

#118000
1aaaaa
b1110111 aaaab
0aaaah
0aaaaz

#118500
0aaaaa

#119000
1aaaaa
b1111000 aaaab
1aaaah
1aaaaz

#119500
0aaaaa

#120000
1aaaaa
b1111001 aaaab
0aaaah
0aaaaz

#120500
0aaaaa

#121000
1aaaaa
b1111010 aaaab
1aaaah
1aaaaz

#121500
0aaaaa

#122000
1aaaaa
b1111011 aaaab
0aaaah
0aaaaz

#122500
0aaaaa

#123000
1aaaaa
b1111100 aaaab
1aaaah
1aaaaz

#123500
0aaaaa

#124000
1aaaaa
b1111101 aaaab
0aaaah
0aaaaz

#124500
0aaaaa

#125000
1aaaaa
b1111110 aaaab
1aaaah
1aaaaz

#125500
0aaaaa

#126000
1aaaaa
b1111111 aaaab
0aaaah
0aaaaz

#126500
0aaaaa

#127000
1aaaaa
b10000000 aaaab
1aaaah
1aaaaz

#127500
0aaaaa

#128000
1aaaaa
b10000001 aaaab
0aaaah
0aaaaz

#128500
0aaaaa

#129000
1aaaaa
b10000010 aaaab
1aaaah
1aaaaz

#129500
0aaaaa

#130000
1aaaaa
b10000011 aaaab
0aaaah
0aaaaz

#130500
0aaaaa

#131000
1aaaaa
b10000100 aaaab
1aaaah
1aaaaz

#131500
0aaaaa

#132000
1aaaaa
b10000101 aaaab
0aaaah
0aaaaz

#132500
0aaaaa

#133000
1aaaaa
b10000110 aaaab
1aaaah
1aaaaz

#133500
0aaaaa

#134000
1aaaaa
b10000111 aaaab
0aaaah
0aaaaz

#134500
0aaaaa

#135000
1aaaaa
b10001000 aaaab
1aaaah
1aaaaz

#135500
0aaaaa

#136000
1aaaaa
b10001001 aaaab
0aaaah
0aaaaz

#136500
0aaaaa

#137000
1aaaaa
b10001010 aaaab
1aaaah
1aaaaz

#137500
0aaaaa

#138000
1aaaaa
b10001011 aaaab
0aaaah
0aaaaz

#138500
0aaaaa

#139000
1aaaaa
b10001100 aaaab
1aaaah
1aaaaz

#139500
0aaaaa

#140000
1aaaaa
b10001101 aaaab
0aaaah
0aaaaz

#140500
0aaaaa

#141000
1aaaaa
b10001110 aaaab
1aaaah
1aaaaz

#141500
0aaaaa

#142000
1aaaaa
b10001111 aaaab
0aaaah
0aaaaz

#142500
0aaaaa

#143000
1aaaaa
b10010000 aaaab
1aaaah
1aaaaz

#143500
0aaaaa

#144000
1aaaaa
b10010001 aaaab
0aaaah
0aaaaz

#144500
0aaaaa

#145000
1aaaaa
b10010010 aaaab
1aaaah
1aaaaz

#145500
0aaaaa

#146000
1aaaaa
b10010011 aaaab
0aaaah
0aaaaz

#146500
0aaaaa

#147000
1aaaaa
b10010100 aaaab
1aaaah
1aaaaz

#147500
0aaaaa

#148000
1aaaaa
b10010101 aaaab
0aaaah
0aaaaz

#148500
0aaaaa

#149000
1aaaaa
b10010110 aaaab
1aaaah
1aaaaz

#149500
0aaaaa

#150000
1aaaaa
b10010111 aaaab
0aaaah
0aaaaz

#150500
0aaaaa

#151000
1aaaaa
b10011000 aaaab
1aaaah
1aaaaz

#151500
0aaaaa

#152000
1aaaaa
b10011001 aaaab
0aaaah
0aaaaz

#152500
0aaaaa

#153000
1aaaaa
b10011010 aaaab
1aaaah
1aaaaz

#153500
0aaaaa

#154000
1aaaaa
b10011011 aaaab
0aaaah
0aaaaz

#154500
0aaaaa

#155000
1aaaaa
b10011100 aaaab
1aaaah
1aaaaz

#155500
0aaaaa

#156000
1aaaaa
b10011101 aaaab
0aaaah
0aaaaz

#156500
0aaaaa

#157000
1aaaaa
b10011110 aaaab
1aaaah
1aaaaz

#157500
0aaaaa

#158000
1aaaaa
b10011111 aaaab
0aaaah
0aaaaz

#158500
0aaaaa

#159000
1aaaaa
b10100000 aaaab
1aaaah
1aaaaz

#159500
0aaaaa

#160000
1aaaaa
b10100001 aaaab
0aaaah
0aaaaz

#160500
0aaaaa

#161000
1aaaaa
b10100010 aaaab
1aaaah
1aaaaz

#161500
0aaaaa

#162000
1aaaaa
b10100011 aaaab
0aaaah
0aaaaz

#162500
0aaaaa

#163000
1aaaaa
b10100100 aaaab
1aaaah
1aaaaz

#163500
0aaaaa

#164000
1aaaaa
b10100101 aaaab
0aaaah
0aaaaz

#164500
0aaaaa

#165000
1aaaaa
b10100110 aaaab
1aaaah
1aaaaz

#165500
0aaaaa

#166000
1aaaaa
b10100111 aaaab
0aaaah
0aaaaz

#166500
0aaaaa

#167000
1aaaaa
b10101000 aaaab
1aaaah
1aaaaz

#167500
0aaaaa

#168000
1aaaaa
b10101001 aaaab
0aaaah
0aaaaz

#168500
0aaaaa

#169000
1aaaaa
b10101010 aaaab
1aaaah
1aaaaz

#169500
0aaaaa

#170000
1aaaaa
b10101011 aaaab
0aaaah
0aaaaz

#170500
0aaaaa

#171000
1aaaaa
b10101100 aaaab
1aaaah
1aaaaz

#171500
0aaaaa

#172000
1aaaaa
b10101101 aaaab
0aaaah
0aaaaz

#172500
0aaaaa

#173000
1aaaaa
b10101110 aaaab
1aaaah
1aaaaz

#173500
0aaaaa

#174000
1aaaaa
b10101111 aaaab
0aaaah
0aaaaz

#174500
0aaaaa

#175000
1aaaaa
b10110000 aaaab
1aaaah
1aaaaz

#175500
0aaaaa

#176000
1aaaaa
b10110001 aaaab
0aaaah
0aaaaz

#176500
0aaaaa

#177000
1aaaaa
b10110010 aaaab
1aaaah
1aaaaz

#177500
0aaaaa

#178000
1aaaaa
b10110011 aaaab
0aaaah
0aaaaz

#178500
0aaaaa

#179000
1aaaaa
b10110100 aaaab
1aaaah
1aaaaz

#179500
0aaaaa

#180000
1aaaaa
b10110101 aaaab
0aaaah
0aaaaz

#180500
0aaaaa

#181000
1aaaaa
b10110110 aaaab
1aaaah
1aaaaz

#181500
0aaaaa

#182000
1aaaaa
b10110111 aaaab
0aaaah
0aaaaz

#182500
0aaaaa

#183000
1aaaaa
b10111000 aaaab
1aaaah
1aaaaz

#183500
0aaaaa

#184000
1aaaaa
b10111001 aaaab
0aaaah
0aaaaz

#184500
0aaaaa

#185000
1aaaaa
b10111010 aaaab
1aaaah
1aaaaz

#185500
0aaaaa

#186000
1aaaaa
b10111011 aaaab
0aaaah
0aaaaz

#186500
0aaaaa

#187000
1aaaaa
b10111100 aaaab
1aaaah
1aaaaz

#187500
0aaaaa

#188000
1aaaaa
b10111101 aaaab
0aaaah
0aaaaz

#188500
0aaaaa

#189000
1aaaaa
b10111110 aaaab
1aaaah
1aaaaz

#189500
0aaaaa

#190000
1aaaaa
b10111111 aaaab
0aaaah
0aaaaz

#190500
0aaaaa

#191000
1aaaaa
b11000000 aaaab
1aaaah
1aaaaz

#191500
0aaaaa

#192000
1aaaaa
b11000001 aaaab
0aaaah
0aaaaz

#192500
0aaaaa

#193000
1aaaaa
b11000010 aaaab
1aaaah
1aaaaz

#193500
0aaaaa

#194000
1aaaaa
b11000011 aaaab
0aaaah
0aaaaz

#194500
0aaaaa

#195000
1aaaaa
b11000100 aaaab
1aaaah
1aaaaz

#195500
0aaaaa

#196000
1aaaaa
b11000101 aaaab
0aaaah
0aaaaz

#196500
0aaaaa

#197000
1aaaaa
b11000110 aaaab
1aaaah
1aaaaz

#197500
0aaaaa

#198000
1aaaaa
b11000111 aaaab
0aaaah
0aaaaz

#198500
0aaaaa

#199000
1aaaaa
b11001000 aaaab
1aaaah
1aaaaz

#199500
0aaaaa

#200000
1aaaaa
b11001001 aaaab
0aaaah
0aaaaz

#200500
0aaaaa

#201000
1aaaaa
b11001010 aaaab
1aaaah
1aaaaz

#201500
0aaaaa

#202000
1aaaaa
b11001011 aaaab
0aaaah
0aaaaz

#202500
0aaaaa

#203000
1aaaaa
b11001100 aaaab
1aaaah
1aaaaz

#203500
0aaaaa

#204000
1aaaaa
b11001101 aaaab
0aaaah
0aaaaz

#204500
0aaaaa

#205000
1aaaaa
b11001110 aaaab
1aaaah
1aaaaz

#205500
0aaaaa

#206000
1aaaaa
b11001111 aaaab
0aaaah
0aaaaz

#206500
0aaaaa

#207000
1aaaaa
b11010000 aaaab
1aaaah
1aaaaz

#207500
0aaaaa

#208000
1aaaaa
b11010001 aaaab
0aaaah
0aaaaz

#208500
0aaaaa

#209000
1aaaaa
b11010010 aaaab
1aaaah
1aaaaz

#209500
0aaaaa

#210000
1aaaaa
b11010011 aaaab
0aaaah
0aaaaz

#210500
0aaaaa

#211000
1aaaaa
b11010100 aaaab
1aaaah
1aaaaz

#211500
0aaaaa

#212000
1aaaaa
b11010101 aaaab
0aaaah
0aaaaz

#212500
0aaaaa

#213000
1aaaaa
b11010110 aaaab
1aaaah
1aaaaz

#213500
0aaaaa

#214000
1aaaaa
b11010111 aaaab
0aaaah
0aaaaz

#214500
0aaaaa

#215000
1aaaaa
b11011000 aaaab
1aaaah
1aaaaz

#215500
0aaaaa

#216000
1aaaaa
b11011001 aaaab
0aaaah
0aaaaz

#216500
0aaaaa

#217000
1aaaaa
b11011010 aaaab
1aaaah
1aaaaz

#217500
0aaaaa

#218000
1aaaaa
b11011011 aaaab
0aaaah
0aaaaz

#218500
0aaaaa

#219000
1aaaaa
b11011100 aaaab
1aaaah
1aaaaz

#219500
0aaaaa

#220000
1aaaaa
b11011101 aaaab
0aaaah
0aaaaz

#220500
0aaaaa

#221000
1aaaaa
b11011110 aaaab
1aaaah
1aaaaz

#221500
0aaaaa

#222000
1aaaaa
b11011111 aaaab
0aaaah
0aaaaz

#222500
0aaaaa

#223000
1aaaaa
b11100000 aaaab
1aaaah
1aaaaz

#223500
0aaaaa

#224000
1aaaaa
b11100001 aaaab
0aaaah
0aaaaz

#224500
0aaaaa

#225000
1aaaaa
b11100010 aaaab
1aaaah
1aaaaz

#225500
0aaaaa

#226000
1aaaaa
b11100011 aaaab
0aaaah
0aaaaz

#226500
0aaaaa

#227000
1aaaaa
b11100100 aaaab
1aaaah
1aaaaz

#227500
0aaaaa

#228000
1aaaaa
b11100101 aaaab
0aaaah
0aaaaz

#228500
0aaaaa

#229000
1aaaaa
b11100110 aaaab
1aaaah
1aaaaz

#229500
0aaaaa

#230000
1aaaaa
b11100111 aaaab
0aaaah
0aaaaz

#230500
0aaaaa

#231000
1aaaaa
b11101000 aaaab
1aaaah
1aaaaz

#231500
0aaaaa

#232000
1aaaaa
b11101001 aaaab
0aaaah
0aaaaz

#232500
0aaaaa

#233000
1aaaaa
b11101010 aaaab
1aaaah
1aaaaz

#233500
0aaaaa

#234000
1aaaaa
b11101011 aaaab
0aaaah
0aaaaz

#234500
0aaaaa

#235000
1aaaaa
b11101100 aaaab
1aaaah
1aaaaz

#235500
0aaaaa

#236000
1aaaaa
b11101101 aaaab
0aaaah
0aaaaz

#236500
0aaaaa

#237000
1aaaaa
b11101110 aaaab
1aaaah
1aaaaz

#237500
0aaaaa

#238000
1aaaaa
b11101111 aaaab
0aaaah
0aaaaz

#238500
0aaaaa

#239000
1aaaaa
b11110000 aaaab
1aaaah
1aaaaz

#239500
0aaaaa

#240000
1aaaaa
b11110001 aaaab
0aaaah
0aaaaz

#240500
0aaaaa

#241000
1aaaaa
b11110010 aaaab
1aaaah
1aaaaz

#241500
0aaaaa

#242000
1aaaaa
b11110011 aaaab
0aaaah
0aaaaz

#242500
0aaaaa

#243000
1aaaaa
b11110100 aaaab
1aaaah
1aaaaz

#243500
0aaaaa

#244000
1aaaaa
b11110101 aaaab
0aaaah
0aaaaz

#244500
0aaaaa

#245000
1aaaaa
b11110110 aaaab
1aaaah
1aaaaz

#245500
0aaaaa

#246000
1aaaaa
b11110111 aaaab
0aaaah
0aaaaz

#246500
0aaaaa

#247000
1aaaaa
b11111000 aaaab
1aaaah
1aaaaz

#247500
0aaaaa

#248000
1aaaaa
b11111001 aaaab
0aaaah
0aaaaz

#248500
0aaaaa

#249000
1aaaaa
b11111010 aaaab
1aaaah
1aaaaz

#249500
0aaaaa

#250000
1aaaaa
b11111011 aaaab
0aaaah
0aaaaz

#250500
0aaaaa

#251000
1aaaaa
b11111100 aaaab
1aaaah
1aaaaz

#251500
0aaaaa

#252000
1aaaaa
b11111101 aaaab
0aaaah
0aaaaz

#252500
0aaaaa

#253000
1aaaaa
b11111110 aaaab
1aaaah
1aaaaz

#253500
0aaaaa

#254000
1aaaaa
b11111111 aaaab
0aaaah
0aaaaz

#254500
0aaaaa

#255000
1aaaaa
b100000000 aaaab
1aaaah
1aaaaz

#255500
0aaaaa

#256000
1aaaaa
b100000001 aaaab
0aaaah
0aaaaz

#256500
0aaaaa

#257000
1aaaaa
b100000010 aaaab
1aaaah
1aaaaz

#257500
0aaaaa

#258000
1aaaaa
b100000011 aaaab
0aaaah
0aaaaz

#258500
0aaaaa

#259000
1aaaaa
b100000100 aaaab
1aaaah
1aaaaz

#259500
0aaaaa

#260000
1aaaaa
b100000101 aaaab
0aaaah
0aaaaz

#260500
0aaaaa

#261000
1aaaaa
b100000110 aaaab
1aaaah
1aaaaz

#261500
0aaaaa

#262000
1aaaaa
b100000111 aaaab
0aaaah
0aaaaz

#262500
0aaaaa

#263000
1aaaaa
b100001000 aaaab
1aaaah
1aaaaz

#263500
0aaaaa

#264000
1aaaaa
b100001001 aaaab
0aaaah
0aaaaz

#264500
0aaaaa

#265000
1aaaaa
b100001010 aaaab
1aaaah
1aaaaz

#265500
0aaaaa

#266000
1aaaaa
b100001011 aaaab
0aaaah
0aaaaz

#266500
0aaaaa

#267000
1aaaaa
b100001100 aaaab
1aaaah
1aaaaz

#267500
0aaaaa

#268000
1aaaaa
b100001101 aaaab
0aaaah
0aaaaz

#268500
0aaaaa

#269000
1aaaaa
b100001110 aaaab
1aaaah
1aaaaz

#269500
0aaaaa

#270000
1aaaaa
b100001111 aaaab
0aaaah
0aaaaz

#270500
0aaaaa

#271000
1aaaaa
b100010000 aaaab
1aaaah
1aaaaz

#271500
0aaaaa

#272000
1aaaaa
b100010001 aaaab
0aaaah
0aaaaz

#272500
0aaaaa

#273000
1aaaaa
b100010010 aaaab
1aaaah
1aaaaz

#273500
0aaaaa

#274000
1aaaaa
b100010011 aaaab
0aaaah
0aaaaz

#274500
0aaaaa

#275000
1aaaaa
b100010100 aaaab
1aaaah
1aaaaz

#275500
0aaaaa

#276000
1aaaaa
b100010101 aaaab
0aaaah
0aaaaz

#276500
0aaaaa

#277000
1aaaaa
b100010110 aaaab
1aaaah
1aaaaz

#277500
0aaaaa

#278000
1aaaaa
b100010111 aaaab
0aaaah
0aaaaz

#278500
0aaaaa

#279000
1aaaaa
b100011000 aaaab
1aaaah
1aaaaz

#279500
0aaaaa

#280000
1aaaaa
b100011001 aaaab
0aaaah
0aaaaz

#280500
0aaaaa

