out/vcd/InterleavedFFT-DMA_N8_C2_H1.vcd
$date
     Feb 27, 2026       16:22:42
$end

$version
 SystemC 2.3.3-Accellera --- Jan  3 2026 21:04:57
$end

$timescale
     1 ps
$end

$scope module SystemC $end
$var wire    1  aaaaa  clk       $end
$var wire   32  aaaab  cycle_count [31:0]  $end
$var wire    1  aaaac  rst       $end
$var wire    1  aaaad  start       $end
$var real    1  aaaae  out_data_0_real       $end
$var real    1  aaaaf  out_data_0_imag       $end
$var wire    1  aaaag  out_valid_0       $end
$var wire   32  aaaah  out_idx_0 [31:0]  $end
$var real    1  aaaai  out_data_1_real       $end
$var real    1  aaaaj  out_data_1_imag       $end
$var wire    1  aaaak  out_valid_1       $end
$var wire   32  aaaal  out_idx_1 [31:0]  $end
$upscope $end
$enddefinitions  $end

$comment
All initial values are dumped below at time 0 sec = 0 timescale units.
$end

$dumpvars
1aaaaa
b1 aaaab
1aaaac
0aaaad
r0 aaaae
r0 aaaaf
0aaaag
b11111111111111111111111111111111 aaaah
r0 aaaai
r0 aaaaj
0aaaak
b11111111111111111111111111111111 aaaal
$end

#500
0aaaaa

#1000
1aaaaa
b10 aaaab

#1500
0aaaaa

#2000
1aaaaa
b11 aaaab

#2500
0aaaaa

#3000
1aaaaa
b100 aaaab

#3500
0aaaaa

#4000
1aaaaa
b101 aaaab

#4500
0aaaaa

#5000
1aaaaa
b110 aaaab
0aaaac

#5500
0aaaaa

#6000
1aaaaa
b111 aaaab

#6500
0aaaaa

#7000
1aaaaa
b1000 aaaab

#7500
0aaaaa

#8000
1aaaaa
b1001 aaaab

#8500
0aaaaa

#9000
1aaaaa
b1010 aaaab

#9500
0aaaaa

#10000
1aaaaa
b1011 aaaab

#10500
0aaaaa

#11000
1aaaaa
b1100 aaaab

#11500
0aaaaa

#12000
1aaaaa
b1101 aaaab

#12500
0aaaaa

#13000
1aaaaa
b1110 aaaab

#13500
0aaaaa

#14000
1aaaaa
b1111 aaaab

#14500
0aaaaa

#15000
1aaaaa
b10000 aaaab

#15500
0aaaaa

#16000
1aaaaa
b10001 aaaab

#16500
0aaaaa

#17000
1aaaaa
b10010 aaaab

#17500
0aaaaa

#18000
1aaaaa
b10011 aaaab

#18500
0aaaaa

#19000
1aaaaa
b10100 aaaab

#19500
0aaaaa

#20000
1aaaaa
b10101 aaaab

#20500
0aaaaa

#21000
1aaaaa
b10110 aaaab

#21500
0aaaaa

#22000
1aaaaa
b10111 aaaab

#22500
0aaaaa

#23000
1aaaaa
b11000 aaaab

#23500
0aaaaa

#24000
1aaaaa
b11001 aaaab

#24500
0aaaaa

#25000
1aaaaa
b11010 aaaab

#25500
0aaaaa

#26000
1aaaaa
b11011 aaaab

#26500
0aaaaa

#27000
1aaaaa
b11100 aaaab

#27500
0aaaaa

#28000
1aaaaa
b11101 aaaab

#28500
0aaaaa

#29000
1aaaaa
b11110 aaaab

#29500
0aaaaa

#30000
1aaaaa
b11111 aaaab

#30500
0aaaaa

#31000
1aaaaa
b100000 aaaab

#31500
0aaaaa

#32000
1aaaaa
b100001 aaaab

#32500
0aaaaa

#33000
1aaaaa
b100010 aaaab

#33500
0aaaaa

#34000
1aaaaa
b100011 aaaab

#34500
0aaaaa

#35000
1aaaaa
b100100 aaaab

#35500
0aaaaa

#36000
1aaaaa
b100101 aaaab

#36500
0aaaaa

#37000
1aaaaa
b100110 aaaab

#37500
0aaaaa

#38000
1aaaaa
b100111 aaaab

#38500
0aaaaa

#39000
1aaaaa
b101000 aaaab

#39500
0aaaaa

#40000
1aaaaa
b101001 aaaab

#40500
0aaaaa

#41000
1aaaaa
b101010 aaaab

#41500
0aaaaa

#42000
1aaaaa
b101011 aaaab

#42500
0aaaaa

#43000
1aaaaa
b101100 aaaab
1aaaad

#43500
0aaaaa

#44000
1aaaaa
b101101 aaaab
0aaaad

#44500
0aaaaa

#45000
1aaaaa
b101110 aaaab

#45500
0aaaaa

#46000
1aaaaa
b101111 aaaab

#46500
0aaaaa

#47000
1aaaaa
b110000 aaaab

#47500
0aaaaa

#48000
1aaaaa
b110001 aaaab

#48500
0aaaaa

#49000
1aaaaa
b110010 aaaab

#49500
0aaaaa

#50000
1aaaaa
b110011 aaaab

#50500
0aaaaa

#51000
1aaaaa
b110100 aaaab

#51500
0aaaaa

#52000
1aaaaa
b110101 aaaab

#52500
0aaaaa

#53000
1aaaaa
b110110 aaaab

#53500
0aaaaa

#54000
1aaaaa
b110111 aaaab

#54500
0aaaaa

#55000
1aaaaa
b111000 aaaab

#55500
0aaaaa

#56000
1aaaaa
b111001 aaaab
r28 aaaae
1aaaag
b0 aaaah

#56500
0aaaaa

#57000
1aaaaa
b111010 aaaab
r-4 aaaae
b1 aaaah
r92 aaaai
1aaaak
b0 aaaal

#57500
0aaaaa

#58000
1aaaaa
b111011 aaaab
r4 aaaaf
b10 aaaah
r-4 aaaai
b1 aaaal

#58500
0aaaaa

#59000
1aaaaa
b111100 aaaab
r-4 aaaae
r-4 aaaaf
b11 aaaah
r4 aaaaj
b10 aaaal

#59500
0aaaaa

#60000
1aaaaa
b111101 aaaab
r-4 aaaae
r9.65685424949238 aaaaf
b100 aaaah
r-4 aaaai
r-4 aaaaj
b11 aaaal

#60500
0aaaaa

#61000
1aaaaa
b111110 aaaab
r-4 aaaae
r-1.65685424949238 aaaaf
b101 aaaah
r-4 aaaai
r9.65685424949238 aaaaj
b100 aaaal

#61500
0aaaaa

#62000
1aaaaa
b111111 aaaab
r-4 aaaae
r1.65685424949238 aaaaf
b110 aaaah
r-4 aaaai
r-1.65685424949238 aaaaj
b101 aaaal

#62500
0aaaaa

#63000
1aaaaa
b1000000 aaaab
r-3.999999999999999 aaaae
r-9.65685424949238 aaaaf
b111 aaaah
r-4 aaaai
r1.65685424949238 aaaaj
b110 aaaal

#63500
0aaaaa

#64000
1aaaaa
b1000001 aaaab
r0 aaaae
r0 aaaaf
0aaaag
b11111111111111111111111111111111 aaaah
r-3.999999999999999 aaaai
r-9.65685424949238 aaaaj
b111 aaaal

#64500
0aaaaa

#65000
1aaaaa
b1000010 aaaab
r0 aaaai
r0 aaaaj
0aaaak
b11111111111111111111111111111111 aaaal

#65500
0aaaaa

#66000
1aaaaa
b1000011 aaaab

#66500
0aaaaa

#67000
1aaaaa
b1000100 aaaab

#67500
0aaaaa

#68000
1aaaaa
b1000101 aaaab

#68500
0aaaaa

#69000
1aaaaa
b1000110 aaaab

#69500
0aaaaa

#70000
1aaaaa
b1000111 aaaab

#70500
0aaaaa

#71000
1aaaaa
b1001000 aaaab

#71500
0aaaaa

#72000
1aaaaa
b1001001 aaaab

#72500
0aaaaa

#73000
1aaaaa
b1001010 aaaab

#73500
0aaaaa

#74000
1aaaaa
b1001011 aaaab

#74500
0aaaaa

#75000
1aaaaa
b1001100 aaaab

#75500
0aaaaa

#76000
1aaaaa
b1001101 aaaab

#76500
0aaaaa

#77000
1aaaaa
b1001110 aaaab

#77500
0aaaaa

#78000
1aaaaa
b1001111 aaaab

#78500
0aaaaa

#79000
1aaaaa
b1010000 aaaab

#79500
0aaaaa

#80000
1aaaaa
b1010001 aaaab

#80500
0aaaaa

#81000
1aaaaa
b1010010 aaaab

#81500
0aaaaa

#82000
1aaaaa
b1010011 aaaab

#82500
0aaaaa

#83000
1aaaaa
b1010100 aaaab

#83500
0aaaaa

#84000
1aaaaa
b1010101 aaaab

#84500
0aaaaa

#85000
1aaaaa
b1010110 aaaab

#85500
0aaaaa

#86000
1aaaaa
b1010111 aaaab

#86500
0aaaaa

#87000
1aaaaa
b1011000 aaaab

#87500
0aaaaa

#88000
1aaaaa
b1011001 aaaab

#88500
0aaaaa

#89000
1aaaaa
b1011010 aaaab

#89500
0aaaaa

#90000
1aaaaa
b1011011 aaaab

#90500
0aaaaa

#91000
1aaaaa
b1011100 aaaab

#91500
0aaaaa

#92000
1aaaaa
b1011101 aaaab

#92500
0aaaaa

#93000
1aaaaa
b1011110 aaaab

#93500
0aaaaa

#94000
1aaaaa
b1011111 aaaab

#94500
0aaaaa

#95000
1aaaaa
b1100000 aaaab

#95500
0aaaaa

#96000
1aaaaa
b1100001 aaaab

#96500
0aaaaa

#97000
1aaaaa
b1100010 aaaab

#97500
0aaaaa

#98000
1aaaaa
b1100011 aaaab

#98500
0aaaaa

#99000
1aaaaa
b1100100 aaaab

#99500
0aaaaa

#100000
1aaaaa
b1100101 aaaab

#100500
0aaaaa

#101000
1aaaaa
b1100110 aaaab

#101500
0aaaaa

#102000
1aaaaa
b1100111 aaaab

#102500
0aaaaa

#103000
1aaaaa
b1101000 aaaab

#103500
0aaaaa

#104000
1aaaaa
b1101001 aaaab

#104500
0aaaaa

#105000
1aaaaa
b1101010 aaaab

#105500
0aaaaa

#106000
1aaaaa
b1101011 aaaab

#106500
0aaaaa

#107000
1aaaaa
b1101100 aaaab

#107500
0aaaaa

#108000
1aaaaa
b1101101 aaaab

#108500
0aaaaa

#109000
1aaaaa
b1101110 aaaab

#109500
0aaaaa

#110000
1aaaaa
b1101111 aaaab

#110500
0aaaaa

#111000
1aaaaa
b1110000 aaaab

#111500
0aaaaa

#112000
1aaaaa
b1110001 aaaab

#112500
0aaaaa

#113000
1aaaaa
b1110010 aaaab

#113500
0aaaaa

#114000
1aaaaa
b1110011 aaaab

#114500
0aaaaa

#115000
1aaaaa
b1110100 aaaab

#115500
0aaaaa

#116000
1aaaaa
b1110101 aaaab

#116500
0aaaaa

#117000
1aaaaa
b1110110 aaaab

#117500
0aaaaa

#118000
1aaaaa
b1110111 aaaab

#118500
0aaaaa

#119000
1aaaaa
b1111000 aaaab

#119500
0aaaaa

#120000
1aaaaa
b1111001 aaaab

#120500
0aaaaa

#121000
1aaaaa
b1111010 aaaab

#121500
0aaaaa

#122000
1aaaaa
b1111011 aaaab

#122500
0aaaaa

#123000
1aaaaa
b1111100 aaaab

#123500
0aaaaa

#124000
1aaaaa
b1111101 aaaab

#124500
0aaaaa

#125000
1aaaaa
b1111110 aaaab

#125500
0aaaaa

#126000
1aaaaa
b1111111 aaaab

#126500
0aaaaa

#127000
1aaaaa
b10000000 aaaab

#127500
0aaaaa

#128000
1aaaaa
b10000001 aaaab

#128500
0aaaaa

#129000
1aaaaa
b10000010 aaaab

#129500
0aaaaa

#130000
1aaaaa
b10000011 aaaab

#130500
0aaaaa

#131000
1aaaaa
b10000100 aaaab

#131500
0aaaaa

#132000
1aaaaa
b10000101 aaaab

#132500
0aaaaa

#133000
1aaaaa
b10000110 aaaab

#133500
0aaaaa

#134000
1aaaaa
b10000111 aaaab

#134500
0aaaaa

#135000
1aaaaa
b10001000 aaaab

#135500
0aaaaa

#136000
1aaaaa
b10001001 aaaab

#136500
0aaaaa

#137000
1aaaaa
b10001010 aaaab

#137500
0aaaaa

#138000
1aaaaa
b10001011 aaaab

#138500
0aaaaa

#139000
1aaaaa
b10001100 aaaab

#139500
0aaaaa

#140000
1aaaaa
b10001101 aaaab

#140500
0aaaaa

#141000
1aaaaa
b10001110 aaaab

#141500
0aaaaa

#142000
1aaaaa
b10001111 aaaab

#142500
0aaaaa

#143000
1aaaaa
b10010000 aaaab

#143500
0aaaaa

#144000
1aaaaa
b10010001 aaaab

#144500
0aaaaa

#145000
1aaaaa
b10010010 aaaab

#145500
0aaaaa

#146000
1aaaaa
b10010011 aaaab

#146500
0aaaaa

#147000
1aaaaa
b10010100 aaaab

#147500
0aaaaa

#148000
1aaaaa
b10010101 aaaab

#148500
0aaaaa

#149000
1aaaaa
b10010110 aaaab

#149500
0aaaaa

#150000
1aaaaa
b10010111 aaaab

#150500
0aaaaa

#151000
1aaaaa
b10011000 aaaab

#151500
0aaaaa

#152000
1aaaaa
b10011001 aaaab

#152500
0aaaaa

#153000
1aaaaa
b10011010 aaaab

#153500
0aaaaa

#154000
1aaaaa
b10011011 aaaab

#154500
0aaaaa

#155000
1aaaaa
b10011100 aaaab

#155500
0aaaaa

#156000
1aaaaa
b10011101 aaaab

#156500
0aaaaa

#157000
1aaaaa
b10011110 aaaab

#157500
0aaaaa

#158000
1aaaaa
b10011111 aaaab

#158500
0aaaaa

#159000
1aaaaa
b10100000 aaaab

#159500
0aaaaa

#160000
1aaaaa
b10100001 aaaab

#160500
0aaaaa

#161000
1aaaaa
b10100010 aaaab

#161500
0aaaaa

#162000
1aaaaa
b10100011 aaaab

#162500
0aaaaa

#163000
1aaaaa
b10100100 aaaab

#163500
0aaaaa

#164000
1aaaaa
b10100101 aaaab

#164500
0aaaaa

#165000
1aaaaa
b10100110 aaaab

#165500
0aaaaa

#166000
1aaaaa
b10100111 aaaab

#166500
0aaaaa

#167000
1aaaaa
b10101000 aaaab

#167500
0aaaaa

#168000
1aaaaa
b10101001 aaaab

#168500
0aaaaa

#169000
1aaaaa
b10101010 aaaab

#169500
0aaaaa

#170000
1aaaaa
b10101011 aaaab

#170500
0aaaaa

#171000
1aaaaa
b10101100 aaaab

#171500
0aaaaa

#172000
1aaaaa
b10101101 aaaab

#172500
0aaaaa

#173000
1aaaaa
b10101110 aaaab

#173500
0aaaaa

#174000
1aaaaa
b10101111 aaaab

#174500
0aaaaa

#175000
1aaaaa
b10110000 aaaab

#175500
0aaaaa

#176000
1aaaaa
b10110001 aaaab

#176500
0aaaaa

#177000
1aaaaa
b10110010 aaaab

#177500
0aaaaa

#178000
1aaaaa
b10110011 aaaab

#178500
0aaaaa

#179000
1aaaaa
b10110100 aaaab

#179500
0aaaaa

#180000
1aaaaa
b10110101 aaaab

#180500
0aaaaa

#181000
1aaaaa
b10110110 aaaab

#181500
0aaaaa

#182000
1aaaaa
b10110111 aaaab

#182500
0aaaaa

#183000
1aaaaa
b10111000 aaaab

#183500
0aaaaa

#184000
1aaaaa
b10111001 aaaab

#184500
0aaaaa

#185000
1aaaaa
b10111010 aaaab

#185500
0aaaaa

#186000
1aaaaa
b10111011 aaaab

#186500
0aaaaa

#187000
1aaaaa
b10111100 aaaab

#187500
0aaaaa

#188000
1aaaaa
b10111101 aaaab

#188500
0aaaaa

#189000
1aaaaa
b10111110 aaaab

#189500
0aaaaa

#190000
1aaaaa
b10111111 aaaab

#190500
0aaaaa

#191000
1aaaaa
b11000000 aaaab

#191500
0aaaaa

#192000
1aaaaa
b11000001 aaaab

#192500
0aaaaa

#193000
1aaaaa
b11000010 aaaab

#193500
0aaaaa

#194000
1aaaaa
b11000011 aaaab

#194500
0aaaaa

#195000
1aaaaa
b11000100 aaaab

#195500
0aaaaa

#196000
1aaaaa
b11000101 aaaab

#196500
0aaaaa

#197000
1aaaaa
b11000110 aaaab

#197500
0aaaaa

#198000
1aaaaa
b11000111 aaaab

#198500
0aaaaa

#199000
1aaaaa
b11001000 aaaab

#199500
0aaaaa

#200000
1aaaaa
b11001001 aaaab

#200500
0aaaaa

#201000
1aaaaa
b11001010 aaaab

#201500
0aaaaa

#202000
1aaaaa
b11001011 aaaab

#202500
0aaaaa

#203000
1aaaaa
b11001100 aaaab

#203500
0aaaaa

#204000
1aaaaa
b11001101 aaaab

#204500
0aaaaa

#205000
1aaaaa
b11001110 aaaab

#205500
0aaaaa

#206000
1aaaaa
b11001111 aaaab

#206500
0aaaaa

#207000
1aaaaa
b11010000 aaaab

#207500
0aaaaa

#208000
1aaaaa
b11010001 aaaab

#208500
0aaaaa

#209000
1aaaaa
b11010010 aaaab

#209500
0aaaaa

#210000
1aaaaa
b11010011 aaaab

#210500
0aaaaa

#211000
1aaaaa
b11010100 aaaab

#211500
0aaaaa

#212000
1aaaaa
b11010101 aaaab

#212500
0aaaaa

#213000
1aaaaa
b11010110 aaaab

#213500
0aaaaa

#214000
1aaaaa
b11010111 aaaab

#214500
0aaaaa

#215000
1aaaaa
b11011000 aaaab

#215500
0aaaaa

#216000
1aaaaa
b11011001 aaaab

#216500
0aaaaa

#217000
1aaaaa
b11011010 aaaab

#217500
0aaaaa

#218000
1aaaaa
b11011011 aaaab

#218500
0aaaaa

#219000
1aaaaa
b11011100 aaaab

#219500
0aaaaa

#220000
1aaaaa
b11011101 aaaab

#220500
0aaaaa

#221000
1aaaaa
b11011110 aaaab

#221500
0aaaaa

#222000
1aaaaa
b11011111 aaaab

#222500
0aaaaa

#223000
1aaaaa
b11100000 aaaab

#223500
0aaaaa

#224000
1aaaaa
b11100001 aaaab

#224500
0aaaaa

#225000
1aaaaa
b11100010 aaaab

#225500
0aaaaa

#226000
1aaaaa
b11100011 aaaab

#226500
0aaaaa

#227000
1aaaaa
b11100100 aaaab

#227500
0aaaaa

#228000
1aaaaa
b11100101 aaaab

#228500
0aaaaa

#229000
1aaaaa
b11100110 aaaab

#229500
0aaaaa

#230000
1aaaaa
b11100111 aaaab

#230500
0aaaaa

#231000
1aaaaa
b11101000 aaaab

#231500
0aaaaa

#232000
1aaaaa
b11101001 aaaab

#232500
0aaaaa

#233000
1aaaaa
b11101010 aaaab

#233500
0aaaaa

#234000
1aaaaa
b11101011 aaaab

#234500
0aaaaa

#235000
1aaaaa
b11101100 aaaab

#235500
0aaaaa

#236000
1aaaaa
b11101101 aaaab

#236500
0aaaaa

#237000
1aaaaa
b11101110 aaaab

#237500
0aaaaa

#238000
1aaaaa
b11101111 aaaab

#238500
0aaaaa

#239000
1aaaaa
b11110000 aaaab

#239500
0aaaaa

#240000
1aaaaa
b11110001 aaaab

#240500
0aaaaa

#241000
1aaaaa
b11110010 aaaab

#241500
0aaaaa

#242000
1aaaaa
b11110011 aaaab

#242500
0aaaaa

#243000
1aaaaa
b11110100 aaaab

#243500
0aaaaa

#244000
1aaaaa
b11110101 aaaab

#244500
0aaaaa

#245000
1aaaaa
b11110110 aaaab

#245500
0aaaaa

#246000
1aaaaa
b11110111 aaaab

#246500
0aaaaa

#247000
1aaaaa
b11111000 aaaab

#247500
0aaaaa

#248000
1aaaaa
b11111001 aaaab

#248500
0aaaaa

#249000
1aaaaa
b11111010 aaaab

#249500
0aaaaa

#250000
1aaaaa
b11111011 aaaab

#250500
0aaaaa

#251000
1aaaaa
b11111100 aaaab

#251500
0aaaaa

#252000
1aaaaa
b11111101 aaaab

#252500
0aaaaa

#253000
1aaaaa
b11111110 aaaab

#253500
0aaaaa

#254000
1aaaaa
b11111111 aaaab

#254500
0aaaaa

#255000
1aaaaa
b100000000 aaaab

#255500
0aaaaa

#256000
1aaaaa
b100000001 aaaab

#256500
0aaaaa

#257000
1aaaaa
b100000010 aaaab

#257500
0aaaaa

#258000
1aaaaa
b100000011 aaaab

#258500
0aaaaa

#259000
1aaaaa
b100000100 aaaab

#259500
0aaaaa

#260000
1aaaaa
b100000101 aaaab

#260500
0aaaaa

#261000
1aaaaa
b100000110 aaaab

#261500
0aaaaa

#262000
1aaaaa
b100000111 aaaab

#262500
0aaaaa

#263000
1aaaaa
b100001000 aaaab

#263500
0aaaaa

#264000
1aaaaa
b100001001 aaaab

#264500
0aaaaa

#265000
1aaaaa
b100001010 aaaab

#265500
0aaaaa

#266000
1aaaaa
b100001011 aaaab

#266500
0aaaaa

#267000
1aaaaa
b100001100 aaaab

#267500
0aaaaa

#268000
1aaaaa
b100001101 aaaab

#268500
0aaaaa

#269000
1aaaaa
b100001110 aaaab

#269500
0aaaaa

#270000
1aaaaa
b100001111 aaaab

#270500
0aaaaa

#271000
1aaaaa
b100010000 aaaab

#271500
0aaaaa

#272000
1aaaaa
b100010001 aaaab

#272500
0aaaaa

#273000
1aaaaa
b100010010 aaaab

#273500
0aaaaa

#274000
1aaaaa
b100010011 aaaab

#274500
0aaaaa

#275000
1aaaaa
b100010100 aaaab

#275500
0aaaaa

#276000
1aaaaa
b100010101 aaaab

#276500
0aaaaa

#277000
1aaaaa
b100010110 aaaab

#277500
0aaaaa

#278000
1aaaaa
b100010111 aaaab

#278500
0aaaaa

#279000
1aaaaa
b100011000 aaaab

#279500
0aaaaa

#280000
1aaaaa
b100011001 aaaab

#280500
0aaaaa

#281000
1aaaaa
b100011010 aaaab

#281500
0aaaaa

#282000
1aaaaa
b100011011 aaaab

#282500
0aaaaa

#283000
1aaaaa
b100011100 aaaab

#283500
0aaaaa

#284000
1aaaaa
b100011101 aaaab

#284500
0aaaaa

#285000
1aaaaa
b100011110 aaaab

#285500
0aaaaa

#286000
1aaaaa
b100011111 aaaab

#286500
0aaaaa

#287000
1aaaaa
b100100000 aaaab

#287500
0aaaaa

#288000
1aaaaa
b100100001 aaaab

#288500
0aaaaa

#289000
1aaaaa
b100100010 aaaab

#289500
0aaaaa

#290000
1aaaaa
b100100011 aaaab

#290500
0aaaaa

#291000
1aaaaa
b100100100 aaaab

#291500
0aaaaa

#292000
1aaaaa
b100100101 aaaab

#292500
0aaaaa

#293000
1aaaaa
b100100110 aaaab

#293500
0aaaaa

#294000
1aaaaa
b100100111 aaaab

#294500
0aaaaa

#295000
1aaaaa
b100101000 aaaab

#295500
0aaaaa

#296000
1aaaaa
b100101001 aaaab

#296500
0aaaaa

#297000
1aaaaa
b100101010 aaaab

#297500
0aaaaa

#298000
1aaaaa
b100101011 aaaab

#298500
0aaaaa

#299000
1aaaaa
b100101100 aaaab

#299500
0aaaaa

#300000
1aaaaa
b100101101 aaaab

#300500
0aaaaa

#301000
1aaaaa
b100101110 aaaab

#301500
0aaaaa

#302000
1aaaaa
b100101111 aaaab

#302500
0aaaaa

#303000
1aaaaa
b100110000 aaaab

#303500
0aaaaa

#304000
1aaaaa
b100110001 aaaab

#304500
0aaaaa

#305000
1aaaaa
b100110010 aaaab

#305500
0aaaaa

#306000
1aaaaa
b100110011 aaaab

#306500
0aaaaa

#307000
1aaaaa
b100110100 aaaab

#307500
0aaaaa

#308000
1aaaaa
b100110101 aaaab

#308500
0aaaaa

#309000
1aaaaa
b100110110 aaaab

#309500
0aaaaa

#310000
1aaaaa
b100110111 aaaab

#310500
0aaaaa

#311000
1aaaaa
b100111000 aaaab

#311500
0aaaaa

#312000
1aaaaa
b100111001 aaaab

#312500
0aaaaa

#313000
1aaaaa
b100111010 aaaab

#313500
0aaaaa

#314000
1aaaaa
b100111011 aaaab

#314500
0aaaaa

#315000
1aaaaa
b100111100 aaaab

#315500
0aaaaa

#316000
1aaaaa
b100111101 aaaab

#316500
0aaaaa

#317000
1aaaaa
b100111110 aaaab

#317500
0aaaaa

#318000
1aaaaa
b100111111 aaaab

#318500
0aaaaa

#319000
1aaaaa
b101000000 aaaab

#319500
0aaaaa

#320000
1aaaaa
b101000001 aaaab

#320500
0aaaaa

#321000
1aaaaa
b101000010 aaaab

#321500
0aaaaa

#322000
1aaaaa
b101000011 aaaab

#322500
0aaaaa

#323000
1aaaaa
b101000100 aaaab

#323500
0aaaaa

#324000
1aaaaa
b101000101 aaaab

#324500
0aaaaa

#325000
1aaaaa
b101000110 aaaab

#325500
0aaaaa

#326000
1aaaaa
b101000111 aaaab

#326500
0aaaaa

#327000
1aaaaa
b101001000 aaaab

#327500
0aaaaa

#328000
1aaaaa
b101001001 aaaab

#328500
0aaaaa

#329000
1aaaaa
b101001010 aaaab

#329500
0aaaaa

#330000
1aaaaa
b101001011 aaaab

#330500
0aaaaa

#331000
1aaaaa
b101001100 aaaab

#331500
0aaaaa

#332000
1aaaaa
b101001101 aaaab

#332500
0aaaaa

#333000
1aaaaa
b101001110 aaaab

#333500
0aaaaa

#334000
1aaaaa
b101001111 aaaab

#334500
0aaaaa

#335000
1aaaaa
b101010000 aaaab

#335500
0aaaaa

#336000
1aaaaa
b101010001 aaaab

#336500
0aaaaa

#337000
1aaaaa
b101010010 aaaab

#337500
0aaaaa

#338000
1aaaaa
b101010011 aaaab

#338500
0aaaaa

#339000
1aaaaa
b101010100 aaaab

#339500
0aaaaa

#340000
1aaaaa
b101010101 aaaab

#340500
0aaaaa

#341000
1aaaaa
b101010110 aaaab

#341500
0aaaaa

#342000
1aaaaa
b101010111 aaaab

#342500
0aaaaa

#343000
1aaaaa
b101011000 aaaab

#343500
0aaaaa

#344000
1aaaaa
b101011001 aaaab

#344500
0aaaaa

#345000
1aaaaa
b101011010 aaaab

#345500
0aaaaa

#346000
1aaaaa
b101011011 aaaab

#346500
0aaaaa

#347000
1aaaaa
b101011100 aaaab

#347500
0aaaaa

#348000
1aaaaa
b101011101 aaaab

#348500
0aaaaa

#349000
1aaaaa
b101011110 aaaab

#349500
0aaaaa

#350000
1aaaaa
b101011111 aaaab

#350500
0aaaaa

#351000
1aaaaa
b101100000 aaaab

#351500
0aaaaa

#352000
1aaaaa
b101100001 aaaab

#352500
0aaaaa

#353000
1aaaaa
b101100010 aaaab

#353500
0aaaaa

#354000
1aaaaa
b101100011 aaaab

#354500
0aaaaa

#355000
1aaaaa
b101100100 aaaab

#355500
0aaaaa

#356000
1aaaaa
b101100101 aaaab

#356500
0aaaaa

#357000
1aaaaa
b101100110 aaaab

#357500
0aaaaa

#358000
1aaaaa
b101100111 aaaab

#358500
0aaaaa

#359000
1aaaaa
b101101000 aaaab

#359500
0aaaaa

#360000
1aaaaa
b101101001 aaaab

#360500
0aaaaa

#361000
1aaaaa
b101101010 aaaab

#361500
0aaaaa

#362000
1aaaaa
b101101011 aaaab

#362500
0aaaaa

#363000
1aaaaa
b101101100 aaaab

#363500
0aaaaa

#364000
1aaaaa
b101101101 aaaab

#364500
0aaaaa

#365000
1aaaaa
b101101110 aaaab

#365500
0aaaaa

#366000
1aaaaa
b101101111 aaaab

#366500
0aaaaa

#367000
1aaaaa
b101110000 aaaab

#367500
0aaaaa

#368000
1aaaaa
b101110001 aaaab

#368500
0aaaaa

#369000
1aaaaa
b101110010 aaaab

#369500
0aaaaa

#370000
1aaaaa
b101110011 aaaab

#370500
0aaaaa

#371000
1aaaaa
b101110100 aaaab

#371500
0aaaaa

#372000
1aaaaa
b101110101 aaaab

#372500
0aaaaa

#373000
1aaaaa
b101110110 aaaab

#373500
0aaaaa

#374000
1aaaaa
b101110111 aaaab

#374500
0aaaaa

#375000
1aaaaa
b101111000 aaaab

#375500
0aaaaa

#376000
1aaaaa
b101111001 aaaab

#376500
0aaaaa

#377000
1aaaaa
b101111010 aaaab

#377500
0aaaaa

#378000
1aaaaa
b101111011 aaaab

#378500
0aaaaa

#379000
1aaaaa
b101111100 aaaab

#379500
0aaaaa

#380000
1aaaaa
b101111101 aaaab

#380500
0aaaaa

#381000
1aaaaa
b101111110 aaaab

#381500
0aaaaa

#382000
1aaaaa
b101111111 aaaab

#382500
0aaaaa

#383000
1aaaaa
b110000000 aaaab

#383500
0aaaaa

#384000
1aaaaa
b110000001 aaaab

#384500
0aaaaa

#385000
1aaaaa
b110000010 aaaab

#385500
0aaaaa

#386000
1aaaaa
b110000011 aaaab

#386500
0aaaaa

#387000
1aaaaa
b110000100 aaaab

#387500
0aaaaa

#388000
1aaaaa
b110000101 aaaab

#388500
0aaaaa

#389000
1aaaaa
b110000110 aaaab

#389500
0aaaaa

#390000
1aaaaa
b110000111 aaaab

#390500
0aaaaa

#391000
1aaaaa
b110001000 aaaab

#391500
0aaaaa

#392000
1aaaaa
b110001001 aaaab

#392500
0aaaaa

#393000
1aaaaa
b110001010 aaaab

#393500
0aaaaa

#394000
1aaaaa
b110001011 aaaab

#394500
0aaaaa

#395000
1aaaaa
b110001100 aaaab

#395500
0aaaaa

#396000
1aaaaa
b110001101 aaaab

#396500
0aaaaa

#397000
1aaaaa
b110001110 aaaab

#397500
0aaaaa

#398000
1aaaaa
b110001111 aaaab

#398500
0aaaaa

#399000
1aaaaa
b110010000 aaaab

#399500
0aaaaa

#400000
1aaaaa
b110010001 aaaab

#400500
0aaaaa

#401000
1aaaaa
b110010010 aaaab

#401500
0aaaaa

#402000
1aaaaa
b110010011 aaaab

#402500
0aaaaa

#403000
1aaaaa
b110010100 aaaab

#403500
0aaaaa

#404000
1aaaaa
b110010101 aaaab

#404500
0aaaaa

#405000
1aaaaa
b110010110 aaaab

#405500
0aaaaa

#406000
1aaaaa
b110010111 aaaab

#406500
0aaaaa

#407000
1aaaaa
b110011000 aaaab

#407500
0aaaaa

#408000
1aaaaa
b110011001 aaaab

#408500
0aaaaa

#409000
1aaaaa
b110011010 aaaab

#409500
0aaaaa

#410000
1aaaaa
b110011011 aaaab

#410500
0aaaaa

#411000
1aaaaa
b110011100 aaaab

#411500
0aaaaa

#412000
1aaaaa
b110011101 aaaab

#412500
0aaaaa

#413000
1aaaaa
b110011110 aaaab

#413500
0aaaaa

#414000
1aaaaa
b110011111 aaaab

#414500
0aaaaa

#415000
1aaaaa
b110100000 aaaab

#415500
0aaaaa

#416000
1aaaaa
b110100001 aaaab

#416500
0aaaaa

#417000
1aaaaa
b110100010 aaaab

#417500
0aaaaa

#418000
1aaaaa
b110100011 aaaab

#418500
0aaaaa

#419000
1aaaaa
b110100100 aaaab

#419500
0aaaaa

#420000
1aaaaa
b110100101 aaaab

#420500
0aaaaa

#421000
1aaaaa
b110100110 aaaab

#421500
0aaaaa

#422000
1aaaaa
b110100111 aaaab

#422500
0aaaaa

#423000
1aaaaa
b110101000 aaaab

#423500
0aaaaa

#424000
1aaaaa
b110101001 aaaab

#424500
0aaaaa

#425000
1aaaaa
b110101010 aaaab

#425500
0aaaaa

#426000
1aaaaa
b110101011 aaaab

#426500
0aaaaa

#427000
1aaaaa
b110101100 aaaab

#427500
0aaaaa

#428000
1aaaaa
b110101101 aaaab

#428500
0aaaaa

#429000
1aaaaa
b110101110 aaaab

#429500
0aaaaa

#430000
1aaaaa
b110101111 aaaab

#430500
0aaaaa

#431000
1aaaaa
b110110000 aaaab

#431500
0aaaaa

#432000
1aaaaa
b110110001 aaaab

#432500
0aaaaa

#433000
1aaaaa
b110110010 aaaab

#433500
0aaaaa

#434000
1aaaaa
b110110011 aaaab

#434500
0aaaaa

#435000
1aaaaa
b110110100 aaaab

#435500
0aaaaa

#436000
1aaaaa
b110110101 aaaab

#436500
0aaaaa

