out/vcd/InterleavedFFT-DMA_N4_C2_H1_M4_A6_axi.vcd
$date
     Jun 18, 2026       13:07:32
$end

$version
 SystemC 2.3.3-Accellera --- Jun 12 2026 14:11:10
$end

$timescale
     1 ps
$end

$scope module SystemC $end
$var wire    1  aaaaa  clk       $end
$var wire   32  aaaab  cycle_count [31:0]  $end
$var wire    1  aaaac  rst       $end
$var wire    1  aaaad  start       $end
$var wire    1  aaaae  core_start_0       $end
$var wire    1  aaaaf  core_busy_0       $end
$var wire    1  aaaag  ar_val_0       $end
$var wire    1  aaaah  ar_rdy_0       $end
$var wire   32  aaaai  ar_addr_0 [31:0]  $end
$var wire    1  aaaaj  r_val_0       $end
$var wire    1  aaaak  r_rdy_0       $end
$var real    1  aaaal  r_real_0       $end
$var real    1  aaaam  r_imag_0       $end
$var wire    1  aaaan  aw_val_0       $end
$var wire    1  aaaao  aw_rdy_0       $end
$var wire   32  aaaap  aw_addr_0 [31:0]  $end
$var wire    1  aaaaq  w_val_0       $end
$var wire    1  aaaar  w_rdy_0       $end
$var real    1  aaaas  w_real_0       $end
$var real    1  aaaat  w_imag_0       $end
$var wire    1  aaaau  b_val_0       $end
$var wire    1  aaaav  b_rdy_0       $end
$var wire    1  aaaaw  core_start_1       $end
$var wire    1  aaaax  core_busy_1       $end
$var wire    1  aaaay  ar_val_1       $end
$var wire    1  aaaaz  ar_rdy_1       $end
$var wire   32  aaaba  ar_addr_1 [31:0]  $end
$var wire    1  aaabb  r_val_1       $end
$var wire    1  aaabc  r_rdy_1       $end
$var real    1  aaabd  r_real_1       $end
$var real    1  aaabe  r_imag_1       $end
$var wire    1  aaabf  aw_val_1       $end
$var wire    1  aaabg  aw_rdy_1       $end
$var wire   32  aaabh  aw_addr_1 [31:0]  $end
$var wire    1  aaabi  w_val_1       $end
$var wire    1  aaabj  w_rdy_1       $end
$var real    1  aaabk  w_real_1       $end
$var real    1  aaabl  w_imag_1       $end
$var wire    1  aaabm  b_val_1       $end
$var wire    1  aaabn  b_rdy_1       $end
$upscope $end
$enddefinitions  $end

$comment
All initial values are dumped below at time 0 sec = 0 timescale units.
$end

$dumpvars
1aaaaa
b1 aaaab
1aaaac
0aaaad
0aaaae
0aaaaf
0aaaag
0aaaah
b0 aaaai
0aaaaj
0aaaak
r0 aaaal
r0 aaaam
0aaaan
0aaaao
b0 aaaap
0aaaaq
0aaaar
r0 aaaas
r0 aaaat
0aaaau
0aaaav
0aaaaw
0aaaax
0aaaay
0aaaaz
b0 aaaba
0aaabb
0aaabc
r0 aaabd
r0 aaabe
0aaabf
0aaabg
b0 aaabh
0aaabi
0aaabj
r0 aaabk
r0 aaabl
0aaabm
0aaabn
$end

#500
0aaaaa

#1000
1aaaaa
b10 aaaab

#1500
0aaaaa

#2000
1aaaaa
b11 aaaab

#2500
0aaaaa

#3000
1aaaaa
b100 aaaab

#3500
0aaaaa

#4000
1aaaaa
b101 aaaab

#4500
0aaaaa

#5000
1aaaaa
b110 aaaab
0aaaac

#5500
0aaaaa

#6000
1aaaaa
b111 aaaab
1aaaah
1aaaao
1aaaaz
1aaabg

#6500
0aaaaa

#7000
1aaaaa
b1000 aaaab
0aaaah
0aaaao
0aaaaz
0aaabg

#7500
0aaaaa

#8000
1aaaaa
b1001 aaaab
1aaaah
1aaaao
1aaaaz
1aaabg

#8500
0aaaaa

#9000
1aaaaa
b1010 aaaab
0aaaah
0aaaao
0aaaaz
0aaabg

#9500
0aaaaa

#10000
1aaaaa
b1011 aaaab
1aaaah
1aaaao
1aaaaz
1aaabg

#10500
0aaaaa

#11000
1aaaaa
b1100 aaaab
0aaaah
0aaaao
0aaaaz
0aaabg

#11500
0aaaaa

#12000
1aaaaa
b1101 aaaab
1aaaah
1aaaao
1aaaaz
1aaabg

#12500
0aaaaa

#13000
1aaaaa
b1110 aaaab
0aaaah
0aaaao
0aaaaz
0aaabg

#13500
0aaaaa

#14000
1aaaaa
b1111 aaaab
1aaaah
1aaaao
1aaaaz
1aaabg

#14500
0aaaaa

#15000
1aaaaa
b10000 aaaab
0aaaah
0aaaao
0aaaaz
0aaabg

#15500
0aaaaa

#16000
1aaaaa
b10001 aaaab
1aaaah
1aaaao
1aaaaz
1aaabg

#16500
0aaaaa

#17000
1aaaaa
b10010 aaaab
0aaaah
0aaaao
0aaaaz
0aaabg

#17500
0aaaaa

#18000
1aaaaa
b10011 aaaab
1aaaah
1aaaao
1aaaaz
1aaabg

#18500
0aaaaa

#19000
1aaaaa
b10100 aaaab
0aaaah
0aaaao
0aaaaz
0aaabg

#19500
0aaaaa

#20000
1aaaaa
b10101 aaaab
1aaaah
1aaaao
1aaaaz
1aaabg

#20500
0aaaaa

#21000
1aaaaa
b10110 aaaab
0aaaah
0aaaao
0aaaaz
0aaabg

#21500
0aaaaa

#22000
1aaaaa
b10111 aaaab
1aaaah
1aaaao
1aaaaz
1aaabg

#22500
0aaaaa

#23000
1aaaaa
b11000 aaaab
0aaaah
0aaaao
0aaaaz
0aaabg

#23500
0aaaaa

#24000
1aaaaa
b11001 aaaab
1aaaah
1aaaao
1aaaaz
1aaabg

#24500
0aaaaa

#25000
1aaaaa
b11010 aaaab
0aaaah
0aaaao
0aaaaz
0aaabg

#25500
0aaaaa

#26000
1aaaaa
b11011 aaaab
1aaaah
1aaaao
1aaaaz
1aaabg

#26500
0aaaaa

#27000
1aaaaa
b11100 aaaab
0aaaah
0aaaao
0aaaaz
0aaabg

#27500
0aaaaa

#28000
1aaaaa
b11101 aaaab
1aaaah
1aaaao
1aaaaz
1aaabg

#28500
0aaaaa

#29000
1aaaaa
b11110 aaaab
0aaaah
0aaaao
0aaaaz
0aaabg

#29500
0aaaaa

#30000
1aaaaa
b11111 aaaab
1aaaah
1aaaao
1aaaaz
1aaabg

#30500
0aaaaa

#31000
1aaaaa
b100000 aaaab
0aaaah
0aaaao
0aaaaz
0aaabg

#31500
0aaaaa

#32000
1aaaaa
b100001 aaaab
1aaaah
1aaaao
1aaaaz
1aaabg

#32500
0aaaaa

#33000
1aaaaa
b100010 aaaab
0aaaah
0aaaao
0aaaaz
0aaabg

#33500
0aaaaa

#34000
1aaaaa
b100011 aaaab
1aaaah
1aaaao
1aaaaz
1aaabg

#34500
0aaaaa

#35000
1aaaaa
b100100 aaaab
0aaaah
0aaaao
0aaaaz
0aaabg

#35500
0aaaaa

#36000
1aaaaa
b100101 aaaab
1aaaah
1aaaao
1aaaaz
1aaabg

#36500
0aaaaa

#37000
1aaaaa
b100110 aaaab
0aaaah
0aaaao
0aaaaz
0aaabg

#37500
0aaaaa

#38000
1aaaaa
b100111 aaaab
1aaaah
1aaaao
1aaaaz
1aaabg

#38500
0aaaaa

#39000
1aaaaa
b101000 aaaab
0aaaah
0aaaao
0aaaaz
0aaabg

#39500
0aaaaa

#40000
1aaaaa
b101001 aaaab
1aaaah
1aaaao
1aaaaz
1aaabg

#40500
0aaaaa

#41000
1aaaaa
b101010 aaaab
0aaaah
0aaaao
0aaaaz
0aaabg

#41500
0aaaaa

#42000
1aaaaa
b101011 aaaab
1aaaah
1aaaao
1aaaaz
1aaabg

#42500
0aaaaa

#43000
1aaaaa
b101100 aaaab
0aaaah
0aaaao
0aaaaz
0aaabg

#43500
0aaaaa

#44000
1aaaaa
b101101 aaaab
1aaaah
1aaaao
1aaaaz
1aaabg

#44500
0aaaaa

#45000
1aaaaa
b101110 aaaab
0aaaah
0aaaao
0aaaaz
0aaabg

#45500
0aaaaa

#46000
1aaaaa
b101111 aaaab
1aaaah
1aaaao
1aaaaz
1aaabg

#46500
0aaaaa

#47000
1aaaaa
b110000 aaaab
0aaaah
0aaaao
0aaaaz
0aaabg

#47500
0aaaaa

#48000
1aaaaa
b110001 aaaab
1aaaah
1aaaao
1aaaaz
1aaabg

#48500
0aaaaa

#49000
1aaaaa
b110010 aaaab
0aaaah
0aaaao
0aaaaz
0aaabg

#49500
0aaaaa

#50000
1aaaaa
b110011 aaaab
1aaaah
1aaaao
1aaaaz
1aaabg

#50500
0aaaaa

#51000
1aaaaa
b110100 aaaab
0aaaah
0aaaao
0aaaaz
0aaabg

#51500
0aaaaa

#52000
1aaaaa
b110101 aaaab
1aaaah
1aaaao
1aaaaz
1aaabg

#52500
0aaaaa

#53000
1aaaaa
b110110 aaaab
0aaaah
0aaaao
0aaaaz
0aaabg

#53500
0aaaaa

#54000
1aaaaa
b110111 aaaab
1aaaah
1aaaao
1aaaaz
1aaabg

#54500
0aaaaa

#55000
1aaaaa
b111000 aaaab
0aaaah
0aaaao
0aaaaz
0aaabg

#55500
0aaaaa

#56000
1aaaaa
b111001 aaaab
1aaaah
1aaaao
1aaaaz
1aaabg

#56500
0aaaaa

#57000
1aaaaa
b111010 aaaab
0aaaah
0aaaao
0aaaaz
0aaabg

#57500
0aaaaa

#58000
1aaaaa
b111011 aaaab
1aaaah
1aaaao
1aaaaz
1aaabg

#58500
0aaaaa

#59000
1aaaaa
b111100 aaaab
1aaaad
0aaaah
0aaaao
0aaaaz
0aaabg

#59500
0aaaaa

#60000
1aaaaa
b111101 aaaab
0aaaad
1aaaae
1aaaah
1aaaao
1aaaaz
1aaabg

#60500
0aaaaa

#61000
1aaaaa
b111110 aaaab
0aaaae
1aaaaf
1aaaag
0aaaah
1aaaak
0aaaao
1aaaaw
0aaaaz
0aaabg

#61500
0aaaaa

#62000
1aaaaa
b111111 aaaab
1aaaah
1aaaao
0aaaaw
1aaaax
1aaaay
1aaaaz
1aaabc
1aaabg

#62500
0aaaaa

#63000
1aaaaa
b1000000 aaaab
0aaaah
1aaaaj
0aaaao
0aaaaz
b1000 aaaba
1aaabb
0aaabg

#63500
0aaaaa

#64000
1aaaaa
b1000001 aaaab
1aaaah
b1 aaaai
0aaaaj
1aaaao
1aaaaz
b1001 aaaba
0aaabb
r8 aaabd
1aaabg

#64500
0aaaaa

#65000
1aaaaa
b1000010 aaaab
0aaaah
1aaaaj
0aaaao
0aaaaz
1aaabb
r0 aaabd
0aaabg

#65500
0aaaaa

#66000
1aaaaa
b1000011 aaaab
1aaaah
b10 aaaai
0aaaaj
r1 aaaal
1aaaao
1aaaaz
b1010 aaaba
0aaabb
r9 aaabd
1aaabg

#66500
0aaaaa

#67000
1aaaaa
b1000100 aaaab
0aaaah
1aaaaj
r0 aaaal
0aaaao
0aaaaz
1aaabb
r0 aaabd
0aaabg

#67500
0aaaaa

#68000
1aaaaa
b1000101 aaaab
1aaaah
b11 aaaai
0aaaaj
r2 aaaal
1aaaao
1aaaaz
b1011 aaaba
0aaabb
r10 aaabd
1aaabg

#68500
0aaaaa

#69000
1aaaaa
b1000110 aaaab
0aaaag
0aaaah
1aaaaj
r0 aaaal
0aaaao
0aaaay
0aaaaz
1aaabb
r0 aaabd
0aaabg

#69500
0aaaaa

#70000
1aaaaa
b1000111 aaaab
1aaaah
b0 aaaai
0aaaaj
0aaaak
r3 aaaal
1aaaao
1aaaaz
b0 aaaba
0aaabb
0aaabc
r11 aaabd
1aaabg

#70500
0aaaaa

#71000
1aaaaa
b1001000 aaaab
0aaaah
r0 aaaal
0aaaao
0aaaaz
r0 aaabd
0aaabg

#71500
0aaaaa

#72000
1aaaaa
b1001001 aaaab
1aaaah
1aaaao
1aaaaz
1aaabg

#72500
0aaaaa

#73000
1aaaaa
b1001010 aaaab
0aaaah
1aaaan
0aaaao
0aaaaz
1aaabf
0aaabg

#73500
0aaaaa

#74000
1aaaaa
b1001011 aaaab
1aaaah
1aaaao
b100 aaaap
1aaaaz
1aaabg
b1100 aaabh

#74500
0aaaaa

#75000
1aaaaa
b1001100 aaaab
0aaaah
0aaaan
0aaaao
1aaaaq
1aaaar
0aaaaz
0aaabf
0aaabg
1aaabi
1aaabj

#75500
0aaaaa

#76000
1aaaaa
b1001101 aaaab
1aaaah
b0 aaaap
0aaaaq
0aaaar
r6 aaaas
1aaaau
1aaaav
1aaaaz
b0 aaabh
0aaabi
0aaabj
r38 aaabk
1aaabm
1aaabn

#76500
0aaaaa

#77000
1aaaaa
b1001110 aaaab
0aaaah
1aaaan
1aaaao
r0 aaaas
0aaaau
0aaaav
0aaaaz
1aaabf
1aaabg
r0 aaabk
0aaabm
0aaabn

#77500
0aaaaa

#78000
1aaaaa
b1001111 aaaab
1aaaah
0aaaan
0aaaao
b101 aaaap
1aaaaq
1aaaar
1aaaaz
0aaabf
0aaabg
b1101 aaabh
1aaabi
1aaabj

#78500
0aaaaa

#79000
1aaaaa
b1010000 aaaab
0aaaah
b0 aaaap
0aaaaq
0aaaar
r-2 aaaas
1aaaau
1aaaav
0aaaaz
b0 aaabh
0aaabi
0aaabj
r-2 aaabk
1aaabm
1aaabn

#79500
0aaaaa

#80000
1aaaaa
b1010001 aaaab
1aaaah
1aaaan
1aaaao
r0 aaaas
0aaaau
0aaaav
1aaaaz
1aaabf
1aaabg
r0 aaabk
0aaabm
0aaabn

#80500
0aaaaa

#81000
1aaaaa
b1010010 aaaab
0aaaah
0aaaan
0aaaao
b110 aaaap
1aaaaq
1aaaar
0aaaaz
0aaabf
0aaabg
b1110 aaabh
1aaabi
1aaabj

#81500
0aaaaa

#82000
1aaaaa
b1010011 aaaab
1aaaah
b0 aaaap
0aaaaq
0aaaar
r-2 aaaas
r2 aaaat
1aaaau
1aaaav
1aaaaz
b0 aaabh
0aaabi
0aaabj
r-2 aaabk
r2 aaabl
1aaabm
1aaabn

#82500
0aaaaa

#83000
1aaaaa
b1010100 aaaab
0aaaah
1aaaan
1aaaao
r0 aaaas
r0 aaaat
0aaaau
0aaaav
0aaaaz
1aaabf
1aaabg
r0 aaabk
r0 aaabl
0aaabm
0aaabn

#83500
0aaaaa

#84000
1aaaaa
b1010101 aaaab
1aaaah
0aaaan
0aaaao
b111 aaaap
1aaaaq
1aaaar
1aaaaz
0aaabf
0aaabg
b1111 aaabh
1aaabi
1aaabj

#84500
0aaaaa

#85000
1aaaaa
b1010110 aaaab
0aaaah
b0 aaaap
0aaaaq
0aaaar
r-2 aaaas
r-2 aaaat
1aaaau
1aaaav
0aaaaz
b0 aaabh
0aaabi
0aaabj
r-2 aaabk
r-2 aaabl
1aaabm
1aaabn

#85500
0aaaaa

#86000
1aaaaa
b1010111 aaaab
0aaaaf
1aaaah
1aaaao
r0 aaaas
r0 aaaat
0aaaau
0aaaav
0aaaax
1aaaaz
1aaabg
r0 aaabk
r0 aaabl
0aaabm
0aaabn

#86500
0aaaaa

#87000
1aaaaa
b1011000 aaaab
0aaaah
0aaaao
0aaaaz
0aaabg

#87500
0aaaaa

#88000
1aaaaa
b1011001 aaaab
1aaaah
1aaaao
1aaaaz
1aaabg

#88500
0aaaaa

#89000
1aaaaa
b1011010 aaaab
0aaaah
0aaaao
0aaaaz
0aaabg

#89500
0aaaaa

#90000
1aaaaa
b1011011 aaaab
1aaaah
1aaaao
1aaaaz
1aaabg

#90500
0aaaaa

#91000
1aaaaa
b1011100 aaaab
0aaaah
0aaaao
0aaaaz
0aaabg

#91500
0aaaaa

#92000
1aaaaa
b1011101 aaaab
1aaaah
1aaaao
1aaaaz
1aaabg

#92500
0aaaaa

#93000
1aaaaa
b1011110 aaaab
0aaaah
0aaaao
0aaaaz
0aaabg

#93500
0aaaaa

#94000
1aaaaa
b1011111 aaaab
1aaaah
1aaaao
1aaaaz
1aaabg

#94500
0aaaaa

#95000
1aaaaa
b1100000 aaaab
0aaaah
0aaaao
0aaaaz
0aaabg

#95500
0aaaaa

#96000
1aaaaa
b1100001 aaaab
1aaaah
1aaaao
1aaaaz
1aaabg

#96500
0aaaaa

#97000
1aaaaa
b1100010 aaaab
0aaaah
0aaaao
0aaaaz
0aaabg

#97500
0aaaaa

#98000
1aaaaa
b1100011 aaaab
1aaaah
1aaaao
1aaaaz
1aaabg

#98500
0aaaaa

#99000
1aaaaa
b1100100 aaaab
0aaaah
0aaaao
0aaaaz
0aaabg

#99500
0aaaaa

#100000
1aaaaa
b1100101 aaaab
1aaaah
1aaaao
1aaaaz
1aaabg

#100500
0aaaaa

#101000
1aaaaa
b1100110 aaaab
0aaaah
0aaaao
0aaaaz
0aaabg

#101500
0aaaaa

#102000
1aaaaa
b1100111 aaaab
1aaaah
1aaaao
1aaaaz
1aaabg

#102500
0aaaaa

#103000
1aaaaa
b1101000 aaaab
0aaaah
0aaaao
0aaaaz
0aaabg

#103500
0aaaaa

#104000
1aaaaa
b1101001 aaaab
1aaaah
1aaaao
1aaaaz
1aaabg

#104500
0aaaaa

#105000
1aaaaa
b1101010 aaaab
0aaaah
0aaaao
0aaaaz
0aaabg

#105500
0aaaaa

#106000
1aaaaa
b1101011 aaaab
1aaaah
1aaaao
1aaaaz
1aaabg

#106500
0aaaaa

#107000
1aaaaa
b1101100 aaaab
0aaaah
0aaaao
0aaaaz
0aaabg

#107500
0aaaaa

#108000
1aaaaa
b1101101 aaaab
1aaaah
1aaaao
1aaaaz
1aaabg

#108500
0aaaaa

#109000
1aaaaa
b1101110 aaaab
0aaaah
0aaaao
0aaaaz
0aaabg

#109500
0aaaaa

#110000
1aaaaa
b1101111 aaaab
1aaaah
1aaaao
1aaaaz
1aaabg

#110500
0aaaaa

#111000
1aaaaa
b1110000 aaaab
0aaaah
0aaaao
0aaaaz
0aaabg

#111500
0aaaaa

#112000
1aaaaa
b1110001 aaaab
1aaaah
1aaaao
1aaaaz
1aaabg

#112500
0aaaaa

#113000
1aaaaa
b1110010 aaaab
0aaaah
0aaaao
0aaaaz
0aaabg

#113500
0aaaaa

#114000
1aaaaa
b1110011 aaaab
1aaaah
1aaaao
1aaaaz
1aaabg

#114500
0aaaaa

#115000
1aaaaa
b1110100 aaaab
0aaaah
0aaaao
0aaaaz
0aaabg

#115500
0aaaaa

#116000
1aaaaa
b1110101 aaaab
1aaaah
1aaaao
1aaaaz
1aaabg

#116500
0aaaaa

#117000
1aaaaa
b1110110 aaaab
0aaaah
0aaaao
0aaaaz
0aaabg

#117500
0aaaaa

#118000
1aaaaa
b1110111 aaaab
1aaaah
1aaaao
1aaaaz
1aaabg

#118500
0aaaaa

#119000
1aaaaa
b1111000 aaaab
0aaaah
0aaaao
0aaaaz
0aaabg

#119500
0aaaaa

#120000
1aaaaa
b1111001 aaaab
1aaaah
1aaaao
1aaaaz
1aaabg

#120500
0aaaaa

#121000
1aaaaa
b1111010 aaaab
0aaaah
0aaaao
0aaaaz
0aaabg

#121500
0aaaaa

#122000
1aaaaa
b1111011 aaaab
1aaaah
1aaaao
1aaaaz
1aaabg

#122500
0aaaaa

#123000
1aaaaa
b1111100 aaaab
0aaaah
0aaaao
0aaaaz
0aaabg

#123500
0aaaaa

#124000
1aaaaa
b1111101 aaaab
1aaaah
1aaaao
1aaaaz
1aaabg

#124500
0aaaaa

#125000
1aaaaa
b1111110 aaaab
0aaaah
0aaaao
0aaaaz
0aaabg

#125500
0aaaaa

#126000
1aaaaa
b1111111 aaaab
1aaaah
1aaaao
1aaaaz
1aaabg

#126500
0aaaaa

#127000
1aaaaa
b10000000 aaaab
0aaaah
0aaaao
0aaaaz
0aaabg

#127500
0aaaaa

#128000
1aaaaa
b10000001 aaaab
1aaaah
1aaaao
1aaaaz
1aaabg

#128500
0aaaaa

#129000
1aaaaa
b10000010 aaaab
0aaaah
0aaaao
0aaaaz
0aaabg

#129500
0aaaaa

#130000
1aaaaa
b10000011 aaaab
1aaaah
1aaaao
1aaaaz
1aaabg

#130500
0aaaaa

#131000
1aaaaa
b10000100 aaaab
0aaaah
0aaaao
0aaaaz
0aaabg

#131500
0aaaaa

#132000
1aaaaa
b10000101 aaaab
1aaaah
1aaaao
1aaaaz
1aaabg

#132500
0aaaaa

#133000
1aaaaa
b10000110 aaaab
0aaaah
0aaaao
0aaaaz
0aaabg

#133500
0aaaaa

#134000
1aaaaa
b10000111 aaaab
1aaaah
1aaaao
1aaaaz
1aaabg

#134500
0aaaaa

#135000
1aaaaa
b10001000 aaaab
0aaaah
0aaaao
0aaaaz
0aaabg

#135500
0aaaaa

#136000
1aaaaa
b10001001 aaaab
1aaaah
1aaaao
1aaaaz
1aaabg

#136500
0aaaaa

#137000
1aaaaa
b10001010 aaaab
0aaaah
0aaaao
0aaaaz
0aaabg

#137500
0aaaaa

#138000
1aaaaa
b10001011 aaaab
1aaaah
1aaaao
1aaaaz
1aaabg

#138500
0aaaaa

#139000
1aaaaa
b10001100 aaaab
0aaaah
0aaaao
0aaaaz
0aaabg

#139500
0aaaaa

#140000
1aaaaa
b10001101 aaaab
1aaaah
1aaaao
1aaaaz
1aaabg

#140500
0aaaaa

#141000
1aaaaa
b10001110 aaaab
0aaaah
0aaaao
0aaaaz
0aaabg

#141500
0aaaaa

#142000
1aaaaa
b10001111 aaaab
1aaaah
1aaaao
1aaaaz
1aaabg

#142500
0aaaaa

#143000
1aaaaa
b10010000 aaaab
0aaaah
0aaaao
0aaaaz
0aaabg

#143500
0aaaaa

#144000
1aaaaa
b10010001 aaaab
1aaaah
1aaaao
1aaaaz
1aaabg

#144500
0aaaaa

#145000
1aaaaa
b10010010 aaaab
0aaaah
0aaaao
0aaaaz
0aaabg

#145500
0aaaaa

#146000
1aaaaa
b10010011 aaaab
1aaaah
1aaaao
1aaaaz
1aaabg

#146500
0aaaaa

#147000
1aaaaa
b10010100 aaaab
0aaaah
0aaaao
0aaaaz
0aaabg

#147500
0aaaaa

#148000
1aaaaa
b10010101 aaaab
1aaaah
1aaaao
1aaaaz
1aaabg

#148500
0aaaaa

#149000
1aaaaa
b10010110 aaaab
0aaaah
0aaaao
0aaaaz
0aaabg

#149500
0aaaaa

#150000
1aaaaa
b10010111 aaaab
1aaaah
1aaaao
1aaaaz
1aaabg

#150500
0aaaaa

#151000
1aaaaa
b10011000 aaaab
0aaaah
0aaaao
0aaaaz
0aaabg

#151500
0aaaaa

#152000
1aaaaa
b10011001 aaaab
1aaaah
1aaaao
1aaaaz
1aaabg

#152500
0aaaaa

#153000
1aaaaa
b10011010 aaaab
0aaaah
0aaaao
0aaaaz
0aaabg

#153500
0aaaaa

#154000
1aaaaa
b10011011 aaaab
1aaaah
1aaaao
1aaaaz
1aaabg

#154500
0aaaaa

#155000
1aaaaa
b10011100 aaaab
0aaaah
0aaaao
0aaaaz
0aaabg

#155500
0aaaaa

#156000
1aaaaa
b10011101 aaaab
1aaaah
1aaaao
1aaaaz
1aaabg

#156500
0aaaaa

#157000
1aaaaa
b10011110 aaaab
0aaaah
0aaaao
0aaaaz
0aaabg

#157500
0aaaaa

#158000
1aaaaa
b10011111 aaaab
1aaaah
1aaaao
1aaaaz
1aaabg

#158500
0aaaaa

#159000
1aaaaa
b10100000 aaaab
0aaaah
0aaaao
0aaaaz
0aaabg

#159500
0aaaaa

#160000
1aaaaa
b10100001 aaaab
1aaaah
1aaaao
1aaaaz
1aaabg

#160500
0aaaaa

#161000
1aaaaa
b10100010 aaaab
0aaaah
0aaaao
0aaaaz
0aaabg

#161500
0aaaaa

#162000
1aaaaa
b10100011 aaaab
1aaaah
1aaaao
1aaaaz
1aaabg

#162500
0aaaaa

#163000
1aaaaa
b10100100 aaaab
0aaaah
0aaaao
0aaaaz
0aaabg

#163500
0aaaaa

#164000
1aaaaa
b10100101 aaaab
1aaaah
1aaaao
1aaaaz
1aaabg

#164500
0aaaaa

#165000
1aaaaa
b10100110 aaaab
0aaaah
0aaaao
0aaaaz
0aaabg

#165500
0aaaaa

#166000
1aaaaa
b10100111 aaaab
1aaaah
1aaaao
1aaaaz
1aaabg

#166500
0aaaaa

#167000
1aaaaa
b10101000 aaaab
0aaaah
0aaaao
0aaaaz
0aaabg

#167500
0aaaaa

#168000
1aaaaa
b10101001 aaaab
1aaaah
1aaaao
1aaaaz
1aaabg

#168500
0aaaaa

#169000
1aaaaa
b10101010 aaaab
0aaaah
0aaaao
0aaaaz
0aaabg

#169500
0aaaaa

#170000
1aaaaa
b10101011 aaaab
1aaaah
1aaaao
1aaaaz
1aaabg

#170500
0aaaaa

#171000
1aaaaa
b10101100 aaaab
0aaaah
0aaaao
0aaaaz
0aaabg

#171500
0aaaaa

#172000
1aaaaa
b10101101 aaaab
1aaaah
1aaaao
1aaaaz
1aaabg

#172500
0aaaaa

#173000
1aaaaa
b10101110 aaaab
0aaaah
0aaaao
0aaaaz
0aaabg

#173500
0aaaaa

#174000
1aaaaa
b10101111 aaaab
1aaaah
1aaaao
1aaaaz
1aaabg

#174500
0aaaaa

#175000
1aaaaa
b10110000 aaaab
0aaaah
0aaaao
0aaaaz
0aaabg

#175500
0aaaaa

#176000
1aaaaa
b10110001 aaaab
1aaaah
1aaaao
1aaaaz
1aaabg

#176500
0aaaaa

#177000
1aaaaa
b10110010 aaaab
0aaaah
0aaaao
0aaaaz
0aaabg

#177500
0aaaaa

#178000
1aaaaa
b10110011 aaaab
1aaaah
1aaaao
1aaaaz
1aaabg

#178500
0aaaaa

#179000
1aaaaa
b10110100 aaaab
0aaaah
0aaaao
0aaaaz
0aaabg

#179500
0aaaaa

#180000
1aaaaa
b10110101 aaaab
1aaaah
1aaaao
1aaaaz
1aaabg

#180500
0aaaaa

#181000
1aaaaa
b10110110 aaaab
0aaaah
0aaaao
0aaaaz
0aaabg

#181500
0aaaaa

#182000
1aaaaa
b10110111 aaaab
1aaaah
1aaaao
1aaaaz
1aaabg

#182500
0aaaaa

#183000
1aaaaa
b10111000 aaaab
0aaaah
0aaaao
0aaaaz
0aaabg

#183500
0aaaaa

#184000
1aaaaa
b10111001 aaaab
1aaaah
1aaaao
1aaaaz
1aaabg

#184500
0aaaaa

#185000
1aaaaa
b10111010 aaaab
0aaaah
0aaaao
0aaaaz
0aaabg

#185500
0aaaaa

#186000
1aaaaa
b10111011 aaaab
1aaaah
1aaaao
1aaaaz
1aaabg

#186500
0aaaaa

#187000
1aaaaa
b10111100 aaaab
0aaaah
0aaaao
0aaaaz
0aaabg

#187500
0aaaaa

#188000
1aaaaa
b10111101 aaaab
1aaaah
1aaaao
1aaaaz
1aaabg

#188500
0aaaaa

#189000
1aaaaa
b10111110 aaaab
0aaaah
0aaaao
0aaaaz
0aaabg

#189500
0aaaaa

#190000
1aaaaa
b10111111 aaaab
1aaaah
1aaaao
1aaaaz
1aaabg

#190500
0aaaaa

#191000
1aaaaa
b11000000 aaaab
0aaaah
0aaaao
0aaaaz
0aaabg

#191500
0aaaaa

#192000
1aaaaa
b11000001 aaaab
1aaaah
1aaaao
1aaaaz
1aaabg

#192500
0aaaaa

#193000
1aaaaa
b11000010 aaaab
0aaaah
0aaaao
0aaaaz
0aaabg

#193500
0aaaaa

#194000
1aaaaa
b11000011 aaaab
1aaaah
1aaaao
1aaaaz
1aaabg

#194500
0aaaaa

#195000
1aaaaa
b11000100 aaaab
0aaaah
0aaaao
0aaaaz
0aaabg

#195500
0aaaaa

#196000
1aaaaa
b11000101 aaaab
1aaaah
1aaaao
1aaaaz
1aaabg

#196500
0aaaaa

#197000
1aaaaa
b11000110 aaaab
0aaaah
0aaaao
0aaaaz
0aaabg

#197500
0aaaaa

#198000
1aaaaa
b11000111 aaaab
1aaaah
1aaaao
1aaaaz
1aaabg

#198500
0aaaaa

#199000
1aaaaa
b11001000 aaaab
0aaaah
0aaaao
0aaaaz
0aaabg

#199500
0aaaaa

#200000
1aaaaa
b11001001 aaaab
1aaaah
1aaaao
1aaaaz
1aaabg

#200500
0aaaaa

#201000
1aaaaa
b11001010 aaaab
0aaaah
0aaaao
0aaaaz
0aaabg

#201500
0aaaaa

#202000
1aaaaa
b11001011 aaaab
1aaaah
1aaaao
1aaaaz
1aaabg

#202500
0aaaaa

#203000
1aaaaa
b11001100 aaaab
0aaaah
0aaaao
0aaaaz
0aaabg

#203500
0aaaaa

#204000
1aaaaa
b11001101 aaaab
1aaaah
1aaaao
1aaaaz
1aaabg

#204500
0aaaaa

#205000
1aaaaa
b11001110 aaaab
0aaaah
0aaaao
0aaaaz
0aaabg

#205500
0aaaaa

#206000
1aaaaa
b11001111 aaaab
1aaaah
1aaaao
1aaaaz
1aaabg

#206500
0aaaaa

#207000
1aaaaa
b11010000 aaaab
0aaaah
0aaaao
0aaaaz
0aaabg

#207500
0aaaaa

#208000
1aaaaa
b11010001 aaaab
1aaaah
1aaaao
1aaaaz
1aaabg

#208500
0aaaaa

#209000
1aaaaa
b11010010 aaaab
0aaaah
0aaaao
0aaaaz
0aaabg

#209500
0aaaaa

#210000
1aaaaa
b11010011 aaaab
1aaaah
1aaaao
1aaaaz
1aaabg

#210500
0aaaaa

#211000
1aaaaa
b11010100 aaaab
0aaaah
0aaaao
0aaaaz
0aaabg

#211500
0aaaaa

#212000
1aaaaa
b11010101 aaaab
1aaaah
1aaaao
1aaaaz
1aaabg

#212500
0aaaaa

#213000
1aaaaa
b11010110 aaaab
0aaaah
0aaaao
0aaaaz
0aaabg

#213500
0aaaaa

#214000
1aaaaa
b11010111 aaaab
1aaaah
1aaaao
1aaaaz
1aaabg

#214500
0aaaaa

#215000
1aaaaa
b11011000 aaaab
0aaaah
0aaaao
0aaaaz
0aaabg

#215500
0aaaaa

#216000
1aaaaa
b11011001 aaaab
1aaaah
1aaaao
1aaaaz
1aaabg

#216500
0aaaaa

#217000
1aaaaa
b11011010 aaaab
0aaaah
0aaaao
0aaaaz
0aaabg

#217500
0aaaaa

#218000
1aaaaa
b11011011 aaaab
1aaaah
1aaaao
1aaaaz
1aaabg

#218500
0aaaaa

#219000
1aaaaa
b11011100 aaaab
0aaaah
0aaaao
0aaaaz
0aaabg

#219500
0aaaaa

#220000
1aaaaa
b11011101 aaaab
1aaaah
1aaaao
1aaaaz
1aaabg

#220500
0aaaaa

#221000
1aaaaa
b11011110 aaaab
0aaaah
0aaaao
0aaaaz
0aaabg

#221500
0aaaaa

