out/test_runs_wmem/test_n8_fullfile/trace.vcd
$date
     Jul 17, 2026       10:22:03
$end

$version
 SystemC 2.3.3-Accellera --- Jun 25 2026 10:44:53
$end

$timescale
     1 ps
$end

$scope module SystemC $end
$scope module Control $end
$var wire    1  aaaaa  clk       $end
$var wire    1  aaaab  rst_n       $end
$var wire    1  aaaac  start_signal       $end
$upscope $end
$scope module Core0 $end
$var wire   32  aaaaf  base_addr [31:0]  $end
$var wire   32  aaaag  num_samples [31:0]  $end
$var wire    1  aaaah  start       $end
$var wire    1  aaaai  busy       $end
$scope module AXI_AR $end
$var wire    1  aaaaj  ar_val       $end
$var wire    1  aaaak  ar_rdy       $end
$var wire    4  aaaal  ar_msg_id [3:0]  $end
$var wire   32  aaaam  ar_msg_addr [31:0]  $end
$var wire    8  aaaan  ar_msg_len [7:0]  $end
$upscope $end
$scope module AXI_AW $end
$var wire    1  aaaau  aw_val       $end
$var wire    1  aaaav  aw_rdy       $end
$var wire    4  aaaaw  aw_msg_id [3:0]  $end
$var wire   32  aaaax  aw_msg_addr [31:0]  $end
$var wire    8  aaaay  aw_msg_len [7:0]  $end
$upscope $end
$scope module AXI_B $end
$var wire    1  aaabe  b_val       $end
$var wire    1  aaabf  b_rdy       $end
$var wire    4  aaabg  b_msg_id [3:0]  $end
$var wire    2  aaabh  b_msg_resp [1:0]  $end
$upscope $end
$scope module AXI_R $end
$var wire    1  aaaao  r_val       $end
$var wire    1  aaaap  r_rdy       $end
$var wire    4  aaaaq  r_msg_id [3:0]  $end
$var wire   64  aaaar  r_msg_data [63:0]  $end
$var wire    2  aaaas  r_msg_resp [1:0]  $end
$var wire    1  aaaat  r_msg_last       $end
$upscope $end
$scope module AXI_W $end
$var wire    1  aaaaz  w_val       $end
$var wire    1  aaaba  w_rdy       $end
$var wire   64  aaabb  w_msg_data [63:0]  $end
$var wire    1  aaabc  w_msg_last       $end
$var wire    8  aaabd  w_msg_wstrb [7:0]  $end
$upscope $end
$scope module Internal $end
$var wire    1  aaabi  dma_to_fft_val       $end
$var wire    1  aaabj  dma_to_fft_rdy       $end
$var real    1  aaabk  dma_to_fft_msg_real       $end
$var real    1  aaabl  dma_to_fft_msg_imag       $end
$var wire    1  aaabm  fft_to_dma_val       $end
$var wire    1  aaabn  fft_to_dma_rdy       $end
$var real    1  aaabo  fft_to_dma_msg_real       $end
$var real    1  aaabp  fft_to_dma_msg_imag       $end
$upscope $end
$upscope $end
$scope module Stagger $end
$var wire    1  aaaad  active       $end
$var wire   32  aaaae  counter [31:0]  $end
$upscope $end
$upscope $end
$enddefinitions  $end

$comment
All initial values are dumped below at time 0 sec = 0 timescale units.
$end

$dumpvars
1aaaaa
0aaaab
0aaaac
0aaaad
b0 aaaae
b0 aaaaf
b0 aaaag
0aaaah
0aaaai
0aaaaj
0aaaak
b0 aaaal
b0 aaaam
b0 aaaan
0aaaao
0aaaap
b0 aaaaq
b0 aaaar
b0 aaaas
0aaaat
0aaaau
0aaaav
b0 aaaaw
b0 aaaax
b0 aaaay
0aaaaz
0aaaba
b0 aaabb
0aaabc
b11111111 aaabd
0aaabe
0aaabf
b0 aaabg
b0 aaabh
0aaabi
0aaabj
r0 aaabk
r0 aaabl
0aaabm
0aaabn
r0 aaabo
r0 aaabp
$end

#10
1aaaak
1aaaap
1aaaav
1aaaba
1aaabf
1aaabj
1aaabn

#1000
0aaaaa

#2000
1aaaaa

#3000
0aaaaa

#4000
1aaaaa

#5000
0aaaaa

#6000
1aaaaa

#7000
0aaaaa

#8000
1aaaaa

#9000
0aaaaa

#10000
1aaaaa
1aaaab

#11000
0aaaaa

#12000
1aaaaa

#13000
0aaaaa

#14000
1aaaaa

#15000
0aaaaa

#16000
1aaaaa

#17000
0aaaaa

#18000
1aaaaa

#19000
0aaaaa

#20000
1aaaaa
1aaaac
1aaaad
b1 aaaae
b100000000000 aaaag
1aaaah

#21000
0aaaaa

#22000
1aaaaa
0aaaac
b10 aaaae
0aaaah
1aaaai
b11111111 aaaan
b1000000 aaaax
b11111111 aaaay

#22010
1aaaaj
1aaaau

#23000
0aaaaa

#24000
1aaaaa
b11 aaaae
b100000000000 aaaam

#24010
0aaaau

#25000
0aaaaa

#26000
1aaaaa
b100 aaaae
b1000000000000 aaaam

#26010
0aaaak

#27000
0aaaaa

#28000
1aaaaa
0aaaad
b101 aaaae

#29000
0aaaaa

#30000
1aaaaa

#31000
0aaaaa

#32000
1aaaaa

#32010
1aaaak
1aaaao

#33000
0aaaaa

#34000
1aaaaa
b1100000000000 aaaam

#34010
0aaaak
0aaaao
1aaabi

#35000
0aaaaa

#36000
1aaaaa

#36010
0aaabi

#37000
0aaaaa

#38000
1aaaaa
b10110100000000000000000000000000000000 aaaar

#38010
1aaaak
1aaaao

#39000
0aaaaa

#40000
1aaaaa
b10000000000000 aaaam
r45 aaabk

#40010
0aaaak
0aaaao
1aaabi

#41000
0aaaaa

#42000
1aaaaa

#42010
0aaabi

#43000
0aaaaa

#44000
1aaaaa
b101100000000000000000000000000000000 aaaar

#44010
1aaaak
1aaaao

#45000
0aaaaa

#46000
1aaaaa
b10100000000000 aaaam
r11 aaabk

#46010
0aaaak
0aaaao
1aaabi

#47000
0aaaaa

#48000
1aaaaa

#48010
0aaabi

#49000
0aaaaa

#50000
1aaaaa
b11100000000000000000000000000000000 aaaar

#50010
1aaaak
1aaaao

#51000
0aaaaa

#52000
1aaaaa
b11000000000000 aaaam
r7 aaabk

#52010
0aaaak
0aaaao
1aaabi

#53000
0aaaaa

#54000
1aaaaa

#54010
0aaabi

#55000
0aaaaa

#56000
1aaaaa
b101000000000000000000000000000000000 aaaar

#56010
1aaaak
1aaaao

#57000
0aaaaa

#58000
1aaaaa
b11100000000000 aaaam
r10 aaabk

#58010
0aaaak
0aaaao
1aaabi

#59000
0aaaaa

#60000
1aaaaa

#60010
0aaabi

#61000
0aaaaa

#62000
1aaaaa
b1010000000000000000000000000000000000 aaaar

#62010
1aaaak
1aaaao

#63000
0aaaaa

#64000
1aaaaa
r20 aaabk

#64010
0aaaaj
0aaaak
0aaaao
1aaabi

#65000
0aaaaa

#66000
1aaaaa

#66010
0aaabi

#67000
0aaaaa

#68000
1aaaaa
b110000000000000000000000000000000000 aaaar

#68010
1aaaak
1aaaao

#69000
0aaaaa

#70000
1aaaaa
r12 aaabk

#70010
0aaaao
1aaabi

#71000
0aaaaa

#72000
1aaaaa

#72010
0aaabi

#73000
0aaaaa

#74000
1aaaaa
b1111111111111111111111111111001000000000000000000000000000000000 aaaar

#74010
1aaaao

#75000
0aaaaa

#76000
1aaaaa
r-14 aaabk

#76010
0aaaao
1aaabi

#77000
0aaaaa

#78000
1aaaaa

#78010
0aaabi

#79000
0aaaaa

#80000
1aaaaa
b1000000000000000000000000000000000 aaaar

#80010
1aaaao

#81000
0aaaaa

#82000
1aaaaa
r2 aaabk
r91 aaabo

#82010
0aaaao
1aaabi
1aaabm

#83000
0aaaaa

#84000
1aaaaa
b101101100000000000000000000000000000000 aaabb

#84010
1aaaaz
0aaabi
0aaabm

#85000
0aaaaa

#86000
1aaaaa

#86010
0aaaaz

#87000
0aaaaa

#88000
1aaaaa
r-25 aaabo

#88010
1aaabm

#89000
0aaaaa

#90000
1aaaaa
b1111111111111111111111111110011100000000000000000000000000000000 aaabb

#90010
1aaaaz
0aaabm

#91000
0aaaaa

#92000
1aaaaa

#92010
0aaaaz
0aaaba

#93000
0aaaaa

#94000
1aaaaa

#95000
0aaaaa

#96000
1aaaaa

#97000
0aaaaa

#98000
1aaaaa
b1111111111111111111111111110001000000000000000000000000000000000 aaaar

#98010
1aaaao

#99000
0aaaaa

#100000
1aaaaa
r-30 aaabk

#100010
0aaaao
1aaabi

#101000
0aaaaa

#102000
1aaaaa

#102010
0aaabi

#103000
0aaaaa

#104000
1aaaaa

#104010
1aaaba

#105000
0aaaaa

#106000
1aaaaa
r-13 aaabo
r-72 aaabp

#106010
1aaabm

#107000
0aaaaa

#108000
1aaaaa
b1111111111111111111111111111001111111111111111111111111110111000 aaabb

#108010
1aaaaz
0aaabm

#109000
0aaaaa

#110000
1aaaaa

#110010
0aaaaz
0aaaba

#111000
0aaaaa

#112000
1aaaaa

#113000
0aaaaa

#114000
1aaaaa

#115000
0aaaaa

#116000
1aaaaa
b1111111111111111111111111101001100000000000000000000000000000000 aaaar

#116010
1aaaao

#117000
0aaaaa

#118000
1aaaaa
r-45 aaabk

#118010
0aaaao
1aaabi

#119000
0aaaaa

#120000
1aaaaa

#120010
0aaabi

#121000
0aaaaa

#122000
1aaaaa

#122010
1aaaba

#123000
0aaaaa

#124000
1aaaaa
r-13 aaabo
r72 aaabp

#124010
1aaabm

#125000
0aaaaa

#126000
1aaaaa
b1111111111111111111111111111001100000000000000000000000001001000 aaabb

#126010
1aaaaz
0aaabm

#127000
0aaaaa

#128000
1aaaaa

#128010
0aaaaz
0aaaba

#129000
0aaaaa

#130000
1aaaaa

#131000
0aaaaa

#132000
1aaaaa

#133000
0aaaaa

#134000
1aaaaa
b11000000000000000000000000000000000 aaaar

#134010
1aaaao

#135000
0aaaaa

#136000
1aaaaa
r6 aaabk

#136010
0aaaao
1aaabi

#137000
0aaaaa

#138000
1aaaaa

#138010
0aaabi

#139000
0aaaaa

#140000
1aaaaa

#140010
1aaaba

#141000
0aaaaa

#142000
1aaaaa
r-7.171572875253808 aaabo
r-31.52691193458119 aaabp

#142010
1aaabm

#143000
0aaaaa

#144000
1aaaaa
b1111111111111111111111111111100111111111111111111111111111100000 aaabb

#144010
1aaaaz
0aaabm

#145000
0aaaaa

#146000
1aaaaa

#146010
0aaaaz
0aaaba

#147000
0aaaaa

#148000
1aaaaa

#149000
0aaaaa

#150000
1aaaaa

#151000
0aaaaa

#152000
1aaaaa
b101000000000000000000000000000000000 aaaar

#152010
1aaaao

#153000
0aaaaa

#154000
1aaaaa
r10 aaabk

#154010
0aaaao
1aaabi

#155000
0aaaaa

#156000
1aaaaa

#156010
0aaabi

#157000
0aaaaa

#158000
1aaaaa

#158010
1aaaba

#159000
0aaaaa

#160000
1aaaaa
r-12.82842712474619 aaabo
r33.52691193458119 aaabp

#160010
1aaabm

#161000
0aaaaa

#162000
1aaaaa
b1111111111111111111111111111001100000000000000000000000000100010 aaabb

#162010
1aaaaz
0aaabm

#163000
0aaaaa

#164000
1aaaaa

#164010
0aaaaz
0aaaba

#165000
0aaaaa

#166000
1aaaaa

#167000
0aaaaa

#168000
1aaaaa

#169000
0aaaaa

#170000
1aaaaa
b1111111111111111111111111111111000000000000000000000000000000000 aaaar

#170010
1aaaao

#171000
0aaaaa

#172000
1aaaaa
r-2 aaabk

#172010
0aaaao
1aaabi

#173000
0aaaaa

#174000
1aaaaa

#174010
0aaabi

#175000
0aaaaa

#176000
1aaaaa

#176010
1aaaba

#177000
0aaaaa

#178000
1aaaaa
r-12.82842712474618 aaabo
r-33.52691193458119 aaabp

#178010
1aaabm

#179000
0aaaaa

#180000
1aaaaa
b1111111111111111111111111111001111111111111111111111111111011110 aaabb

#180010
1aaaaz
0aaabm

#181000
0aaaaa

#182000
1aaaaa

#182010
0aaaaz
0aaaba

#183000
0aaaaa

#184000
1aaaaa

#185000
0aaaaa

#186000
1aaaaa

#187000
0aaaaa

#188000
1aaaaa
b1111111111111111111111111111000100000000000000000000000000000000 aaaar

#188010
1aaaao

#189000
0aaaaa

#190000
1aaaaa
r-15 aaabk

#190010
0aaaao
1aaabi

#191000
0aaaaa

#192000
1aaaaa

#192010
0aaabi

#193000
0aaaaa

#194000
1aaaaa

#194010
1aaaba

#195000
0aaaaa

#196000
1aaaaa
r-7.171572875253815 aaabo
r31.52691193458119 aaabp

#196010
1aaabm

#197000
0aaaaa

#198000
1aaaaa
b1111111111111111111111111111100100000000000000000000000000100000 aaabb

#198010
1aaaaz
0aaabm

#199000
0aaaaa

#200000
1aaaaa

#200010
0aaaaz
0aaaba

#201000
0aaaaa

#202000
1aaaaa

#203000
0aaaaa

#204000
1aaaaa

#205000
0aaaaa

#206000
1aaaaa
b110100000000000000000000000000000000 aaaar

#206010
1aaaao

#207000
0aaaaa

#208000
1aaaaa
r13 aaabk

#208010
0aaaao
1aaabi

#209000
0aaaaa

#210000
1aaaaa

#210010
0aaabi

#211000
0aaaaa

#212000
1aaaaa

#212010
1aaaba

#213000
0aaaaa

#214000
1aaaaa
r-61 aaabo
r0 aaabp

#214010
1aaabm

#215000
0aaaaa

#216000
1aaaaa
b1111111111111111111111111100001100000000000000000000000000000000 aaabb

#216010
1aaaaz
0aaabm

#217000
0aaaaa

#218000
1aaaaa

#218010
0aaaaz
0aaaba

#219000
0aaaaa

#220000
1aaaaa

#221000
0aaaaa

#222000
1aaaaa

#223000
0aaaaa

#224000
1aaaaa
b11001100000000000000000000000000000000 aaaar

#224010
1aaaao

#225000
0aaaaa

#226000
1aaaaa
r51 aaabk

#226010
0aaaao
1aaabi

#227000
0aaaaa

#228000
1aaaaa

#228010
0aaabi

#229000
0aaaaa

#230000
1aaaaa

#230010
1aaaba

#231000
0aaaaa

#232000
1aaaaa
r-35 aaabo

#232010
1aaabm

#233000
0aaaaa

#234000
1aaaaa
b1111111111111111111111111101110100000000000000000000000000000000 aaabb

#234010
1aaaaz
0aaabm

#235000
0aaaaa

#236000
1aaaaa

#236010
0aaaaz
0aaaba

#237000
0aaaaa

#238000
1aaaaa

#239000
0aaaaa

#240000
1aaaaa

#241000
0aaaaa

#242000
1aaaaa
b101000000000000000000000000000000000 aaaar

#242010
1aaaao

#243000
0aaaaa

#244000
1aaaaa
r10 aaabk

#244010
0aaaao
1aaabi

#245000
0aaaaa

#246000
1aaaaa

#246010
0aaabi

#247000
0aaaaa

#248000
1aaaaa

#248010
1aaaba

#249000
0aaaaa

#250000
1aaaaa
r72 aaabo
r51 aaabp

#250010
1aaabm

#251000
0aaaaa

#252000
1aaaaa
b100100000000000000000000000000000110011 aaabb

#252010
1aaaaz
0aaabm

#253000
0aaaaa

#254000
1aaaaa

#254010
0aaaaz
0aaaba

#255000
0aaaaa

#256000
1aaaaa

#257000
0aaaaa

#258000
1aaaaa

#259000
0aaaaa

#260000
1aaaaa
b10000000000000000000000000000000000 aaaar

#260010
1aaaao

#261000
0aaaaa

#262000
1aaaaa
r4 aaabk

#262010
0aaaao
1aaabi

#263000
0aaaaa

#264000
1aaaaa

#264010
0aaabi

#265000
0aaaaa

#266000
1aaaaa

#266010
1aaaba

#267000
0aaaaa

#268000
1aaaaa
r-51 aaabp

#268010
1aaabm

#269000
0aaaaa

#270000
1aaaaa
b100100011111111111111111111111111001101 aaabb

#270010
1aaaaz
0aaabm

#271000
0aaaaa

#272000
1aaaaa

#272010
0aaaaz
0aaaba

#273000
0aaaaa

#274000
1aaaaa

#275000
0aaaaa

#276000
1aaaaa

#277000
0aaaaa

#278000
1aaaaa
b100000000000000000000000000000000000 aaaar

#278010
1aaaao

#279000
0aaaaa

#280000
1aaaaa
r8 aaabk

#280010
0aaaao
1aaabi

#281000
0aaaaa

#282000
1aaaaa

#282010
0aaabi

#283000
0aaaaa

#284000
1aaaaa

#284010
1aaaba

#285000
0aaaaa

#286000
1aaaaa
r-22.8492424049175 aaabo
r54.74873734152916 aaabp

#286010
1aaabm

#287000
0aaaaa

#288000
1aaaaa
b1111111111111111111111111110100100000000000000000000000000110111 aaabb

#288010
1aaaaz
0aaabm

#289000
0aaaaa

#290000
1aaaaa

#290010
0aaaaz
0aaaba

#291000
0aaaaa

#292000
1aaaaa

#293000
0aaaaa

#294000
1aaaaa

#295000
0aaaaa

#296000
1aaaaa
b1111111111111111111111111110101000000000000000000000000000000000 aaaar

#296010
1aaaao

#297000
0aaaaa

#298000
1aaaaa
r-22 aaabk

#298010
0aaaao
1aaabi

#299000
0aaaaa

#300000
1aaaaa

#300010
0aaabi

#301000
0aaaaa

#302000
1aaaaa

#302010
1aaaba

#303000
0aaaaa

#304000
1aaaaa
r6.849242404917497 aaabo
r5.251262658470839 aaabp

#304010
1aaabm

#305000
0aaaaa

#306000
1aaaaa
b11100000000000000000000000000000101 aaabb

#306010
1aaaaz
0aaabm

#307000
0aaaaa

#308000
1aaaaa

#308010
0aaaaz
0aaaba

#309000
0aaaaa

#310000
1aaaaa

#311000
0aaaaa

#312000
1aaaaa

#313000
0aaaaa

#314000
1aaaaa
b1111111111111111111111111111001000000000000000000000000000000000 aaaar

#314010
1aaaao

#315000
0aaaaa

#316000
1aaaaa
r-14 aaabk

#316010
0aaaao
1aaabi

#317000
0aaaaa

#318000
1aaaaa

#318010
0aaabi

#319000
0aaaaa

#320000
1aaaaa

#320010
1aaaba

#321000
0aaaaa

#322000
1aaaaa
r6.849242404917494 aaabo
r-5.251262658470836 aaabp

#322010
1aaabm

#323000
0aaaaa

#324000
1aaaaa
b11111111111111111111111111111111011 aaabb

#324010
1aaaaz
0aaabm

#325000
0aaaaa

#326000
1aaaaa

#326010
0aaaaz
0aaaba

#327000
0aaaaa

#328000
1aaaaa

#329000
0aaaaa

#330000
1aaaaa

#331000
0aaaaa

#332000
1aaaaa
b1111111111111111111111111111011000000000000000000000000000000000 aaaar

#332010
1aaaao

#333000
0aaaaa

#334000
1aaaaa
r-10 aaabk

#334010
0aaaao
1aaabi

#335000
0aaaaa

#336000
1aaaaa

#336010
0aaabi

#337000
0aaaaa

#338000
1aaaaa

#338010
1aaaba

#339000
0aaaaa

#340000
1aaaaa
r-22.84924240491749 aaabo
r-54.74873734152916 aaabp

#340010
1aaabm

#341000
0aaaaa

#342000
1aaaaa
b1111111111111111111111111110100111111111111111111111111111001001 aaabb

#342010
1aaaaz
0aaabm

#343000
0aaaaa

#344000
1aaaaa

#344010
0aaaaz
0aaaba

#345000
0aaaaa

#346000
1aaaaa

#347000
0aaaaa

#348000
1aaaaa

#349000
0aaaaa

#350000
1aaaaa
b1111111111111111111111111111110000000000000000000000000000000000 aaaar

#350010
1aaaao

#351000
0aaaaa

#352000
1aaaaa
r-4 aaabk

#352010
0aaaao
1aaabi

#353000
0aaaaa

#354000
1aaaaa

#354010
0aaabi

#355000
0aaaaa

#356000
1aaaaa

#356010
1aaaba

#357000
0aaaaa

#358000
1aaaaa
r23 aaabo
r0 aaabp

#358010
1aaabm

#359000
0aaaaa

#360000
1aaaaa
b1011100000000000000000000000000000000 aaabb

#360010
1aaaaz
0aaabm

#361000
0aaaaa

#362000
1aaaaa

#362010
0aaaaz
0aaaba

#363000
0aaaaa

#364000
1aaaaa

#365000
0aaaaa

#366000
1aaaaa

#367000
0aaaaa

#368000
1aaaaa
b1111111111111111111111111110011000000000000000000000000000000000 aaaar

#368010
1aaaao

#369000
0aaaaa

#370000
1aaaaa
r-26 aaabk

#370010
0aaaao
1aaabi

#371000
0aaaaa

#372000
1aaaaa

#372010
0aaabi

#373000
0aaaaa

#374000
1aaaaa

#374010
1aaaba

#375000
0aaaaa

#376000
1aaaaa

#376010
1aaabm

#377000
0aaaaa

#378000
1aaaaa

#378010
1aaaaz
0aaabm

#379000
0aaaaa

#380000
1aaaaa

#380010
0aaaaz
0aaaba

#381000
0aaaaa

#382000
1aaaaa

#383000
0aaaaa

#384000
1aaaaa

#385000
0aaaaa

#386000
1aaaaa
b1111111111111111111111111101100100000000000000000000000000000000 aaaar

#386010
1aaaao

#387000
0aaaaa

#388000
1aaaaa
r-39 aaabk

#388010
0aaaao
1aaabi

#389000
0aaaaa

#390000
1aaaaa

#390010
0aaabi

#391000
0aaaaa

#392000
1aaaaa

#392010
1aaaba

#393000
0aaaaa

#394000
1aaaaa
r35 aaabo
r8 aaabp

#394010
1aaabm

#395000
0aaaaa

#396000
1aaaaa
b10001100000000000000000000000000001000 aaabb

#396010
1aaaaz
0aaabm

#397000
0aaaaa

#398000
1aaaaa

#398010
0aaaaz
0aaaba

#399000
0aaaaa

#400000
1aaaaa

#401000
0aaaaa

#402000
1aaaaa

#403000
0aaaaa

#404000
1aaaaa
b1110100000000000000000000000000000000 aaaar

#404010
1aaaao

#405000
0aaaaa

#406000
1aaaaa
r29 aaabk

#406010
0aaaao
1aaabi

#407000
0aaaaa

#408000
1aaaaa

#408010
0aaabi

#409000
0aaaaa

#410000
1aaaaa

#410010
1aaaba

#411000
0aaaaa

#412000
1aaaaa
r-8 aaabp

#412010
1aaabm

#413000
0aaaaa

#414000
1aaaaa
b10001111111111111111111111111111111000 aaabb

#414010
1aaaaz
0aaabm

#415000
0aaaaa

#416000
1aaaaa

#416010
0aaaaz
0aaaba

#417000
0aaaaa

#418000
1aaaaa

#419000
0aaaaa

#420000
1aaaaa

#421000
0aaaaa

#422000
1aaaaa
b10001000000000000000000000000000000000 aaaar

#422010
1aaaao

#423000
0aaaaa

#424000
1aaaaa
r34 aaabk

#424010
0aaaao
1aaabi

#425000
0aaaaa

#426000
1aaaaa

#426010
0aaabi

#427000
0aaaaa

#428000
1aaaaa

#428010
1aaaba

#429000
0aaaaa

#430000
1aaaaa
r81.48528137423857 aaabo
r-39.45584412271571 aaabp

#430010
1aaabm

#431000
0aaaaa

#432000
1aaaaa
b101000111111111111111111111111111011001 aaabb

#432010
1aaaaz
0aaabm

#433000
0aaaaa

#434000
1aaaaa

#434010
0aaaaz
0aaaba

#435000
0aaaaa

#436000
1aaaaa

#437000
0aaaaa

#438000
1aaaaa

#439000
0aaaaa

#440000
1aaaaa
b10000000000000000000000000000000000 aaaar

#440010
1aaaao

#441000
0aaaaa

#442000
1aaaaa
r4 aaabk

#442010
0aaaao
1aaabi

#443000
0aaaaa

#444000
1aaaaa

#444010
0aaabi

#445000
0aaaaa

#446000
1aaaaa

#446010
1aaaba

#447000
0aaaaa

#448000
1aaaaa
r64.51471862576143 aaabo
r11.45584412271571 aaabp

#448010
1aaabm

#449000
0aaaaa

#450000
1aaaaa
b100000100000000000000000000000000001011 aaabb

#450010
1aaaaz
0aaabm

#451000
0aaaaa

#452000
1aaaaa

#452010
0aaaaz
0aaaba

#453000
0aaaaa

#454000
1aaaaa

#455000
0aaaaa

#456000
1aaaaa

#457000
0aaaaa

#458000
1aaaaa
b101000000000000000000000000000000000 aaaar

#458010
1aaaao

#459000
0aaaaa

#460000
1aaaaa
r10 aaabk

#460010
0aaaao
1aaabi

#461000
0aaaaa

#462000
1aaaaa

#462010
0aaabi

#463000
0aaaaa

#464000
1aaaaa

#464010
1aaaba

#465000
0aaaaa

#466000
1aaaaa
r-11.45584412271571 aaabp

#466010
1aaabm

#467000
0aaaaa

#468000
1aaaaa
b100000111111111111111111111111111110101 aaabb

#468010
1aaaaz
0aaabm

#469000
0aaaaa

#470000
1aaaaa

#470010
0aaaaz
0aaaba

#471000
0aaaaa

#472000
1aaaaa

#473000
0aaaaa

#474000
1aaaaa

#475000
0aaaaa

#476000
1aaaaa
b101100000000000000000000000000000000 aaaar

#476010
1aaaao

#477000
0aaaaa

#478000
1aaaaa
r11 aaabk

#478010
0aaaao
1aaabi

#479000
0aaaaa

#480000
1aaaaa

#480010
0aaabi

#481000
0aaaaa

#482000
1aaaaa

#482010
1aaaba

#483000
0aaaaa

#484000
1aaaaa
r81.48528137423857 aaabo
r39.45584412271571 aaabp

#484010
1aaabm

#485000
0aaaaa

#486000
1aaaaa
b101000100000000000000000000000000100111 aaabb

#486010
1aaaaz
0aaabm

#487000
0aaaaa

#488000
1aaaaa

#488010
0aaaaz
0aaaba

#489000
0aaaaa

#490000
1aaaaa

#491000
0aaaaa

#492000
1aaaaa

#493000
0aaaaa

#494000
1aaaaa
b1011100000000000000000000000000000000 aaaar

#494010
1aaaao

#495000
0aaaaa

#496000
1aaaaa
r23 aaabk

#496010
0aaaao
1aaabi

#497000
0aaaaa

#498000
1aaaaa

#498010
0aaabi

#499000
0aaaaa

#500000
1aaaaa

#500010
1aaaba

#501000
0aaaaa

#502000
1aaaaa
r46 aaabo
r0 aaabp

#502010
1aaabm

#503000
0aaaaa

#504000
1aaaaa
b10111000000000000000000000000000000000 aaabb

#504010
1aaaaz
0aaabm

#505000
0aaaaa

#506000
1aaaaa

#506010
0aaaaz
0aaaba

#507000
0aaaaa

#508000
1aaaaa

#509000
0aaaaa

#510000
1aaaaa

#511000
0aaaaa

#512000
1aaaaa
b1111111111111111111111111111111000000000000000000000000000000000 aaaar

#512010
1aaaao

#513000
0aaaaa

#514000
1aaaaa
r-2 aaabk

#514010
0aaaao
1aaabi

#515000
0aaaaa

#516000
1aaaaa

#516010
0aaabi

#517000
0aaaaa

#518000
1aaaaa

#518010
1aaaba

#519000
0aaaaa

#520000
1aaaaa
r-10 aaabo

#520010
1aaabm

#521000
0aaaaa

#522000
1aaaaa
b1111111111111111111111111111011000000000000000000000000000000000 aaabb

#522010
1aaaaz
0aaabm

#523000
0aaaaa

#524000
1aaaaa

#524010
0aaaaz
0aaaba

#525000
0aaaaa

#526000
1aaaaa

#527000
0aaaaa

#528000
1aaaaa

#529000
0aaaaa

#530000
1aaaaa
b1111111111111111111111111111011100000000000000000000000000000000 aaaar

#530010
1aaaao

#531000
0aaaaa

#532000
1aaaaa
r-9 aaabk

#532010
0aaaao
1aaabi

#533000
0aaaaa

#534000
1aaaaa

#534010
0aaabi

#535000
0aaaaa

#536000
1aaaaa

#536010
1aaaba

#537000
0aaaaa

#538000
1aaaaa
r-62.00000000000001 aaabo
r86 aaabp

#538010
1aaabm

#539000
0aaaaa

#540000
1aaaaa
b1111111111111111111111111100001000000000000000000000000001010110 aaabb

#540010
1aaaaz
0aaabm

#541000
0aaaaa

#542000
1aaaaa

#542010
0aaaaz
0aaaba

#543000
0aaaaa

#544000
1aaaaa

#545000
0aaaaa

#546000
1aaaaa

#547000
0aaaaa

#548000
1aaaaa
b1111111111111111111111111111111000000000000000000000000000000000 aaaar

#548010
1aaaao

#549000
0aaaaa

#550000
1aaaaa
r-2 aaabk

#550010
0aaaao
1aaabi

#551000
0aaaaa

#552000
1aaaaa

#552010
0aaabi

#553000
0aaaaa

#554000
1aaaaa

#554010
1aaaba

#555000
0aaaaa

#556000
1aaaaa
r-61.99999999999999 aaabo
r-86 aaabp

#556010
1aaabm

#557000
0aaaaa

#558000
1aaaaa
b1111111111111111111111111100001011111111111111111111111110101010 aaabb

#558010
1aaaaz
0aaabm

#559000
0aaaaa

#560000
1aaaaa

#560010
0aaaaz
0aaaba

#561000
0aaaaa

#562000
1aaaaa

#563000
0aaaaa

#564000
1aaaaa

#565000
0aaaaa

#566000
1aaaaa
b1111111111111111111111111101000000000000000000000000000000000000 aaaar

#566010
1aaaao

#567000
0aaaaa

#568000
1aaaaa
r-48 aaabk

#568010
0aaaao
1aaabi

#569000
0aaaaa

#570000
1aaaaa

#570010
0aaabi

#571000
0aaaaa

#572000
1aaaaa

#572010
1aaaba

#573000
0aaaaa

#574000
1aaaaa
r-72.42640687119285 aaabo
r8.870057685088803 aaabp

#574010
1aaabm

#575000
0aaaaa

#576000
1aaaaa
b1111111111111111111111111011100000000000000000000000000000001001 aaabb

#576010
1aaaaz
0aaabm

#577000
0aaaaa

#578000
1aaaaa

#578010
0aaaaz
0aaaba

#579000
0aaaaa

#580000
1aaaaa

#581000
0aaaaa

#582000
1aaaaa

#583000
0aaaaa

#584000
1aaaaa
b1111111111111111111111111110011100000000000000000000000000000000 aaaar

#584010
1aaaao

#585000
0aaaaa

#586000
1aaaaa
r-25 aaabk

#586010
0aaaao
1aaabi

#587000
0aaaaa

#588000
1aaaaa

#588010
0aaabi

#589000
0aaaaa

#590000
1aaaaa

#590010
1aaaba

#591000
0aaaaa

#592000
1aaaaa
r12.42640687119285 aaabo
r-44.8700576850888 aaabp

#592010
1aaabm

#593000
0aaaaa

#594000
1aaaaa
b110011111111111111111111111111010011 aaabb

#594010
1aaaaz
0aaabm

#595000
0aaaaa

#596000
1aaaaa

#596010
0aaaaz
0aaaba

#597000
0aaaaa

#598000
1aaaaa

#599000
0aaaaa

#600000
1aaaaa

#601000
0aaaaa

#602000
1aaaaa
b111100000000000000000000000000000000 aaaar

#602010
1aaaao

#603000
0aaaaa

#604000
1aaaaa
r15 aaabk

#604010
0aaaao
1aaabi

#605000
0aaaaa

#606000
1aaaaa

#606010
0aaabi

#607000
0aaaaa

#608000
1aaaaa

#608010
1aaaba

#609000
0aaaaa

#610000
1aaaaa
r12.42640687119285 aaabo
r44.87005768508881 aaabp

#610010
1aaabm

#611000
0aaaaa

#612000
1aaaaa
b110000000000000000000000000000101101 aaabb

#612010
1aaaaz
0aaabm

#613000
0aaaaa

#614000
1aaaaa

#614010
0aaaaz
0aaaba

#615000
0aaaaa

#616000
1aaaaa

#617000
0aaaaa

#618000
1aaaaa

#619000
0aaaaa

#620000
1aaaaa
b10100000000000000000000000000000000 aaaar

#620010
1aaaao

#621000
0aaaaa

#622000
1aaaaa
r5 aaabk

#622010
0aaaao
1aaabi

#623000
0aaaaa

#624000
1aaaaa

#624010
0aaabi

#625000
0aaaaa

#626000
1aaaaa

#626010
1aaaba

#627000
0aaaaa

#628000
1aaaaa
r-72.42640687119285 aaabo
r-8.870057685088813 aaabp

#628010
1aaabm

#629000
0aaaaa

#630000
1aaaaa
b1111111111111111111111111011100011111111111111111111111111110111 aaabb

#630010
1aaaaz
0aaabm

#631000
0aaaaa

#632000
1aaaaa

#632010
0aaaaz
0aaaba

#633000
0aaaaa

#634000
1aaaaa

#635000
0aaaaa

#636000
1aaaaa

#637000
0aaaaa

#638000
1aaaaa
b1111111111111111111111111111100100000000000000000000000000000000 aaaar

#638010
1aaaao

#639000
0aaaaa

#640000
1aaaaa
r-7 aaabk

#640010
0aaaao
1aaabi

#641000
0aaaaa

#642000
1aaaaa

#642010
0aaabi

#643000
0aaaaa

#644000
1aaaaa

#644010
1aaaba

#645000
0aaaaa

#646000
1aaaaa
r-73 aaabo
r0 aaabp

#646010
1aaabm

#647000
0aaaaa

