out/test_runs/test_n1/trace.vcd
$date
     Jun 30, 2026       06:39:21
$end

$version
 SystemC 2.3.3-Accellera --- Jun 25 2026 10:44:53
$end

$timescale
     1 ps
$end

$scope module SystemC $end
$scope module Control $end
$var wire    1  aaaaa  clk       $end
$var wire    1  aaaab  rst_n       $end
$var wire    1  aaaac  start_signal       $end
$upscope $end
$scope module Core0 $end
$var wire   32  aaaaf  base_addr [31:0]  $end
$var wire   32  aaaag  num_samples [31:0]  $end
$var wire    1  aaaah  start       $end
$var wire    1  aaaai  busy       $end
$scope module AXI_AR $end
$var wire    1  aaaaj  ar_val       $end
$var wire    1  aaaak  ar_rdy       $end
$var wire    4  aaaal  ar_msg_id [3:0]  $end
$var wire   32  aaaam  ar_msg_addr [31:0]  $end
$var wire    8  aaaan  ar_msg_len [7:0]  $end
$upscope $end
$scope module AXI_AW $end
$var wire    1  aaaau  aw_val       $end
$var wire    1  aaaav  aw_rdy       $end
$var wire    4  aaaaw  aw_msg_id [3:0]  $end
$var wire   32  aaaax  aw_msg_addr [31:0]  $end
$var wire    8  aaaay  aw_msg_len [7:0]  $end
$upscope $end
$scope module AXI_B $end
$var wire    1  aaabe  b_val       $end
$var wire    1  aaabf  b_rdy       $end
$var wire    4  aaabg  b_msg_id [3:0]  $end
$var wire    2  aaabh  b_msg_resp [1:0]  $end
$upscope $end
$scope module AXI_R $end
$var wire    1  aaaao  r_val       $end
$var wire    1  aaaap  r_rdy       $end
$var wire    4  aaaaq  r_msg_id [3:0]  $end
$var wire   64  aaaar  r_msg_data [63:0]  $end
$var wire    2  aaaas  r_msg_resp [1:0]  $end
$var wire    1  aaaat  r_msg_last       $end
$upscope $end
$scope module AXI_W $end
$var wire    1  aaaaz  w_val       $end
$var wire    1  aaaba  w_rdy       $end
$var wire   64  aaabb  w_msg_data [63:0]  $end
$var wire    1  aaabc  w_msg_last       $end
$var wire    8  aaabd  w_msg_wstrb [7:0]  $end
$upscope $end
$scope module Internal $end
$var wire    1  aaabi  dma_to_fft_val       $end
$var wire    1  aaabj  dma_to_fft_rdy       $end
$var real    1  aaabk  dma_to_fft_msg_real       $end
$var real    1  aaabl  dma_to_fft_msg_imag       $end
$var wire    1  aaabm  fft_to_dma_val       $end
$var wire    1  aaabn  fft_to_dma_rdy       $end
$var real    1  aaabo  fft_to_dma_msg_real       $end
$var real    1  aaabp  fft_to_dma_msg_imag       $end
$upscope $end
$upscope $end
$scope module Core1 $end
$var wire   32  aaabq  base_addr [31:0]  $end
$var wire   32  aaabr  num_samples [31:0]  $end
$var wire    1  aaabs  start       $end
$var wire    1  aaabt  busy       $end
$scope module AXI_AR $end
$var wire    1  aaabu  ar_val       $end
$var wire    1  aaabv  ar_rdy       $end
$var wire    4  aaabw  ar_msg_id [3:0]  $end
$var wire   32  aaabx  ar_msg_addr [31:0]  $end
$var wire    8  aaaby  ar_msg_len [7:0]  $end
$upscope $end
$scope module AXI_AW $end
$var wire    1  aaacf  aw_val       $end
$var wire    1  aaacg  aw_rdy       $end
$var wire    4  aaach  aw_msg_id [3:0]  $end
$var wire   32  aaaci  aw_msg_addr [31:0]  $end
$var wire    8  aaacj  aw_msg_len [7:0]  $end
$upscope $end
$scope module AXI_B $end
$var wire    1  aaacp  b_val       $end
$var wire    1  aaacq  b_rdy       $end
$var wire    4  aaacr  b_msg_id [3:0]  $end
$var wire    2  aaacs  b_msg_resp [1:0]  $end
$upscope $end
$scope module AXI_R $end
$var wire    1  aaabz  r_val       $end
$var wire    1  aaaca  r_rdy       $end
$var wire    4  aaacb  r_msg_id [3:0]  $end
$var wire   64  aaacc  r_msg_data [63:0]  $end
$var wire    2  aaacd  r_msg_resp [1:0]  $end
$var wire    1  aaace  r_msg_last       $end
$upscope $end
$scope module AXI_W $end
$var wire    1  aaack  w_val       $end
$var wire    1  aaacl  w_rdy       $end
$var wire   64  aaacm  w_msg_data [63:0]  $end
$var wire    1  aaacn  w_msg_last       $end
$var wire    8  aaaco  w_msg_wstrb [7:0]  $end
$upscope $end
$scope module Internal $end
$var wire    1  aaact  dma_to_fft_val       $end
$var wire    1  aaacu  dma_to_fft_rdy       $end
$var real    1  aaacv  dma_to_fft_msg_real       $end
$var real    1  aaacw  dma_to_fft_msg_imag       $end
$var wire    1  aaacx  fft_to_dma_val       $end
$var wire    1  aaacy  fft_to_dma_rdy       $end
$var real    1  aaacz  fft_to_dma_msg_real       $end
$var real    1  aaada  fft_to_dma_msg_imag       $end
$upscope $end
$upscope $end
$scope module Stagger $end
$var wire    1  aaaad  active       $end
$var wire   32  aaaae  counter [31:0]  $end
$upscope $end
$upscope $end
$enddefinitions  $end

$comment
All initial values are dumped below at time 0 sec = 0 timescale units.
$end

$dumpvars
1aaaaa
0aaaab
0aaaac
0aaaad
b0 aaaae
b0 aaaaf
b0 aaaag
0aaaah
0aaaai
0aaaaj
0aaaak
b0 aaaal
b0 aaaam
b0 aaaan
0aaaao
0aaaap
b0 aaaaq
b0 aaaar
b0 aaaas
0aaaat
0aaaau
0aaaav
b0 aaaaw
b0 aaaax
b0 aaaay
0aaaaz
0aaaba
b0 aaabb
0aaabc
b11111111 aaabd
0aaabe
0aaabf
b0 aaabg
b0 aaabh
0aaabi
0aaabj
r0 aaabk
r0 aaabl
0aaabm
0aaabn
r0 aaabo
r0 aaabp
b0 aaabq
b0 aaabr
0aaabs
0aaabt
0aaabu
0aaabv
b0 aaabw
b0 aaabx
b0 aaaby
0aaabz
0aaaca
b0 aaacb
b0 aaacc
b0 aaacd
0aaace
0aaacf
0aaacg
b0 aaach
b0 aaaci
b0 aaacj
0aaack
0aaacl
b0 aaacm
0aaacn
b11111111 aaaco
0aaacp
0aaacq
b0 aaacr
b0 aaacs
0aaact
0aaacu
r0 aaacv
r0 aaacw
0aaacx
0aaacy
r0 aaacz
r0 aaada
$end

#10
1aaaak
1aaaap
1aaaav
1aaaba
1aaabf
1aaabj
1aaabn
1aaabv
1aaaca
1aaacg
1aaacl
1aaacq
1aaacu
1aaacy

#500
0aaaaa

#1000
1aaaaa

#1500
0aaaaa

#2000
1aaaaa

#2500
0aaaaa

#3000
1aaaaa

#3500
0aaaaa

#4000
1aaaaa

#4500
0aaaaa

#5000
1aaaaa
1aaaab

#5500
0aaaaa

#6000
1aaaaa

#6500
0aaaaa

#7000
1aaaaa

#7500
0aaaaa

#8000
1aaaaa

#8500
0aaaaa

#9000
1aaaaa

#9500
0aaaaa

#10000
1aaaaa

#10500
0aaaaa

#11000
1aaaaa

#11500
0aaaaa

#12000
1aaaaa

#12500
0aaaaa

#13000
1aaaaa

#13500
0aaaaa

#14000
1aaaaa

#14500
0aaaaa

#15000
1aaaaa
1aaaac
1aaaad
b1 aaaae
b1000000 aaaag
1aaaah
b1000000 aaabr

#15500
0aaaaa

#16000
1aaaaa
0aaaac
b10 aaaae
0aaaah
1aaaai
b111111 aaaan
b1000 aaaax
b111111 aaaay
1aaabs

#16010
1aaaaj
1aaaau

#16500
0aaaaa

#17000
1aaaaa
b11 aaaae
b100001010101011000000000000000000101010100010111 aaaar
0aaabs
1aaabt
b111111 aaaby
b1000 aaaci
b111111 aaacj

#17010
0aaaaj
1aaaao
0aaaau
1aaabu
1aaacf

#17500
0aaaaa

#18000
1aaaaa
b100 aaaae
b10100110011101000000000000000001110011001100000 aaaar
r34134 aaabk
r21783 aaabl
b100111000101010000000000000000001000101101010001 aaacc

#18010
1aaabi
0aaabu
1aaabz
0aaacf

#18500
0aaaaa

#19000
1aaaaa
b101 aaaae
b10110011010000100000000000000000010100101111101 aaaar
r21306 aaabk
r58976 aaabl
r34134 aaabo
r21783 aaabp
b11000101110000000000000000000001010111000101111 aaacc
r40020 aaacv
r35665 aaacw

#19010
1aaabm
1aaact

#19500
0aaaaa

#20000
1aaaaa
0aaaad
b110 aaaae
b101110110110000100000000000000001011111010110011 aaaar
b100001010101011000000000000000000101010100010111 aaabb
r22945 aaabk
r10621 aaabl
r21306 aaabo
r58976 aaabp
b10011100110001000000000000000001011011100101111 aaacc
r25312 aaacv
r44591 aaacw
r40020 aaacz
r35665 aaada

#20010
1aaaaz
1aaacx

#20500
0aaaaa

#21000
1aaaaa
b10100100000010000000000000000001110111101101001 aaaar
b10100110011101000000000000000001110011001100000 aaabb
r47969 aaabk
r48819 aaabl
r22945 aaabo
r10621 aaabp
b110100001000000000000000000000000110101110111000 aaacc
b100111000101010000000000000000001000101101010001 aaacm
r20066 aaacv
r46895 aaacw
r25312 aaacz
r44591 aaada

#21010
1aaack

#21500
0aaaaa

#22000
1aaaaa
b101010001000101000000000000000000110101101111001 aaaar
b10110011010000100000000000000000010100101111101 aaabb
r20996 aaabk
r61289 aaabl
r47969 aaabo
r48819 aaabp
b110001110101100100000000000000000111101010010010 aaacc
b11000101110000000000000000000001010111000101111 aaacm
r53376 aaacv
r27576 aaacw
r20066 aaacz
r46895 aaada

#22500
0aaaaa

#23000
1aaaaa
b110110111001001000000000000000001001110100101011 aaaar
b101110110110000100000000000000001011111010110011 aaabb
r43146 aaabk
r27513 aaabl
r20996 aaabo
r61289 aaabp
b111100111101000100000000000000001011000110011000 aaacc
b10011100110001000000000000000001011011100101111 aaacm
r51033 aaacv
r31378 aaacw
r53376 aaacz
r27576 aaada

#23500
0aaaaa

#24000
1aaaaa
b100111100010001100000000000000000101111011101100 aaaar
b10100100000010000000000000000001110111101101001 aaabb
r56210 aaabk
r40235 aaabl
r43146 aaabo
r27513 aaabp
b100111111010111000000000000000001010010011000001 aaacc
b110100001000000000000000000000000110101110111000 aaacm
r62417 aaacv
r45464 aaacw
r51033 aaacz
r31378 aaada

#24500
0aaaaa

#25000
1aaaaa
b10011010010110000000000000000000110011011000110 aaaar
b101010001000101000000000000000000110101101111001 aaabb
r40483 aaabk
r24300 aaabl
r56210 aaabo
r40235 aaabp
b110000110011000100000000000000000101111100010101 aaacc
b110001110101100100000000000000000111101010010010 aaacm
r40878 aaacv
r42177 aaacw
r62417 aaacz
r45464 aaada

#25500
0aaaaa

#26000
1aaaaa
b100111001001110100000000000000000010000101100000 aaaar
b110110111001001000000000000000001001110100101011 aaabb
r19756 aaabk
r26310 aaabl
r40483 aaabo
r24300 aaabp
b100000011110011000000000000000001010100010111000 aaacc
b111100111101000100000000000000001011000110011000 aaacm
r49969 aaacv
r24341 aaacw
r40878 aaacz
r42177 aaada

#26500
0aaaaa

#27000
1aaaaa
b1111101111001100000000000000000010010100010011 aaaar
b100111100010001100000000000000000101111011101100 aaabb
r40093 aaabk
r8544 aaabl
r19756 aaabo
r26310 aaabp
b100100111111001100000000000000001001010111001010 aaacc
b100111111010111000000000000000001010010011000001 aaacm
r33254 aaacv
r43192 aaacw
r49969 aaacz
r24341 aaada

#27500
0aaaaa

#28000
1aaaaa
b110101000010101100000000000000001110010001010111 aaaar
b10011010010110000000000000000000110011011000110 aaabb
r16115 aaabk
r9491 aaabl
r40093 aaabo
r8544 aaabp
b1100000110010000000000000000001111010010111111 aaacc
b110000110011000100000000000000000101111100010101 aaacm
r37875 aaacv
r38346 aaacw
r33254 aaacz
r43192 aaada

#28500
0aaaaa

#29000
1aaaaa
b101011110010110000000000000000001100010110101000 aaaar
b100111001001110100000000000000000010000101100000 aaabb
r54315 aaabk
r58455 aaabl
r16115 aaabo
r9491 aaabp
b110110000000000000000000000001111101111000101 aaacc
b100000011110011000000000000000001010100010111000 aaacm
r12388 aaacv
r62655 aaacw
r37875 aaacz
r38346 aaada

#29500
0aaaaa

#30000
1aaaaa
b111100110101001000000000000000001010000100001100 aaaar
b1111101111001100000000000000000010010100010011 aaabb
r44844 aaabk
r50600 aaabl
r54315 aaabo
r58455 aaabp
b1001011100100000000000000000001100100010101 aaacc
b100100111111001100000000000000001001010111001010 aaacm
r6912 aaacv
r64453 aaacw
r12388 aaacz
r62655 aaada

#30500
0aaaaa

#31000
1aaaaa
b101101011010011000000000000000001100110000100100 aaaar
b110101000010101100000000000000001110010001010111 aaabb
r62290 aaabk
r41228 aaabl
r44844 aaabo
r50600 aaabp
b100110011101110100000000000000000100011010111111 aaacc
b1100000110010000000000000000001111010010111111 aaacm
r1209 aaacv
r6421 aaacw
r6912 aaacz
r64453 aaada

#31500
0aaaaa

#32000
1aaaaa
b11011000010000000000000000000100101111001010 aaaar
b101011110010110000000000000000001100010110101000 aaabb
r46502 aaabk
r52260 aaabl
r62290 aaabo
r41228 aaabp
b111011000000101100000000000000001110101101011101 aaacc
b110110000000000000000000000001111101111000101 aaacm
r39389 aaacv
r18111 aaacw
r1209 aaacz
r6421 aaada

#32500
0aaaaa

#33000
1aaaaa
b100001000011100100000000000000001000100111101000 aaaar
b111100110101001000000000000000001010000100001100 aaabb
r3460 aaabk
r19402 aaabl
r46502 aaabo
r52260 aaabp
b11110000100000100000000000000000000110010111100 aaacc
b1001011100100000000000000000001100100010101 aaacm
r60427 aaacv
r60253 aaacw
r39389 aaacz
r18111 aaada

#33500
0aaaaa

#34000
1aaaaa
b10010010111100100000000000000000000111101100010 aaaar
b101101011010011000000000000000001100110000100100 aaabb
r33849 aaabk
r35304 aaabl
r3460 aaabo
r19402 aaabp
b101011000011000100000000000000000110111100011111 aaacc
b100110011101110100000000000000000100011010111111 aaacm
r30785 aaacv
r3260 aaacw
r60427 aaacz
r60253 aaada

#34500
0aaaaa

#35000
1aaaaa
b101000111111111100000000000000000000001110100111 aaaar
b11011000010000000000000000000100101111001010 aaabb
r18809 aaabk
r3938 aaabl
r33849 aaabo
r35304 aaabp
b100100011101000100000000000000001011110101101111 aaacc
b111011000000101100000000000000001110101101011101 aaacm
r44081 aaacv
r28447 aaacw
r30785 aaacz
r3260 aaada

#35500
0aaaaa

#36000
1aaaaa
b100011101101011100000000000000000000010011100000 aaaar
b100001000011100100000000000000001000100111101000 aaabb
r41983 aaabk
r935 aaabl
r18809 aaabo
r3938 aaabp
b111111000011110100000000000000001101001111100001 aaacc
b11110000100000100000000000000000000110010111100 aaacm
r37329 aaacv
r48495 aaacw
r44081 aaacz
r28447 aaada

#36500
0aaaaa

#37000
1aaaaa
b10111011010100100000000000000000011000000110001 aaaar
b10010010111100100000000000000000000111101100010 aaabb
r36567 aaabk
r1248 aaabl
r41983 aaabo
r935 aaabp
b111011010010100100000000000000000001101111010111 aaacc
b101011000011000100000000000000000110111100011111 aaacm
r64573 aaacv
r54241 aaacw
r37329 aaacz
r48495 aaada

#37500
0aaaaa

#38000
1aaaaa
b110100111110110000000000000000000011111001011000 aaaar
b101000111111111100000000000000000000001110100111 aaabb
r23977 aaabk
r12337 aaabl
r36567 aaabo
r1248 aaabp
b11001010111000100000000000000001010111001001010 aaacc
b100100011101000100000000000000001011110101101111 aaacm
r60713 aaacv
r7127 aaacw
r64573 aaacz
r54241 aaada

#38500
0aaaaa

#39000
1aaaaa
b110000010111100100000000000000000000000110001110 aaaar
b100011101101011100000000000000000000010011100000 aaabb
r54252 aaabk
r15960 aaabl
r23977 aaabo
r12337 aaabp
b10010000110100000000000000000001110010100011001 aaacc
b111111000011110100000000000000001101001111100001 aaacm
r25969 aaacv
r44618 aaacw
r60713 aaacz
r7127 aaada

#39500
0aaaaa

#40000
1aaaaa
b11000010100100100000000000000001000011001001001 aaaar
b10111011010100100000000000000000011000000110001 aaabb
r49529 aaabk
r398 aaabl
r54252 aaabo
r15960 aaabp
b110010101100110100000000000000000010110110000111 aaacc
b111011010010100100000000000000000001101111010111 aaacm
r18536 aaacv
r58649 aaacw
r25969 aaacz
r44618 aaada

#40500
0aaaaa

#41000
1aaaaa
b100111011100011100000000000000001011000011010011 aaaar
b110100111110110000000000000000000011111001011000 aaabb
r24905 aaabk
r34377 aaabl
r49529 aaabo
r398 aaabp
b1111100001010000000000000000000111111000011101 aaacc
b11001010111000100000000000000001010111001001010 aaacm
r51917 aaacv
r11655 aaacw
r18536 aaacz
r58649 aaada

#41500
0aaaaa

#42000
1aaaaa
b111011101001000000000000000000001001111111100000 aaaar
b110000010111100100000000000000000000000110001110 aaabb
r40391 aaabk
r45267 aaabl
r24905 aaabo
r34377 aaabp
b100111010110000000000000000000000110111000010010 aaacc
b10010000110100000000000000000001110010100011001 aaacm
r15892 aaacv
r32285 aaacw
r51917 aaacz
r11655 aaada

#42500
0aaaaa

#43000
1aaaaa
b11001101000010000000000000000001010010101011100 aaaar
b11000010100100100000000000000001000011001001001 aaabb
r61072 aaabk
r40928 aaabl
r40391 aaabo
r45267 aaabp
b1011011000010100000000000000000100100000101011 aaacc
b110010101100110100000000000000000010110110000111 aaacm
r40288 aaacv
r28178 aaacw
r15892 aaacz
r32285 aaada

#43500
0aaaaa

#44000
1aaaaa
b111010010011111100000000000000000101000100010000 aaaar
b100111011100011100000000000000001011000011010011 aaabb
r26244 aaabk
r42332 aaabl
r61072 aaabo
r40928 aaabp
b110111100001010100000000000000001001100110110100 aaacc
b1111100001010000000000000000000111111000011101 aaacm
r11653 aaacv
r18475 aaacw
r40288 aaacz
r28178 aaada

#44500
0aaaaa

#45000
1aaaaa
b111011010000111100000000000000000110000101100101 aaaar
b111011101001000000000000000000001001111111100000 aaabb
r59711 aaabk
r20752 aaabl
r26244 aaabo
r42332 aaabp
b101101000000010100000000000000001101110110000001 aaacc
b100111010110000000000000000000000110111000010010 aaacm
r56853 aaacv
r39348 aaacw
r11653 aaacz
r18475 aaada

#45500
0aaaaa

#46000
1aaaaa
b101001000111101000000000000000001111000001001011 aaaar
b11001101000010000000000000000001010010101011100 aaabb
r60687 aaabk
r24933 aaabl
r59711 aaabo
r20752 aaabp
b110000001001100100000000000000001001101000101000 aaacc
b1011011000010100000000000000000100100000101011 aaacm
r46085 aaacv
r56705 aaacw
r56853 aaacz
r39348 aaada

#46500
0aaaaa

#47000
1aaaaa
b111101010101000100000000000000001011110011111111 aaaar
b111010010011111100000000000000000101000100010000 aaabb
r42106 aaabk
r61515 aaabl
r60687 aaabo
r24933 aaabp
b100111000001000000000000000000001000101001011011 aaacc
b110111100001010100000000000000001001100110110100 aaacm
r49305 aaacv
r39464 aaacw
r46085 aaacz
r56705 aaada

#47500
0aaaaa

#48000
1aaaaa
b101101110010100000000000000000101010110111001 aaaar
b111011010000111100000000000000000110000101100101 aaabb
r62801 aaabk
r48383 aaabl
r42106 aaabo
r61515 aaabp
b10000100100000000000000000000001010110110010011 aaacc
b101101000000010100000000000000001101110110000001 aaacm
r39952 aaacv
r35419 aaacw
r49305 aaacz
r39464 aaada

#48500
0aaaaa

#49000
1aaaaa
b1000100101101100000000000000001110110000001110 aaaar
b101001000111101000000000000000001111000001001011 aaabb
r5861 aaabk
r21945 aaabl
r62801 aaabo
r48383 aaabp
b110100001000100100000000000000001100101001010111 aaacc
b110000001001100100000000000000001001101000101000 aaacm
r16960 aaacv
r44435 aaacw
r39952 aaacz
r35419 aaada

#49500
0aaaaa

#50000
1aaaaa
b11100011001000100000000000000001101010001000000 aaaar
b111101010101000100000000000000001011110011111111 aaabb
r8795 aaabk
r60430 aaabl
r5861 aaabo
r21945 aaabp
b110110110001010100000000000000001101101010111001 aaacc
b100111000001000000000000000000001000101001011011 aaacm
r53385 aaacv
r51799 aaacw
r16960 aaacz
r44435 aaada

#50500
0aaaaa

#51000
1aaaaa
b101101000100000000000000000000000111001111010010 aaaar
b101101110010100000000000000000101010110111001 aaabb
r29073 aaabk
r54336 aaabl
r8795 aaabo
r60430 aaabp
b111000100101110000000000000000001100010011011110 aaacc
b10000100100000000000000000000001010110110010011 aaacm
r56085 aaacv
r55993 aaacw
r53385 aaacz
r51799 aaada

#51500
0aaaaa

#52000
1aaaaa
b101011100001101000000000000000001000101111000010 aaaar
b1000100101101100000000000000001110110000001110 aaabb
r46144 aaabk
r29650 aaabl
r29073 aaabo
r54336 aaabp
b101101001111010000000000000000001101111100100110 aaacc
b110100001000100100000000000000001100101001010111 aaacm
r57948 aaacv
r50398 aaacw
r56085 aaacz
r55993 aaada

#52500
0aaaaa

#53000
1aaaaa
b1001110001001100000000000000000000011011110100 aaaar
b11100011001000100000000000000001101010001000000 aaabb
r44570 aaabk
r35778 aaabl
r46144 aaabo
r29650 aaabp
b110111001000111100000000000000001001101010001100 aaacc
b110110110001010100000000000000001101101010111001 aaacm
r46324 aaacv
r57126 aaacw
r57948 aaacz
r50398 aaada

#53500
0aaaaa

#54000
1aaaaa
b101100010111101000000000000000000111100010001000 aaaar
b101101000100000000000000000000000111001111010010 aaabb
r10003 aaabk
r1780 aaabl
r44570 aaabo
r35778 aaabp
b101100010011111000000000000000000100000110000001 aaacc
b111000100101110000000000000000001100010011011110 aaacm
r56463 aaacv
r39564 aaacw
r46324 aaacz
r57126 aaada

#54500
0aaaaa

#55000
1aaaaa
b101111001010011100000000000000000101100011000010 aaaar
b101011100001101000000000000000001000101111000010 aaabb
r45434 aaabk
r30856 aaabl
r10003 aaabo
r1780 aaabp
b100111110000000100000000000000000001000000101111 aaacc
b101101001111010000000000000000001101111100100110 aaacm
r45374 aaacv
r16769 aaacw
r56463 aaacz
r39564 aaada

#55500
0aaaaa

#56000
1aaaaa
b111000110011010000000000000000001111011000010101 aaaar
b1001110001001100000000000000000000011011110100 aaabb
r48295 aaabk
r22722 aaabl
r45434 aaabo
r30856 aaabp
b110101100111000100000000000000001100101110110101 aaacc
b110111001000111100000000000000001001101010001100 aaacm
r40705 aaacv
r4143 aaacw
r45374 aaacz
r16769 aaada

#56500
0aaaaa

#57000
1aaaaa
b10110101101110100000000000000001101110100001111 aaaar
b101100010111101000000000000000000111100010001000 aaabb
r58164 aaabk
r62997 aaabl
r48295 aaabo
r22722 aaabp
b111111101000011000000000000000001111101110111000 aaacc
b101100010011111000000000000000000100000110000001 aaacm
r54897 aaacv
r52149 aaacw
r40705 aaacz
r4143 aaada

#57500
0aaaaa

#58000
1aaaaa
b101010011011110000000000000000000010100010000000 aaaar
b101111001010011100000000000000000101100011000010 aaabb
r23261 aaabk
r56591 aaabl
r58164 aaabo
r62997 aaabp
b1001001001010000000000000000000001101010100100 aaacc
b100111110000000100000000000000000001000000101111 aaacm
r65158 aaacv
r64440 aaacw
r54897 aaacz
r52149 aaada

#58500
0aaaaa

#59000
1aaaaa
b111110101010000000000000000000000011011111110011 aaaar
b111000110011010000000000000000001111011000010101 aaabb
r43452 aaabk
r10368 aaabl
r23261 aaabo
r56591 aaabp
b100001100000100100000000000000000101100100101111 aaacc
b110101100111000100000000000000001100101110110101 aaacm
r9364 aaacv
r6820 aaacw
r65158 aaacz
r64440 aaada

#59500
0aaaaa

#60000
1aaaaa
b11101111101010000000000000000001011010000011100 aaaar
b10110101101110100000000000000001101110100001111 aaabb
r64160 aaabk
r14323 aaabl
r43452 aaabo
r10368 aaabp
b1111010010000000000000000000110001011001101 aaacc
b111111101000011000000000000000001111101110111000 aaacm
r34313 aaacv
r22831 aaacw
r9364 aaacz
r6820 aaada

#60500
0aaaaa

#61000
1aaaaa
b100111001001000100000000000000000001011110110011 aaaar
b101010011011110000000000000000000010100010000000 aaabb
r30676 aaabk
r46108 aaabl
r64160 aaabo
r14323 aaabp
b100011001110000100000000000000000010101001111100 aaacc
b1001001001010000000000000000000001101010100100 aaacm
r1956 aaacv
r25293 aaacw
r34313 aaacz
r22831 aaada

#61500
0aaaaa

#62000
1aaaaa
b11101100011101100000000000000000101110110000101 aaaar
b111110101010000000000000000000000011011111110011 aaabb
r40081 aaabk
r6067 aaabl
r30676 aaabo
r46108 aaabp
b111100000101101000000000000000000111010010100001 aaacc
b100001100000100100000000000000000101100100101111 aaacm
r36065 aaacv
r10876 aaacw
r1956 aaacz
r25293 aaada

#62500
0aaaaa

#63000
1aaaaa
b110100001101011100000000000000001110111000101001 aaaar
b11101111101010000000000000000001011010000011100 aaabb
r30267 aaabk
r23941 aaabl
r40081 aaabo
r6067 aaabp
b101011011111011000000000000000000000111110011110 aaacc
b1111010010000000000000000000110001011001101 aaacm
r61530 aaacv
r29857 aaacw
r36065 aaacz
r10876 aaada

#63500
0aaaaa

#64000
1aaaaa
b101010000010110100000000000000000111101111000000 aaaar
b100111001001000100000000000000000001011110110011 aaabb
r53463 aaabk
r60969 aaabl
r30267 aaabo
r23941 aaabp
b11001111000011100000000000000000100111110110000 aaacc
b100011001110000100000000000000000010101001111100 aaacm
r44534 aaacv
r3998 aaacw
r61530 aaacz
r29857 aaada

#64500
0aaaaa

#65000
1aaaaa
b111101001100011100000000000000000110010100110001 aaaar
b11101100011101100000000000000000101110110000101 aaabb
r43053 aaabk
r31680 aaabl
r53463 aaabo
r60969 aaabp
b111101000001000000000000000001100111111100001 aaacc
b111100000101101000000000000000000111010010100001 aaacm
r26503 aaacv
r20400 aaacw
r44534 aaacz
r3998 aaada

#65500
0aaaaa

#66000
1aaaaa
b100110001101000000000000000000010010111000110 aaaar
b110100001101011100000000000000001110111000101001 aaabb
r62663 aaabk
r25905 aaabl
r43053 aaabo
r31680 aaabp
b100010010111011000000000000000001011010001000101 aaacc
b101011011111011000000000000000000000111110011110 aaacm
r7810 aaacv
r53217 aaacw
r26503 aaacz
r20400 aaada

#66500
0aaaaa

#67000
1aaaaa
b1101010011110000000000000000000001111111010101 aaaar
b101010000010110100000000000000000111101111000000 aaabb
r4890 aaabk
r9670 aaabl
r62663 aaabo
r25905 aaabp
b11010011111111000000000000000001101010100101011 aaacc
b11001111000011100000000000000000100111110110000 aaacm
r35190 aaacv
r46149 aaacw
r7810 aaacz
r53217 aaada

#67500
0aaaaa

#68000
1aaaaa
b110000010101000000000000000001110010001100101 aaaar
b111101001100011100000000000000000110010100110001 aaabb
r13628 aaabk
r8149 aaabl
r4890 aaabo
r9670 aaabp
b100001101110011000000000000000001000010110111100 aaacc
b111101000001000000000000000001100111111100001 aaacm
r27134 aaacv
r54571 aaacw
r35190 aaacz
r46149 aaada

#68500
0aaaaa

#69000
1aaaaa
b10001010001000000000000000001101100110000011 aaaar
b100110001101000000000000000000010010111000110 aaabb
r6186 aaabk
r58469 aaabl
r13628 aaabo
r8149 aaabp
b101100110011011000000000000000001100100110100101 aaacc
b100010010111011000000000000000001011010001000101 aaacm
r34534 aaacv
r34236 aaacw
r27134 aaacz
r54571 aaada

#69500
0aaaaa

#70000
1aaaaa
b110011011110001000000000000000001010001000010111 aaaar
b1101010011110000000000000000000001111111010101 aaabb
r2210 aaabk
r55683 aaabl
r6186 aaabo
r58469 aaabp
b111111010101110000000000000000000101001100001000 aaacc
b11010011111111000000000000000001101010100101011 aaacm
r45878 aaacv
r51621 aaacw
r34534 aaacz
r34236 aaada

#70500
0aaaaa

#71000
1aaaaa
b11110010011111100000000000000001001101111111010 aaaar
b110000010101000000000000000001110010001100101 aaabb
r52706 aaabk
r41495 aaabl
r2210 aaabo
r55683 aaabp
b1001100100110000000000000000001000100111001110 aaacc
b100001101110011000000000000000001000010110111100 aaacm
r64860 aaacv
r21256 aaacw
r45878 aaacz
r51621 aaada

#71500
0aaaaa

#72000
1aaaaa
b110010100100000100000000000000001111100111100110 aaaar
b10001010001000000000000000001101100110000011 aaabb
r31039 aaabk
r39930 aaabl
r52706 aaabo
r41495 aaabp
b101101000100101000000000000000001100001000110111 aaacc
b101100110011011000000000000000001100100110100101 aaacm
r9804 aaacv
r35278 aaacw
r64860 aaacz
r21256 aaada

#72500
0aaaaa

#73000
1aaaaa
b11011011001000000000000000000001001001011010 aaaar
b110011011110001000000000000000001010001000010111 aaabb
r51777 aaabk
r63974 aaabl
r31039 aaabo
r39930 aaabp
b111000000000110000000000000000001101001011101000 aaacc
b111111010101110000000000000000000101001100001000 aaacm
r46154 aaacv
r49719 aaacw
r9804 aaacz
r35278 aaada

#73500
0aaaaa

#74000
1aaaaa
b110110111111010000000000000000000000011110100111 aaaar
b11110010011111100000000000000001001101111111010 aaabb
r3506 aaabk
r4698 aaabl
r51777 aaabo
r63974 aaabp
b1000011101111000000000000000000000001110111100 aaacc
b1001100100110000000000000000001000100111001110 aaacm
r57356 aaacv
r53992 aaacw
r46154 aaacz
r49719 aaada

#74500
0aaaaa

#75000
1aaaaa
b100100100011100000000000000001110001101001010 aaaar
b110010100100000100000000000000001111100111100110 aaabb
r56308 aaabk
r1959 aaabl
r3506 aaabo
r4698 aaabp
b11001011011101100000000000000000001101000111010 aaacc
b101101000100101000000000000000001100001000110111 aaacm
r8670 aaacv
r956 aaacw
r57356 aaacz
r53992 aaada

#75500
0aaaaa

#76000
1aaaaa
b10101100111000100000000000000000010110111011101 aaaar
b11011011001000000000000000000001001001011010 aaabb
r4679 aaabk
r58186 aaabl
r56308 aaabo
r1959 aaabp
b111100101101111000000000000000000001101100101001 aaacc
b111000000000110000000000000000001101001011101000 aaacm
r26043 aaacv
r6714 aaacw
r8670 aaacz
r956 aaada

#76500
0aaaaa

#77000
1aaaaa
b111011000101100000000000000001101010101100111 aaaar
b110110111111010000000000000000000000011110100111 aaabb
r22129 aaabk
r11741 aaabl
r4679 aaabo
r58186 aaabp
b10001010101000000000000000000000001001110110100 aaacc
b1000011101111000000000000000000000001110111100 aaacm
r62174 aaacv
r6953 aaacw
r26043 aaacz
r6714 aaada

#77500
0aaaaa

#78000
1aaaaa
b110001011100011000000000000000000100100010111010 aaaar
b100100100011100000000000000001110001101001010 aaabb
r7563 aaabk
r54631 aaabl
r22129 aaabo
r11741 aaabp
b111000011101000000000000000000000001111001110010 aaacc
b11001011011101100000000000000000001101000111010 aaacm
r17744 aaacv
r5044 aaacw
r62174 aaacz
r6953 aaada

#78500
0aaaaa

#79000
1aaaaa
b100110111010101000000000000000000001000100011000 aaaar
b10101100111000100000000000000000010110111011101 aaabb
r50630 aaabk
r18618 aaabl
r7563 aaabo
r54631 aaabp
b10010101111110100000000000000000111010101111101 aaacc
b111100101101111000000000000000000001101100101001 aaacm
r57808 aaacv
r7794 aaacw
r17744 aaacz
r5044 aaada

