out/sweep/trace_N256_M4_A4.vcd
$date
     Jul 10, 2026       18:53:17
$end

$version
 SystemC 2.3.3-Accellera --- Jun 25 2026 10:44:53
$end

$timescale
     1 ps
$end

$scope module SystemC $end
$scope module Control $end
$var wire    1  aaaaa  clk       $end
$var wire    1  aaaab  rst_n       $end
$var wire    1  aaaac  start_signal       $end
$upscope $end
$scope module Core0 $end
$var wire   32  aaaaf  base_addr [31:0]  $end
$var wire   32  aaaag  num_samples [31:0]  $end
$var wire    1  aaaah  start       $end
$var wire    1  aaaai  busy       $end
$scope module AXI_AR $end
$var wire    1  aaaaj  ar_val       $end
$var wire    1  aaaak  ar_rdy       $end
$var wire    4  aaaal  ar_msg_id [3:0]  $end
$var wire   32  aaaam  ar_msg_addr [31:0]  $end
$var wire    8  aaaan  ar_msg_len [7:0]  $end
$upscope $end
$scope module AXI_AW $end
$var wire    1  aaaau  aw_val       $end
$var wire    1  aaaav  aw_rdy       $end
$var wire    4  aaaaw  aw_msg_id [3:0]  $end
$var wire   32  aaaax  aw_msg_addr [31:0]  $end
$var wire    8  aaaay  aw_msg_len [7:0]  $end
$upscope $end
$scope module AXI_B $end
$var wire    1  aaabe  b_val       $end
$var wire    1  aaabf  b_rdy       $end
$var wire    4  aaabg  b_msg_id [3:0]  $end
$var wire    2  aaabh  b_msg_resp [1:0]  $end
$upscope $end
$scope module AXI_R $end
$var wire    1  aaaao  r_val       $end
$var wire    1  aaaap  r_rdy       $end
$var wire    4  aaaaq  r_msg_id [3:0]  $end
$var wire   64  aaaar  r_msg_data [63:0]  $end
$var wire    2  aaaas  r_msg_resp [1:0]  $end
$var wire    1  aaaat  r_msg_last       $end
$upscope $end
$scope module AXI_W $end
$var wire    1  aaaaz  w_val       $end
$var wire    1  aaaba  w_rdy       $end
$var wire   64  aaabb  w_msg_data [63:0]  $end
$var wire    1  aaabc  w_msg_last       $end
$var wire    8  aaabd  w_msg_wstrb [7:0]  $end
$upscope $end
$scope module Internal $end
$var wire    1  aaabi  dma_to_fft_val       $end
$var wire    1  aaabj  dma_to_fft_rdy       $end
$var real    1  aaabk  dma_to_fft_msg_real       $end
$var real    1  aaabl  dma_to_fft_msg_imag       $end
$var wire    1  aaabm  fft_to_dma_val       $end
$var wire    1  aaabn  fft_to_dma_rdy       $end
$var real    1  aaabo  fft_to_dma_msg_real       $end
$var real    1  aaabp  fft_to_dma_msg_imag       $end
$upscope $end
$upscope $end
$scope module Stagger $end
$var wire    1  aaaad  active       $end
$var wire   32  aaaae  counter [31:0]  $end
$upscope $end
$upscope $end
$enddefinitions  $end

$comment
All initial values are dumped below at time 0 sec = 0 timescale units.
$end

$dumpvars
1aaaaa
0aaaab
0aaaac
0aaaad
b0 aaaae
b0 aaaaf
b0 aaaag
0aaaah
0aaaai
0aaaaj
0aaaak
b0 aaaal
b0 aaaam
b0 aaaan
0aaaao
0aaaap
b0 aaaaq
b0 aaaar
b0 aaaas
0aaaat
0aaaau
0aaaav
b0 aaaaw
b0 aaaax
b0 aaaay
0aaaaz
0aaaba
b0 aaabb
0aaabc
b11111111 aaabd
0aaabe
0aaabf
b0 aaabg
b0 aaabh
0aaabi
0aaabj
r0 aaabk
r0 aaabl
0aaabm
0aaabn
r0 aaabo
r0 aaabp
$end

#10
1aaaak
1aaaap
1aaaav
1aaaba
1aaabf
1aaabj
1aaabn

#500
0aaaaa

#1000
1aaaaa

#1500
0aaaaa

#2000
1aaaaa

#2500
0aaaaa

#3000
1aaaaa

#3500
0aaaaa

#4000
1aaaaa

#4500
0aaaaa

#5000
1aaaaa
1aaaab

#5500
0aaaaa

#6000
1aaaaa

#6500
0aaaaa

#7000
1aaaaa

#7500
0aaaaa

#8000
1aaaaa

#8500
0aaaaa

#9000
1aaaaa

#9500
0aaaaa

#10000
1aaaaa

#10500
0aaaaa

#11000
1aaaaa

#11500
0aaaaa

#12000
1aaaaa

#12500
0aaaaa

#13000
1aaaaa

#13500
0aaaaa

#14000
1aaaaa

#14500
0aaaaa

#15000
1aaaaa
1aaaac
1aaaad
b1 aaaae
b1000000000000 aaaag
1aaaah

#15500
0aaaaa

#16000
1aaaaa
0aaaac
b10 aaaae
0aaaah
1aaaai
b11111111 aaaan
b100000000000 aaaax
b11111111 aaaay

#16010
1aaaaj
1aaaau

#16500
0aaaaa

#17000
1aaaaa
b11 aaaae
b100000000000 aaaam
b100001010101011000000000000000000101010100010111 aaaar

#17010
1aaaao
0aaaau

#17500
0aaaaa

#18000
1aaaaa
b100 aaaae
b1000000000000 aaaam
b10100110011101000000000000000001110011001100000 aaaar
r34134 aaabk
r21783 aaabl

#18010
1aaabi

#18500
0aaaaa

#19000
1aaaaa
0aaaad
b101 aaaae
b1100000000000 aaaam
b10110011010000100000000000000000010100101111101 aaaar
r21306 aaabk
r58976 aaabl

#19500
0aaaaa

#20000
1aaaaa
b10000000000000 aaaam
b101110110110000100000000000000001011111010110011 aaaar
r22945 aaabk
r10621 aaabl

#20500
0aaaaa

#21000
1aaaaa
b10100000000000 aaaam
b10100100000010000000000000000001110111101101001 aaaar
r47969 aaabk
r48819 aaabl

#21500
0aaaaa

#22000
1aaaaa
b11000000000000 aaaam
b101010001000101000000000000000000110101101111001 aaaar
r20996 aaabk
r61289 aaabl

#22500
0aaaaa

#23000
1aaaaa
b11100000000000 aaaam
b110110111001001000000000000000001001110100101011 aaaar
r43146 aaabk
r27513 aaabl

#23500
0aaaaa

#24000
1aaaaa
b100000000000000 aaaam
b100111100010001100000000000000000101111011101100 aaaar
r56210 aaabk
r40235 aaabl

#24500
0aaaaa

#25000
1aaaaa
b100100000000000 aaaam
b10011010010110000000000000000000110011011000110 aaaar
r40483 aaabk
r24300 aaabl

#25500
0aaaaa

#26000
1aaaaa
b101000000000000 aaaam
b100111001001110100000000000000000010000101100000 aaaar
r19756 aaabk
r26310 aaabl

#26500
0aaaaa

#27000
1aaaaa
b101100000000000 aaaam
b1111101111001100000000000000000010010100010011 aaaar
r40093 aaabk
r8544 aaabl

#27500
0aaaaa

#28000
1aaaaa
b110000000000000 aaaam
b110101000010101100000000000000001110010001010111 aaaar
r16115 aaabk
r9491 aaabl

#28500
0aaaaa

#29000
1aaaaa
b110100000000000 aaaam
b101011110010110000000000000000001100010110101000 aaaar
r54315 aaabk
r58455 aaabl

#29500
0aaaaa

#30000
1aaaaa
b111000000000000 aaaam
b111100110101001000000000000000001010000100001100 aaaar
r44844 aaabk
r50600 aaabl

#30500
0aaaaa

#31000
1aaaaa
b111100000000000 aaaam
b101101011010011000000000000000001100110000100100 aaaar
r62290 aaabk
r41228 aaabl

#31500
0aaaaa

#32000
1aaaaa
b11011000010000000000000000000100101111001010 aaaar
r46502 aaabk
r52260 aaabl

#32010
0aaaaj

#32500
0aaaaa

#33000
1aaaaa
b100001000011100100000000000000001000100111101000 aaaar
r3460 aaabk
r19402 aaabl

#33500
0aaaaa

#34000
1aaaaa
b10010010111100100000000000000000000111101100010 aaaar
r33849 aaabk
r35304 aaabl

#34500
0aaaaa

#35000
1aaaaa
b101000111111111100000000000000000000001110100111 aaaar
r18809 aaabk
r3938 aaabl

#35500
0aaaaa

#36000
1aaaaa
b100011101101011100000000000000000000010011100000 aaaar
r41983 aaabk
r935 aaabl

#36500
0aaaaa

#37000
1aaaaa
b10111011010100100000000000000000011000000110001 aaaar
r36567 aaabk
r1248 aaabl

#37500
0aaaaa

#38000
1aaaaa
b110100111110110000000000000000000011111001011000 aaaar
r23977 aaabk
r12337 aaabl

#38500
0aaaaa

#39000
1aaaaa
b110000010111100100000000000000000000000110001110 aaaar
r54252 aaabk
r15960 aaabl

#39500
0aaaaa

#40000
1aaaaa
b11000010100100100000000000000001000011001001001 aaaar
r49529 aaabk
r398 aaabl

#40500
0aaaaa

#41000
1aaaaa
b100111011100011100000000000000001011000011010011 aaaar
r24905 aaabk
r34377 aaabl

#41500
0aaaaa

#42000
1aaaaa
b111011101001000000000000000000001001111111100000 aaaar
r40391 aaabk
r45267 aaabl

#42500
0aaaaa

#43000
1aaaaa
b11001101000010000000000000000001010010101011100 aaaar
r61072 aaabk
r40928 aaabl

#43500
0aaaaa

#44000
1aaaaa
b111010010011111100000000000000000101000100010000 aaaar
r26244 aaabk
r42332 aaabl

#44500
0aaaaa

#45000
1aaaaa
b111011010000111100000000000000000110000101100101 aaaar
r59711 aaabk
r20752 aaabl

#45500
0aaaaa

#46000
1aaaaa
b101001000111101000000000000000001111000001001011 aaaar
r60687 aaabk
r24933 aaabl

#46500
0aaaaa

#47000
1aaaaa
b111101010101000100000000000000001011110011111111 aaaar
r42106 aaabk
r61515 aaabl

#47500
0aaaaa

#48000
1aaaaa
b101101110010100000000000000000101010110111001 aaaar
r62801 aaabk
r48383 aaabl

#48500
0aaaaa

#49000
1aaaaa
b1000100101101100000000000000001110110000001110 aaaar
r5861 aaabk
r21945 aaabl

#49500
0aaaaa

#50000
1aaaaa
b11100011001000100000000000000001101010001000000 aaaar
r8795 aaabk
r60430 aaabl

#50500
0aaaaa

#51000
1aaaaa
b101101000100000000000000000000000111001111010010 aaaar
r29073 aaabk
r54336 aaabl

#51500
0aaaaa

#52000
1aaaaa
b101011100001101000000000000000001000101111000010 aaaar
r46144 aaabk
r29650 aaabl

#52500
0aaaaa

#53000
1aaaaa
b1001110001001100000000000000000000011011110100 aaaar
r44570 aaabk
r35778 aaabl

#53500
0aaaaa

#54000
1aaaaa
b101100010111101000000000000000000111100010001000 aaaar
r10003 aaabk
r1780 aaabl

#54500
0aaaaa

#55000
1aaaaa
b101111001010011100000000000000000101100011000010 aaaar
r45434 aaabk
r30856 aaabl

#55500
0aaaaa

#56000
1aaaaa
b111000110011010000000000000000001111011000010101 aaaar
r48295 aaabk
r22722 aaabl

#56500
0aaaaa

#57000
1aaaaa
b10110101101110100000000000000001101110100001111 aaaar
r58164 aaabk
r62997 aaabl

#57500
0aaaaa

#58000
1aaaaa
b101010011011110000000000000000000010100010000000 aaaar
r23261 aaabk
r56591 aaabl

#58500
0aaaaa

#59000
1aaaaa
b111110101010000000000000000000000011011111110011 aaaar
r43452 aaabk
r10368 aaabl

#59500
0aaaaa

#60000
1aaaaa
b11101111101010000000000000000001011010000011100 aaaar
r64160 aaabk
r14323 aaabl

#60500
0aaaaa

#61000
1aaaaa
b100111001001000100000000000000000001011110110011 aaaar
r30676 aaabk
r46108 aaabl

#61500
0aaaaa

#62000
1aaaaa
b11101100011101100000000000000000101110110000101 aaaar
r40081 aaabk
r6067 aaabl

#62500
0aaaaa

#63000
1aaaaa
b110100001101011100000000000000001110111000101001 aaaar
r30267 aaabk
r23941 aaabl

#63500
0aaaaa

#64000
1aaaaa
b101010000010110100000000000000000111101111000000 aaaar
r53463 aaabk
r60969 aaabl

#64500
0aaaaa

#65000
1aaaaa
b111101001100011100000000000000000110010100110001 aaaar
r43053 aaabk
r31680 aaabl

#65500
0aaaaa

#66000
1aaaaa
b100110001101000000000000000000010010111000110 aaaar
r62663 aaabk
r25905 aaabl

#66500
0aaaaa

#67000
1aaaaa
b1101010011110000000000000000000001111111010101 aaaar
r4890 aaabk
r9670 aaabl

#67500
0aaaaa

#68000
1aaaaa
b110000010101000000000000000001110010001100101 aaaar
r13628 aaabk
r8149 aaabl

#68500
0aaaaa

#69000
1aaaaa
b10001010001000000000000000001101100110000011 aaaar
r6186 aaabk
r58469 aaabl

#69500
0aaaaa

#70000
1aaaaa
b110011011110001000000000000000001010001000010111 aaaar
r2210 aaabk
r55683 aaabl

#70500
0aaaaa

#71000
1aaaaa
b11110010011111100000000000000001001101111111010 aaaar
r52706 aaabk
r41495 aaabl

#71500
0aaaaa

#72000
1aaaaa
b110010100100000100000000000000001111100111100110 aaaar
r31039 aaabk
r39930 aaabl

#72500
0aaaaa

#73000
1aaaaa
b11011011001000000000000000000001001001011010 aaaar
r51777 aaabk
r63974 aaabl

#73500
0aaaaa

#74000
1aaaaa
b110110111111010000000000000000000000011110100111 aaaar
r3506 aaabk
r4698 aaabl

#74500
0aaaaa

#75000
1aaaaa
b100100100011100000000000000001110001101001010 aaaar
r56308 aaabk
r1959 aaabl

#75500
0aaaaa

#76000
1aaaaa
b10101100111000100000000000000000010110111011101 aaaar
r4679 aaabk
r58186 aaabl

#76500
0aaaaa

#77000
1aaaaa
b111011000101100000000000000001101010101100111 aaaar
r22129 aaabk
r11741 aaabl

#77500
0aaaaa

#78000
1aaaaa
b110001011100011000000000000000000100100010111010 aaaar
r7563 aaabk
r54631 aaabl

#78500
0aaaaa

#79000
1aaaaa
b100110111010101000000000000000000001000100011000 aaaar
r50630 aaabk
r18618 aaabl

#79500
0aaaaa

#80000
1aaaaa
b111110101001100000000000000000001101001100100010 aaaar
r39850 aaabk
r4376 aaabl

#80500
0aaaaa

#81000
1aaaaa
b100111000101010000000000000000001000101101010001 aaaar
r64152 aaabk
r54050 aaabl

#81500
0aaaaa

#82000
1aaaaa
b11000101110000000000000000000001010111000101111 aaaar
r40020 aaabk
r35665 aaabl

#82500
0aaaaa

#83000
1aaaaa
b10011100110001000000000000000001011011100101111 aaaar
r25312 aaabk
r44591 aaabl

#83500
0aaaaa

#84000
1aaaaa
b110100001000000000000000000000000110101110111000 aaaar
r20066 aaabk
r46895 aaabl

#84500
0aaaaa

#85000
1aaaaa
b110001110101100100000000000000000111101010010010 aaaar
r53376 aaabk
r27576 aaabl

#85500
0aaaaa

#86000
1aaaaa
b111100111101000100000000000000001011000110011000 aaaar
r51033 aaabk
r31378 aaabl

#86500
0aaaaa

#87000
1aaaaa
b100111111010111000000000000000001010010011000001 aaaar
r62417 aaabk
r45464 aaabl

#87500
0aaaaa

#88000
1aaaaa
b110000110011000100000000000000000101111100010101 aaaar
r40878 aaabk
r42177 aaabl

#88500
0aaaaa

#89000
1aaaaa
b100000011110011000000000000000001010100010111000 aaaar
r49969 aaabk
r24341 aaabl

#89500
0aaaaa

#90000
1aaaaa
b100100111111001100000000000000001001010111001010 aaaar
r33254 aaabk
r43192 aaabl

#90500
0aaaaa

#91000
1aaaaa
b1100000110010000000000000000001111010010111111 aaaar
r37875 aaabk
r38346 aaabl

#91500
0aaaaa

#92000
1aaaaa
b110110000000000000000000000001111101111000101 aaaar
r12388 aaabk
r62655 aaabl

#92500
0aaaaa

#93000
1aaaaa
b1001011100100000000000000000001100100010101 aaaar
r6912 aaabk
r64453 aaabl

#93500
0aaaaa

#94000
1aaaaa
b100110011101110100000000000000000100011010111111 aaaar
r1209 aaabk
r6421 aaabl

#94500
0aaaaa

#95000
1aaaaa
b111011000000101100000000000000001110101101011101 aaaar
r39389 aaabk
r18111 aaabl

#95500
0aaaaa

#96000
1aaaaa
b11110000100000100000000000000000000110010111100 aaaar
r60427 aaabk
r60253 aaabl

#96500
0aaaaa

#97000
1aaaaa
b101011000011000100000000000000000110111100011111 aaaar
r30785 aaabk
r3260 aaabl

#97500
0aaaaa

#98000
1aaaaa
b100100011101000100000000000000001011110101101111 aaaar
r44081 aaabk
r28447 aaabl

#98500
0aaaaa

#99000
1aaaaa
b111111000011110100000000000000001101001111100001 aaaar
r37329 aaabk
r48495 aaabl

#99500
0aaaaa

#100000
1aaaaa
b111011010010100100000000000000000001101111010111 aaaar
r64573 aaabk
r54241 aaabl

#100500
0aaaaa

#101000
1aaaaa
b11001010111000100000000000000001010111001001010 aaaar
r60713 aaabk
r7127 aaabl

#101500
0aaaaa

#102000
1aaaaa
b10010000110100000000000000000001110010100011001 aaaar
r25969 aaabk
r44618 aaabl

#102500
0aaaaa

#103000
1aaaaa
b110010101100110100000000000000000010110110000111 aaaar
r18536 aaabk
r58649 aaabl

#103500
0aaaaa

#104000
1aaaaa
b1111100001010000000000000000000111111000011101 aaaar
r51917 aaabk
r11655 aaabl

#104500
0aaaaa

#105000
1aaaaa
b100111010110000000000000000000000110111000010010 aaaar
r15892 aaabk
r32285 aaabl

#105500
0aaaaa

#106000
1aaaaa
b1011011000010100000000000000000100100000101011 aaaar
r40288 aaabk
r28178 aaabl

#106500
0aaaaa

#107000
1aaaaa
b110111100001010100000000000000001001100110110100 aaaar
r11653 aaabk
r18475 aaabl

#107500
0aaaaa

#108000
1aaaaa
b101101000000010100000000000000001101110110000001 aaaar
r56853 aaabk
r39348 aaabl

#108500
0aaaaa

#109000
1aaaaa
b110000001001100100000000000000001001101000101000 aaaar
r46085 aaabk
r56705 aaabl

#109500
0aaaaa

#110000
1aaaaa
b100111000001000000000000000000001000101001011011 aaaar
r49305 aaabk
r39464 aaabl

#110500
0aaaaa

#111000
1aaaaa
b10000100100000000000000000000001010110110010011 aaaar
r39952 aaabk
r35419 aaabl

#111500
0aaaaa

#112000
1aaaaa
b110100001000100100000000000000001100101001010111 aaaar
r16960 aaabk
r44435 aaabl

#112500
0aaaaa

#113000
1aaaaa
b110110110001010100000000000000001101101010111001 aaaar
r53385 aaabk
r51799 aaabl

#113500
0aaaaa

#114000
1aaaaa
b111000100101110000000000000000001100010011011110 aaaar
r56085 aaabk
r55993 aaabl

#114500
0aaaaa

#115000
1aaaaa
b101101001111010000000000000000001101111100100110 aaaar
r57948 aaabk
r50398 aaabl

#115500
0aaaaa

#116000
1aaaaa
b110111001000111100000000000000001001101010001100 aaaar
r46324 aaabk
r57126 aaabl

#116500
0aaaaa

#117000
1aaaaa
b101100010011111000000000000000000100000110000001 aaaar
r56463 aaabk
r39564 aaabl

#117500
0aaaaa

#118000
1aaaaa
b100111110000000100000000000000000001000000101111 aaaar
r45374 aaabk
r16769 aaabl

#118500
0aaaaa

#119000
1aaaaa
b110101100111000100000000000000001100101110110101 aaaar
r40705 aaabk
r4143 aaabl

#119500
0aaaaa

#120000
1aaaaa
b111111101000011000000000000000001111101110111000 aaaar
r54897 aaabk
r52149 aaabl

#120500
0aaaaa

#121000
1aaaaa
b1001001001010000000000000000000001101010100100 aaaar
r65158 aaabk
r64440 aaabl

#121500
0aaaaa

#122000
1aaaaa
b100001100000100100000000000000000101100100101111 aaaar
r9364 aaabk
r6820 aaabl

#122500
0aaaaa

#123000
1aaaaa
b1111010010000000000000000000110001011001101 aaaar
r34313 aaabk
r22831 aaabl

#123500
0aaaaa

#124000
1aaaaa
b100011001110000100000000000000000010101001111100 aaaar
r1956 aaabk
r25293 aaabl

#124500
0aaaaa

#125000
1aaaaa
b111100000101101000000000000000000111010010100001 aaaar
r36065 aaabk
r10876 aaabl

#125500
0aaaaa

#126000
1aaaaa
b101011011111011000000000000000000000111110011110 aaaar
r61530 aaabk
r29857 aaabl

#126500
0aaaaa

#127000
1aaaaa
b11001111000011100000000000000000100111110110000 aaaar
r44534 aaabk
r3998 aaabl

#127500
0aaaaa

#128000
1aaaaa
b111101000001000000000000000001100111111100001 aaaar
r26503 aaabk
r20400 aaabl

#128500
0aaaaa

#129000
1aaaaa
b100010010111011000000000000000001011010001000101 aaaar
r7810 aaabk
r53217 aaabl

#129500
0aaaaa

#130000
1aaaaa
b11010011111111000000000000000001101010100101011 aaaar
r35190 aaabk
r46149 aaabl

#130500
0aaaaa

#131000
1aaaaa
b100001101110011000000000000000001000010110111100 aaaar
r27134 aaabk
r54571 aaabl

#131500
0aaaaa

#132000
1aaaaa
b101100110011011000000000000000001100100110100101 aaaar
r34534 aaabk
r34236 aaabl

#132500
0aaaaa

#133000
1aaaaa
b111111010101110000000000000000000101001100001000 aaaar
r45878 aaabk
r51621 aaabl

#133500
0aaaaa

#134000
1aaaaa
b1001100100110000000000000000001000100111001110 aaaar
r64860 aaabk
r21256 aaabl

#134500
0aaaaa

#135000
1aaaaa
b101101000100101000000000000000001100001000110111 aaaar
r9804 aaabk
r35278 aaabl

#135500
0aaaaa

#136000
1aaaaa
b111000000000110000000000000000001101001011101000 aaaar
r46154 aaabk
r49719 aaabl

#136500
0aaaaa

#137000
1aaaaa
b1000011101111000000000000000000000001110111100 aaaar
r57356 aaabk
r53992 aaabl

#137500
0aaaaa

#138000
1aaaaa
b11001011011101100000000000000000001101000111010 aaaar
r8670 aaabk
r956 aaabl

#138500
0aaaaa

#139000
1aaaaa
b111100101101111000000000000000000001101100101001 aaaar
r26043 aaabk
r6714 aaabl

#139500
0aaaaa

#140000
1aaaaa
b10001010101000000000000000000000001001110110100 aaaar
r62174 aaabk
r6953 aaabl

#140500
0aaaaa

#141000
1aaaaa
b111000011101000000000000000000000001111001110010 aaaar
r17744 aaabk
r5044 aaabl

#141500
0aaaaa

#142000
1aaaaa
b10010101111110100000000000000000111010101111101 aaaar
r57808 aaabk
r7794 aaabl

#142500
0aaaaa

#143000
1aaaaa
b111011000011110000000000000000000100101010100011 aaaar
r19197 aaabk
r30077 aaabl

#143500
0aaaaa

#144000
1aaaaa
b1110101000000000000000000101010010001111 aaaar
r60476 aaabk
r19107 aaabl

#144500
0aaaaa

#145000
1aaaaa
b100100010000011000000000000000001110001110100011 aaaar
r234 aaabk
r21647 aaabl

#145500
0aaaaa

#146000
1aaaaa
b10000110101110000000000000000000100101001001100 aaaar
r37126 aaabk
r58275 aaabl

#146500
0aaaaa

#147000
1aaaaa
b1000010010011100000000000000001100110000010100 aaaar
r17244 aaabk
r19020 aaabl

#147500
0aaaaa

#148000
1aaaaa
b111001001000100100000000000000000001111100010100 aaaar
r8487 aaabk
r52244 aaabl

#148010
0aaabj

#148500
0aaaaa

#149000
1aaaaa
b1101101101101100000000000000001010000001100111 aaaar

#149010
1aaabj

#149500
0aaaaa

#150000
1aaaaa
b111011000010100000000000000001110100001010011 aaaar
r58505 aaabk
r7956 aaabl

#150010
0aaabj

#150500
0aaaaa

#151000
1aaaaa
b100111000011011100000000000000000110011010101110 aaaar

#151010
0aaaap
1aaabj

#151500
0aaaaa

#152000
1aaaaa
r14043 aaabk
r41063 aaabl

#152010
1aaaap
0aaabj

#152500
0aaaaa

#153000
1aaaaa
b101101111111110000000000000000001110101001000000 aaaar

#153010
0aaaap
1aaabj

#153500
0aaaaa

#154000
1aaaaa
r7557 aaabk
r59475 aaabl

#154010
1aaaap
0aaabj

#154500
0aaaaa

#155000
1aaaaa
b11111010110111100000000000000001101001110111011 aaaar

#155010
0aaaap
1aaabj

#155500
0aaaaa

#156000
1aaaaa
r39991 aaabk
r26286 aaabl

#156010
1aaaap
0aaabj

#156500
0aaaaa

#157000
1aaaaa
b101011001011000000000000000001111000001101100 aaaar

#157010
0aaaap
1aaabj

#157500
0aaaaa

#158000
1aaaaa
r47100 aaabk
r59968 aaabl

#158010
1aaaap
0aaabj

#158500
0aaaaa

#159000
1aaaaa
b111101011111000000000000000000111000000001100 aaaar

#159010
0aaaap
1aaabj

#159500
0aaaaa

#160000
1aaaaa
r32111 aaabk
r54203 aaabl

#160010
1aaaap
0aaabj

#160500
0aaaaa

#161000
1aaaaa
b101110000010000100000000000000000101010111101001 aaaar

#161010
0aaaap
1aaabj

#161500
0aaaaa

#162000
1aaaaa
r5526 aaabk
r61548 aaabl

#162010
1aaaap
0aaabj

#162500
0aaaaa

#163000
1aaaaa
b10011111011100000000000000001110111110000001 aaaar

#163010
0aaaap
1aaabj

#163500
0aaaaa

#164000
1aaaaa
r7870 aaabk
r28684 aaabl

#164010
1aaaap
0aaabj

#164500
0aaaaa

#165000
1aaaaa
b10001000111010100000000000000000000001101100110 aaaar

#165010
0aaaap
1aaabj

#165500
0aaaaa

#166000
1aaaaa
r47137 aaabk
r21993 aaabl

#166010
1aaaap
0aaabj

#166500
0aaaaa

#167000
1aaaaa
b11010111111001100000000000000000001100010010001 aaaar

#167010
0aaaap
1aaabj

#167500
0aaaaa

#168000
1aaaaa
r2551 aaabk
r61313 aaabl

#168010
1aaaap
0aaabj

#168500
0aaaaa

#169000
1aaaaa
b100010110110101100000000000000001101100111111111 aaaar

#169010
0aaaap
1aaabj

#169500
0aaaaa

#170000
1aaaaa
r17525 aaabk
r870 aaabl

#170010
1aaaap
0aaabj

#170500
0aaaaa

#171000
1aaaaa
b10111010101111000000000000000000010011101100010 aaaar

#171010
0aaaap
1aaabj

#171500
0aaaaa

#172000
1aaaaa
r27635 aaabk
r6289 aaabl

#172010
1aaaap
0aaabj

#172500
0aaaaa

#173000
1aaaaa
b1010110101100000000000000001010010100010101 aaaar

#173010
0aaaap
1aaabj

#173500
0aaaaa

#174000
1aaaaa
r35691 aaabk
r55807 aaabl

#174010
1aaaap
0aaabj

#174500
0aaaaa

#175000
1aaaaa
b1111000001000000000000000000001010111000000101 aaaar

#175010
0aaaap
1aaabj

#175500
0aaaaa

#176000
1aaaaa
r23902 aaabk
r10082 aaabl

#176010
1aaaap
0aaabj

#176500
0aaaaa

#177000
1aaaaa
b100110110011010000000000000000001000110001101010 aaaar

#177010
0aaaap
1aaabj

#177500
0aaaaa

#178000
1aaaaa
r1387 aaabk
r42261 aaabl

#178010
1aaaap
0aaabj

#178500
0aaaaa

#179000
1aaaaa
b10000100100010100000000000000000101101101011011 aaaar

#179010
0aaaap
1aaabj

#179500
0aaaaa

#180000
1aaaaa
r15376 aaabk
r44549 aaabl

#180010
1aaaap
0aaabj

#180500
0aaaaa

#181000
1aaaaa
b1101111111010100000000000000000111101011010010 aaaar

#181010
0aaaap
1aaabj

#181500
0aaaaa

#182000
1aaaaa
r39732 aaabk
r35946 aaabl

#182010
1aaaap
0aaabj

#182500
0aaaaa

#183000
1aaaaa
b111110011111000000000000000000111111101001110 aaaar

#183010
0aaaap
1aaabj

#183500
0aaaaa

#184000
1aaaaa
r16965 aaabk
r23387 aaabl

#184010
1aaaap
0aaabj

#184500
0aaaaa

#185000
1aaaaa
b110000010011011100000000000000001011111011110100 aaaar

#185010
0aaaap
1aaabj

#185500
0aaaaa

#186000
1aaaaa
r14325 aaabk
r31442 aaabl

#186010
1aaaap
0aaabj

#186500
0aaaaa

#187000
1aaaaa
b100100011000000100000000000000000111101100001101 aaaar

#187010
0aaaap
1aaabj

#187500
0aaaaa

#188000
1aaaaa
r7998 aaabk
r32590 aaabl

#188010
1aaaap
0aaabj

#188500
0aaaaa

#189000
1aaaaa
b101001111110100100000000000000000100001001101100 aaaar

#189010
0aaaap
1aaabj

#189500
0aaaaa

#190000
1aaaaa
r49463 aaabk
r48884 aaabl

#190010
1aaaap
0aaabj

#190500
0aaaaa

#191000
1aaaaa
b10101010100101100000000000000001111000110011010 aaaar

#191010
0aaaap
1aaabj

#191500
0aaaaa

#192000
1aaaaa
r37249 aaabk
r31501 aaabl

#192010
1aaaap
0aaabj

#192500
0aaaaa

#193000
1aaaaa
b100010001001100100000000000000000010001001010111 aaaar

#193010
0aaaap
1aaabj

#193500
0aaaaa

#194000
1aaaaa
r42985 aaabk
r17004 aaabl

#194010
1aaaap
0aaabj

#194500
0aaaaa

#195000
1aaaaa
b1110100100101000000000000000001010010111011010 aaaar

#195010
0aaaap
1aaabj

#195500
0aaaaa

#196000
1aaaaa
r21835 aaabk
r61850 aaabl

#196010
1aaaap
0aaabj

#196500
0aaaaa

#197000
1aaaaa
b10010110000111000000000000000001001111100100001 aaaar

#197010
0aaaap
1aaabj

#197500
0aaaaa

#198000
1aaaaa
r34969 aaabk
r8791 aaabl

#198010
1aaaap
0aaabj

#198500
0aaaaa

#199000
1aaaaa
b100101010001000100000000000000001010000110010011 aaaar

#199010
0aaaap
1aaabj

#199500
0aaaaa

#200000
1aaaaa
r14922 aaabk
r42458 aaabl

#200010
1aaaap
0aaabj

#200500
0aaaaa

#201000
1aaaaa
b11101101100010000000000000000000000010000100100 aaaar

#201010
0aaaap
1aaabj

#201500
0aaaaa

#202000
1aaaaa
r19214 aaabk
r40737 aaabl

#202010
1aaaap
0aaabj

#202500
0aaaaa

#203000
1aaaaa
b10110001001010000000000000000001111110111001011 aaaar

#203010
0aaaap
1aaabj

#203500
0aaaaa

#204000
1aaaaa
r38161 aaabk
r41363 aaabl

#204010
1aaaap
0aaabj

#204500
0aaaaa

#205000
1aaaaa
b101011111100000100000000000000000000011110010111 aaaar

#205010
0aaaap
1aaabj

#205500
0aaaaa

#206000
1aaaaa
r30404 aaabk
r1060 aaabl

#206010
1aaaap
0aaabj

#206500
0aaaaa

#207000
1aaaaa
b10100010110110100000000000000001010101111011001 aaaar

#207010
0aaaap
1aaabj

#207500
0aaaaa

#208000
1aaaaa
r22676 aaabk
r64971 aaabl

#208010
1aaaap
0aaabj

#208500
0aaaaa

#209000
1aaaaa
b100111011011011000000000000000001001001110000001 aaaar

#209010
0aaaap
1aaabj

#209500
0aaaaa

#210000
1aaaaa
r44993 aaabk
r1943 aaabl

#210010
1aaaap
0aaabj

#210500
0aaaaa

#211000
1aaaaa
b111000111000111100000000000000001101110110000100 aaaar

#211010
0aaaap
1aaabj

#211500
0aaaaa

#212000
1aaaaa
r20845 aaabk
r43993 aaabl

#212010
1aaaap
0aaabj

#212500
0aaaaa

#213000
1aaaaa
b111101101100010100000000000000001111011100001101 aaaar

#213010
0aaaap
1aaabj

#213500
0aaaaa

#214000
1aaaaa
r40374 aaabk
r37761 aaabl

#214010
1aaaap
0aaabj

#214500
0aaaaa

#215000
1aaaaa
b110110001101011000000000000000001010000001100011 aaaar

#215010
0aaaap
1aaabj

#215500
0aaaaa

#216000
1aaaaa
r58255 aaabk
r56708 aaabl

#216010
1aaaap
0aaabj

#216500
0aaaaa

#217000
1aaaaa
b110000101101001100000000000000000000101000011110 aaaar

#217010
0aaaap
1aaabj

#217500
0aaaaa

#218000
1aaaaa
r63173 aaabk
r63245 aaabl

#218010
1aaaap
0aaabj

#218500
0aaaaa

#219000
1aaaaa
b10101001010101000000000000000001111100110110000 aaaar

#219010
0aaaap
1aaabj

#219500
0aaaaa

#220000
1aaaaa
r55510 aaabk
r41059 aaabl

#220010
1aaaap
0aaabj

#220500
0aaaaa

#221000
1aaaaa
b111101100001011000000000000000001001010110010001 aaaar

#221010
0aaaap
1aaabj

#221500
0aaaaa

