out/sweep/trace_N16_M4_A6.vcd
$date
     Jul 10, 2026       18:52:54
$end

$version
 SystemC 2.3.3-Accellera --- Jun 25 2026 10:44:53
$end

$timescale
     1 ps
$end

$scope module SystemC $end
$scope module Control $end
$var wire    1  aaaaa  clk       $end
$var wire    1  aaaab  rst_n       $end
$var wire    1  aaaac  start_signal       $end
$upscope $end
$scope module Core0 $end
$var wire   32  aaaaf  base_addr [31:0]  $end
$var wire   32  aaaag  num_samples [31:0]  $end
$var wire    1  aaaah  start       $end
$var wire    1  aaaai  busy       $end
$scope module AXI_AR $end
$var wire    1  aaaaj  ar_val       $end
$var wire    1  aaaak  ar_rdy       $end
$var wire    4  aaaal  ar_msg_id [3:0]  $end
$var wire   32  aaaam  ar_msg_addr [31:0]  $end
$var wire    8  aaaan  ar_msg_len [7:0]  $end
$upscope $end
$scope module AXI_AW $end
$var wire    1  aaaau  aw_val       $end
$var wire    1  aaaav  aw_rdy       $end
$var wire    4  aaaaw  aw_msg_id [3:0]  $end
$var wire   32  aaaax  aw_msg_addr [31:0]  $end
$var wire    8  aaaay  aw_msg_len [7:0]  $end
$upscope $end
$scope module AXI_B $end
$var wire    1  aaabe  b_val       $end
$var wire    1  aaabf  b_rdy       $end
$var wire    4  aaabg  b_msg_id [3:0]  $end
$var wire    2  aaabh  b_msg_resp [1:0]  $end
$upscope $end
$scope module AXI_R $end
$var wire    1  aaaao  r_val       $end
$var wire    1  aaaap  r_rdy       $end
$var wire    4  aaaaq  r_msg_id [3:0]  $end
$var wire   64  aaaar  r_msg_data [63:0]  $end
$var wire    2  aaaas  r_msg_resp [1:0]  $end
$var wire    1  aaaat  r_msg_last       $end
$upscope $end
$scope module AXI_W $end
$var wire    1  aaaaz  w_val       $end
$var wire    1  aaaba  w_rdy       $end
$var wire   64  aaabb  w_msg_data [63:0]  $end
$var wire    1  aaabc  w_msg_last       $end
$var wire    8  aaabd  w_msg_wstrb [7:0]  $end
$upscope $end
$scope module Internal $end
$var wire    1  aaabi  dma_to_fft_val       $end
$var wire    1  aaabj  dma_to_fft_rdy       $end
$var real    1  aaabk  dma_to_fft_msg_real       $end
$var real    1  aaabl  dma_to_fft_msg_imag       $end
$var wire    1  aaabm  fft_to_dma_val       $end
$var wire    1  aaabn  fft_to_dma_rdy       $end
$var real    1  aaabo  fft_to_dma_msg_real       $end
$var real    1  aaabp  fft_to_dma_msg_imag       $end
$upscope $end
$upscope $end
$scope module Stagger $end
$var wire    1  aaaad  active       $end
$var wire   32  aaaae  counter [31:0]  $end
$upscope $end
$upscope $end
$enddefinitions  $end

$comment
All initial values are dumped below at time 0 sec = 0 timescale units.
$end

$dumpvars
1aaaaa
0aaaab
0aaaac
0aaaad
b0 aaaae
b0 aaaaf
b0 aaaag
0aaaah
0aaaai
0aaaaj
0aaaak
b0 aaaal
b0 aaaam
b0 aaaan
0aaaao
0aaaap
b0 aaaaq
b0 aaaar
b0 aaaas
0aaaat
0aaaau
0aaaav
b0 aaaaw
b0 aaaax
b0 aaaay
0aaaaz
0aaaba
b0 aaabb
0aaabc
b11111111 aaabd
0aaabe
0aaabf
b0 aaabg
b0 aaabh
0aaabi
0aaabj
r0 aaabk
r0 aaabl
0aaabm
0aaabn
r0 aaabo
r0 aaabp
$end

#10
1aaaak
1aaaap
1aaaav
1aaaba
1aaabf
1aaabj
1aaabn

#500
0aaaaa

#1000
1aaaaa

#1500
0aaaaa

#2000
1aaaaa

#2500
0aaaaa

#3000
1aaaaa

#3500
0aaaaa

#4000
1aaaaa

#4500
0aaaaa

#5000
1aaaaa
1aaaab

#5500
0aaaaa

#6000
1aaaaa

#6500
0aaaaa

#7000
1aaaaa

#7500
0aaaaa

#8000
1aaaaa

#8500
0aaaaa

#9000
1aaaaa

#9500
0aaaaa

#10000
1aaaaa

#10500
0aaaaa

#11000
1aaaaa

#11500
0aaaaa

#12000
1aaaaa

#12500
0aaaaa

#13000
1aaaaa

#13500
0aaaaa

#14000
1aaaaa

#14500
0aaaaa

#15000
1aaaaa
1aaaac
1aaaad
b1 aaaae
b1000000000000 aaaag
1aaaah

#15500
0aaaaa

#16000
1aaaaa
0aaaac
b10 aaaae
0aaaah
1aaaai
b11111111 aaaan
b10000000 aaaax
b11111111 aaaay

#16010
1aaaaj
1aaaau

#16500
0aaaaa

#17000
1aaaaa
b11 aaaae
b100000000000 aaaam
b100001010101011000000000000000000101010100010111 aaaar

#17010
1aaaao
0aaaau

#17500
0aaaaa

#18000
1aaaaa
b100 aaaae
b1000000000000 aaaam
b10100110011101000000000000000001110011001100000 aaaar
r34134 aaabk
r21783 aaabl

#18010
1aaabi

#18500
0aaaaa

#19000
1aaaaa
0aaaad
b101 aaaae
b1100000000000 aaaam
b10110011010000100000000000000000010100101111101 aaaar
r21306 aaabk
r58976 aaabl

#19500
0aaaaa

#20000
1aaaaa
b10000000000000 aaaam
b101110110110000100000000000000001011111010110011 aaaar
r22945 aaabk
r10621 aaabl

#20500
0aaaaa

#21000
1aaaaa
b10100000000000 aaaam
b10100100000010000000000000000001110111101101001 aaaar
r47969 aaabk
r48819 aaabl

#21500
0aaaaa

#22000
1aaaaa
b11000000000000 aaaam
b101010001000101000000000000000000110101101111001 aaaar
r20996 aaabk
r61289 aaabl

#22500
0aaaaa

#23000
1aaaaa
b11100000000000 aaaam
b110110111001001000000000000000001001110100101011 aaaar
r43146 aaabk
r27513 aaabl

#23500
0aaaaa

#24000
1aaaaa
b100000000000000 aaaam
b100111100010001100000000000000000101111011101100 aaaar
r56210 aaabk
r40235 aaabl

#24500
0aaaaa

#25000
1aaaaa
b100100000000000 aaaam
b10011010010110000000000000000000110011011000110 aaaar
r40483 aaabk
r24300 aaabl

#25500
0aaaaa

#26000
1aaaaa
b101000000000000 aaaam
b100111001001110100000000000000000010000101100000 aaaar
r19756 aaabk
r26310 aaabl

#26500
0aaaaa

#27000
1aaaaa
b101100000000000 aaaam
b1111101111001100000000000000000010010100010011 aaaar
r40093 aaabk
r8544 aaabl

#27500
0aaaaa

#28000
1aaaaa
b110000000000000 aaaam
b110101000010101100000000000000001110010001010111 aaaar
r16115 aaabk
r9491 aaabl

#28500
0aaaaa

#29000
1aaaaa
b110100000000000 aaaam
b101011110010110000000000000000001100010110101000 aaaar
r54315 aaabk
r58455 aaabl

#29500
0aaaaa

#30000
1aaaaa
b111000000000000 aaaam
b111100110101001000000000000000001010000100001100 aaaar
r44844 aaabk
r50600 aaabl

#30500
0aaaaa

#31000
1aaaaa
b111100000000000 aaaam
b101101011010011000000000000000001100110000100100 aaaar
r62290 aaabk
r41228 aaabl

#31500
0aaaaa

#32000
1aaaaa
b11011000010000000000000000000100101111001010 aaaar
r46502 aaabk
r52260 aaabl

#32010
0aaaaj

#32500
0aaaaa

#33000
1aaaaa
b100001000011100100000000000000001000100111101000 aaaar
r3460 aaabk
r19402 aaabl

#33500
0aaaaa

#34000
1aaaaa
b10010010111100100000000000000000000111101100010 aaaar
r33849 aaabk
r35304 aaabl

#34500
0aaaaa

#35000
1aaaaa
b101000111111111100000000000000000000001110100111 aaaar
r18809 aaabk
r3938 aaabl

#35500
0aaaaa

#36000
1aaaaa
b100011101101011100000000000000000000010011100000 aaaar
r41983 aaabk
r935 aaabl

#36500
0aaaaa

#37000
1aaaaa
b10111011010100100000000000000000011000000110001 aaaar
r36567 aaabk
r1248 aaabl
r574564 aaabo
r559826 aaabp

#37010
1aaabm

#37500
0aaaaa

#38000
1aaaaa
b110100111110110000000000000000000011111001011000 aaaar
b1000110001000110010000000000000010001000101011010010 aaabb
r23977 aaabk
r12337 aaabl
r-51560 aaabo
r-14648 aaabp

#38010
1aaaaz

#38500
0aaaaa

#39000
1aaaaa
b110000010111100100000000000000000000000110001110 aaaar
b1111111111111111001101101001100011111111111111111100011011001000 aaabb
r54252 aaabk
r15960 aaabl
r-36757 aaabo
r26767 aaabp

#39500
0aaaaa

#40000
1aaaaa
b11000010100100100000000000000001000011001001001 aaaar
b1111111111111111011100000110101100000000000000000110100010001111 aaabb
r49529 aaabk
r398 aaabl
r-7327.000000000002 aaabo
r67983 aaabp

#40500
0aaaaa

#41000
1aaaaa
b100111011100011100000000000000001011000011010011 aaaar
b1111111111111111111000110110000100000000000000010000100110001111 aaabb
r24905 aaabk
r34377 aaabl
r-112636.3631305539 aaabo
r-56074.02507151235 aaabp

#41500
0aaaaa

#42000
1aaaaa
b111011101001000000000000000000001001111111100000 aaaar
b1111111111111110010010000000010011111111111111110010010011110110 aaabb
r40391 aaabk
r45267 aaabl
r-56029.63686944607 aaabo
r55786.02507151234 aaabp

#42500
0aaaaa

#43000
1aaaaa
b11001101000010000000000000000001010010101011100 aaaar
b1111111111111111001001010010001000000000000000001101100111101010 aaabb
r61072 aaabk
r40928 aaabl
r176913.9929580788 aaabo
r-91746.88572467238 aaabp

#43500
0aaaaa

#44000
1aaaaa
b111010010011111100000000000000000101000100010000 aaaar
b10101100110001001011111111111111101001100110011101 aaabb
r26244 aaabk
r42332 aaabl
r-56047.99295807877 aaabo
r-163149.1142753276 aaabp

#44500
0aaaaa

#45000
1aaaaa
b111011010000111100000000000000000110000101100101 aaaar
b1111111111111111001001010001000011111111111111011000001010110011 aaabb
r59711 aaabk
r20752 aaabl
r-31735.75249023945 aaabo
r77128.82832433496 aaabp

#45500
0aaaaa

#46000
1aaaaa
b101001000111101000000000000000001111000001001011 aaaar
b1111111111111111100001000000100000000000000000010010110101001001 aaabb
r60687 aaabk
r24933 aaabl
r62391.78909567482 aaabo
r-43271.11280584313 aaabp

#46500
0aaaaa

#47000
1aaaaa
b111101010101000100000000000000001011110011111111 aaaar
b111100111011100011111111111111110101011011111001 aaabb
r42106 aaabk
r61515 aaabl
r128041.6496776641 aaabo
r-18545.92840130633 aaabp

#47500
0aaaaa

#48000
1aaaaa
b101101110010100000000000000000101010110111001 aaaar
b1111101000010101011111111111111111011011110001110 aaabb
r62801 aaabk
r48383 aaabl
r-58429.68628309949 aaabo
r61972.21288281451 aaabp

#48500
0aaaaa

#49000
1aaaaa
b1000100101101100000000000000001110110000001110 aaaar
b1111111111111111000110111100001000000000000000001111001000010100 aaabb
r5861 aaabk
r21945 aaabl
r24893.04768085905 aaabo
r-62316.98670343566 aaabp

#49500
0aaaaa

#50000
1aaaaa
b11100011001000100000000000000001101010001000000 aaaar
b11000010011110111111111111111110000110010010011 aaabb
r8795 aaabk
r60430 aaabl
r-28852.79781040415 aaabo
r-36425.25660410865 aaabp

#50500
0aaaaa

#51000
1aaaaa
b101101000100000000000000000000000111001111010010 aaaar
b1111111111111111100011110100101111111111111111110111000110110111 aaabb
r29073 aaabk
r54336 aaabl
r55622.37255590841 aaabo
r-34436.70048911104 aaabp

#51500
0aaaaa

#52000
1aaaaa
b101011100001101000000000000000001000101111000010 aaaar
b110110010100011011111111111111110111100101111011 aaabb
r46144 aaabk
r29650 aaabl
r-36906.6224263633 aaabo
r19678.94379665536 aaabp

#52500
0aaaaa

#53000
1aaaaa
b1001110001001100000000000000000000011011110100 aaaar
b1111111111111111011011111101010100000000000000000100110011011111 aaabb
r44570 aaabk
r35778 aaabl
r642744 aaabo
r410552 aaabp

#53500
0aaaaa

#54000
1aaaaa
b101100010111101000000000000000000111100010001000 aaaar
b1001110011101011100000000000000001100100001110111000 aaabb
r10003 aaabk
r1780 aaabl
r36178 aaabo
r9226 aaabp

#54500
0aaaaa

#55000
1aaaaa
b101111001010011100000000000000000101100011000010 aaaar
b100011010101001000000000000000000010010000001010 aaabb
r45434 aaabk
r30856 aaabl
r22366 aaabo
r-23402 aaabp

#55500
0aaaaa

#56000
1aaaaa
b111000110011010000000000000000001111011000010101 aaaar
b10101110101111011111111111111111010010010010110 aaabb
r48295 aaabk
r22722 aaabl
r-65672 aaabo
r74988 aaabp

#56500
0aaaaa

#57000
1aaaaa
b10110101101110100000000000000001101110100001111 aaaar
b1111111111111110111111110111100000000000000000010010010011101100 aaabb
r58164 aaabk
r62997 aaabl
r-121240.3418543007 aaabo
r53942.29290069019 aaabp

#57500
0aaaaa

#58000
1aaaaa
b101010011011110000000000000000000010100010000000 aaaar
b1111111111111110001001100110100000000000000000001101001010110110 aaabb
r23261 aaabk
r56591 aaabl
r89364.34185430066 aaabo
r120865.7070993098 aaabp

#58500
0aaaaa

#59000
1aaaaa
b111110101010000000000000000000000011011111110011 aaaar
b1010111010001010000000000000000011101100000100010 aaabb
r43452 aaabk
r10368 aaabl
r5737.613911107036 aaabo
r-36686.25493165491 aaabp

#59500
0aaaaa

#60000
1aaaaa
b11101111101010000000000000000001011010000011100 aaaar
b101100110101011111111111111110111000010110010 aaabb
r64160 aaabk
r14323 aaabl
r-15557.61391110703 aaabo
r35082.25493165491 aaabp

#60500
0aaaaa

#61000
1aaaaa
b100111001001000100000000000000000001011110110011 aaaar
b1111111111111111110000110011101000000000000000001000100100001010 aaabb
r30676 aaabk
r46108 aaabl
r-201476.5425525202 aaabo
r13016.65260068405 aaabp

#61500
0aaaaa

#62000
1aaaaa
b11101100011101100000000000000000101110110000101 aaaar
b1111111111111100111011001111101100000000000000000011001011011001 aaabb
r40081 aaabk
r6067 aaabl
r77823.05557849407 aaabo
r46305.32148985547 aaabp

#62500
0aaaaa

#63000
1aaaaa
b110100001101011100000000000000001110111000101001 aaaar
b1001011111111111100000000000000001011010011100001 aaabb
r30267 aaabk
r23941 aaabl
r16616.5758395245 aaabo
r84056.78572675753 aaabp

#63500
0aaaaa

#64000
1aaaaa
b101010000010110100000000000000000111101111000000 aaaar
b10000001110100100000000000000010100100001011001 aaabb
r53463 aaabk
r60969 aaabl
r30484.91113450162 aaabo
r-36390.75981729705 aaabp

#64500
0aaaaa

#65000
1aaaaa
b111101001100011100000000000000000110010100110001 aaaar
b11101110001010111111111111111110111000111011001 aaabb
r43053 aaabk
r31680 aaabl
r-66311.58976387396 aaabo
r-78814.01172321488 aaabp

#65500
0aaaaa

#66000
1aaaaa
b100110001101000000000000000000010010111000110 aaaar
b1111111111111110111111001111100011111111111111101100110000100010 aaabb
r62663 aaabk
r25905 aaabl
r-89013.39652616385 aaabo
r-27337.69208407353 aaabp

#66500
0aaaaa

#67000
1aaaaa
b1101010011110000000000000000000001111111010101 aaaar
b1111111111111110101001000100101111111111111111111001010100110110 aaabb
r4890 aaabk
r9670 aaabl
r90411.05573517868 aaabo
r14466.89377751821 aaabp

#67500
0aaaaa

#68000
1aaaaa
b110000010101000000000000000001110010001100101 aaaar
b1011000010010101100000000000000000011100010000011 aaabb
r13628 aaabk
r8149 aaabl
r89129.93055485912 aaabo
r-95007.18997022981 aaabp

#68500
0aaaaa

#69000
1aaaaa
b10001010001000000000000000001101100110000011 aaaar
b1010111000010101011111111111111101000110011100001 aaabb
r6186 aaabk
r58469 aaabl
r618891 aaabo
r548596 aaabp

#69500
0aaaaa

#70000
1aaaaa
b110011011110001000000000000000001010001000010111 aaaar
b1001011100011000101100000000000010000101111011110100 aaabb
r2210 aaabk
r55683 aaabl
r-30487 aaabo
r-43532 aaabp

#70500
0aaaaa

#71000
1aaaaa
b11110010011111100000000000000001001101111111010 aaaar
b1111111111111111100010001110100111111111111111110101010111110100 aaabb
r52706 aaabk
r41495 aaabl
r-186984 aaabo
r25441 aaabp

#71500
0aaaaa

#72000
1aaaaa
b110010100100000100000000000000001111100111100110 aaaar
b1111111111111101001001011001100000000000000000000110001101100001 aaabb
r31039 aaabk
r39930 aaabl
r-72860 aaabo
r-31033 aaabp

#72500
0aaaaa

#73000
1aaaaa
b11011011001000000000000000000001001001011010 aaaar
b1111111111111110111000110110010011111111111111111000011011000111 aaabb
r51777 aaabk
r63974 aaabl
r-43666.79687979465 aaabo
r137287.9510706165 aaabp

#73500
0aaaaa

#74000
1aaaaa
b110110111111010000000000000000000000011110100111 aaaar
b1111111111111111010101010110110100000000000000100001100001001000 aaabb
r3506 aaabk
r4698 aaabl
r-71825.20312020535 aaabo
r63968.04892938345 aaabp

#74500
0aaaaa

#75000
1aaaaa
b100100100011100000000000000001110001101001010 aaaar
b1111111111111110111001110110111100000000000000001111100111100000 aaabb
r56308 aaabk
r1959 aaabl
r3532.204965910649 aaabo
r122280.131631872 aaabp

#75500
0aaaaa

#76000
1aaaaa
b10101100111000100000000000000000010110111011101 aaaar
b11011100110000000000000000011101110110101000 aaabb
r4679 aaabk
r58186 aaabl
r39847.79503408935 aaabo
r113159.868368128 aaabp

#76500
0aaaaa

#77000
1aaaaa
b111011000101100000000000000001101010101100111 aaaar
b100110111010100000000000000000011011101000001000 aaabb
r22129 aaabk
r11741 aaabl
r-46121.8851705593 aaabo
r66152.73911817958 aaabp

#77500
0aaaaa

#78000
1aaaaa
b110001011100011000000000000000000100100010111010 aaaar
b1111111111111111010010111101011000000000000000010000001001101001 aaabb
r7563 aaabk
r54631 aaabl
r-41967.70552840158 aaabo
r110233.4655024544 aaabp

#78500
0aaaaa

#79000
1aaaaa
b100110111010101000000000000000000001000100011000 aaaar
b1111111111111111010111000001000000000000000000011010111010011001 aaabb
r50630 aaabk
r18618 aaabl
r87509.16565167908 aaabo
r-30687.84954116128 aaabp

#79500
0aaaaa

#80000
1aaaaa
b111110101001100000000000000000001101001100100010 aaaar
b1010101011101010111111111111111111000100000100000 aaabb
r39850 aaabk
r4376 aaabl
r-74431.57495271821 aaabo
r-10030.35507947275 aaabp

#80500
0aaaaa

#81000
1aaaaa
b100111000101010000000000000000001000101101010001 aaaar
b1111111111111110110111010100000011111111111111111101100011010010 aaabb
r64152 aaabk
r54050 aaabl
r43450.91925096848 aaabo
r-16509.46102908768 aaabp

#81500
0aaaaa

#82000
1aaaaa
b11000101110000000000000000000001010111000101111 aaaar
b101010011011101111111111111111111011111110000011 aaabb
r40020 aaabk
r35665 aaabl
r-78052.87825119028 aaabo
r-78946.48913143069 aaabp

#82500
0aaaaa

#83000
1aaaaa
b10011100110001000000000000000001011011100101111 aaaar
b1111111111111110110011110001101111111111111111101100101110011110 aaabb
r25312 aaabk
r44591 aaabl
r50330.61652534926 aaabo
r-36967.63646120687 aaabp

#83500
0aaaaa

#84000
1aaaaa
b110100001000000000000000000000000110101110111000 aaaar
b110001001001101111111111111111110110111110011000 aaabb
r20066 aaabk
r46895 aaabl
r-56444.65752512744 aaabo
r27467.58662172524 aaabp

#84500
0aaaaa

#85000
1aaaaa
b110001110101100100000000000000000111101010010010 aaaar
b1111111111111111001000111000001100000000000000000110101101001100 aaabb
r53376 aaabk
r27576 aaabl
r473916 aaabo
r511534 aaabp

#85500
0aaaaa

#86000
1aaaaa
b111100111101000100000000000000001011000110011000 aaaar
b111001110110011110000000000000001111100111000101110 aaabb
r51033 aaabk
r31378 aaabl
r-143640 aaabo
r-8418 aaabp

#86500
0aaaaa

#87000
1aaaaa
b100111111010111000000000000000001010010011000001 aaaar
b1111111111111101110011101110100011111111111111111101111100011110 aaabb
r62417 aaabk
r45464 aaabl
r-129746 aaabo
r9985.999999999993 aaabp

#87500
0aaaaa

#88000
1aaaaa
b110000110011000100000000000000000101111100010101 aaaar
b1111111111111110000001010010111000000000000000000010011100000010 aaabb
r40878 aaabk
r42177 aaabl
r103238 aaabo
r50566.00000000001 aaabp

#88500
0aaaaa

#89000
1aaaaa
b100000011110011000000000000000001010100010111000 aaaar
b1100100110100011000000000000000001100010110000110 aaabb
r49969 aaabk
r24341 aaabl
r42488.41916653728 aaabo
r64145.75752912191 aaabp

#89500
0aaaaa

#90000
1aaaaa
b100100111111001100000000000000001001010111001010 aaaar
b101001011111100000000000000000001111101010010010 aaabb
r33254 aaabk
r43192 aaabl
r114361.5808334627 aaabo
r-118403.7575291219 aaabp

#90500
0aaaaa

#91000
1aaaaa
b1100000110010000000000000000001111010010111111 aaaar
b1101111101011101011111111111111100011000101111100 aaabb
r37875 aaabk
r38346 aaabl
r-65882.3567959416 aaabo
r-40070.71938408811 aaabp

#91500
0aaaaa

#92000
1aaaaa
b110110000000000000000000000001111101111000101 aaaar
b1111111111111110111111101010011011111111111111110110001101111001 aaabb
r12388 aaabk
r62655 aaabl
r134616.3567959416 aaabo
r-224515.2806159119 aaabp

#92500
0aaaaa

#93000
1aaaaa
b1001011100100000000000000000001100100010101 aaaar
b10000011011101100011111111111111001001001011111101 aaabb
r6912 aaabk
r64453 aaabl
r90614.84475653007 aaabo
r10247.24157375094 aaabp

#93500
0aaaaa

#94000
1aaaaa
b100110011101110100000000000000000100011010111111 aaaar
b1011000011111011100000000000000000010100000000111 aaabb
r1209 aaabk
r6421 aaabl
r34437.53308736657 aaabo
r-78366.356062434 aaabp

#94500
0aaaaa

#95000
1aaaaa
b111011000000101100000000000000001110101101011101 aaaar
b100001101000011011111111111111101100110111100010 aaabb
r39389 aaabk
r18111 aaabl
r45841.47027762546 aaabo
r163692.262270978 aaabp

#95500
0aaaaa

#96000
1aaaaa
b11110000100000100000000000000000000110010111100 aaaar
b101100110001000100000000000000100111111101101100 aaabb
r60427 aaabk
r60253 aaabl
r69942.1518784779 aaabo
r10666.85221770506 aaabp

#96500
0aaaaa

#97000
1aaaaa
b101011000011000100000000000000000110111100011111 aaaar
b1000100010011011000000000000000000010100110101011 aaabb
r30785 aaabk
r3260 aaabl
r26667.9673467573 aaabo
r107026.4424678692 aaabp

#97500
0aaaaa

#98000
1aaaaa
b100100011101000100000000000000001011110101101111 aaaar
b11010000010110000000000000000011010001000010010 aaabb
r44081 aaabk
r28447 aaabl
r43943.544761647 aaabo
r45530.34907759888 aaabp

#98500
0aaaaa

#99000
1aaaaa
b111111000011110100000000000000001101001111100001 aaaar
b101010111010100000000000000000001011000111011010 aaabb
r37329 aaabk
r48495 aaabl
r194926.102491629 aaabo
r-14429.27123442612 aaabp

#99500
0aaaaa

#100000
1aaaaa
b111011010010100100000000000000000001101111010111 aaaar
b10111110010110111011111111111111111100011110100011 aaabb
r64573 aaabk
r54241 aaabl
r-33117.61460003334 aaabo
r-74711.52031104197 aaabp

#100500
0aaaaa

#101000
1aaaaa
b11001010111000100000000000000001010111001001010 aaaar
b1111111111111111011111101010001011111111111111101101110000101000 aaabb
r60713 aaabk
r7127 aaabl
r565310 aaabo
r594778 aaabp

#101500
0aaaaa

#102000
1aaaaa
b10010000110100000000000000000001110010100011001 aaaar
b1000101000000011111000000000000010010001001101011010 aaabb
r25969 aaabk
r44618 aaabl
r-46760 aaabo
r62494 aaabp

#102500
0aaaaa

#103000
1aaaaa
b110010101100110100000000000000000010110110000111 aaaar
b1111111111111111010010010101100000000000000000001111010000011110 aaabb
r18536 aaabk
r58649 aaabl
r18639 aaabo
r-119275 aaabp

#103500
0aaaaa

#104000
1aaaaa
b1111100001010000000000000000000111111000011101 aaaar
b10010001100111111111111111111100010111000010101 aaabb
r51917 aaabk
r11655 aaabl
r-35125 aaabo
r-71373 aaabp

#104500
0aaaaa

#105000
1aaaaa
b100111010110000000000000000000000110111000010010 aaaar
b1111111111111111011101101100101111111111111111101110100100110011 aaabb
r15892 aaabk
r32285 aaabl
r74564.36779674141 aaabo
r119821.9299654542 aaabp

#105500
0aaaaa

#106000
1aaaaa
b1011011000010100000000000000000100100000101011 aaaar
b1001000110100010000000000000000011101010000001110 aaabb
r40288 aaabk
r28178 aaabl
r-18260.36779674142 aaabo
r99996.07003454579 aaabp

#106500
0aaaaa

#107000
1aaaaa
b110111100001010100000000000000001001100110110100 aaaar
b1111111111111111101110001010110000000000000000011000011010011100 aaabb
r11653 aaabk
r18475 aaabl
r85996.5865945002 aaabo
r45852.87836736011 aaabp

#107500
0aaaaa

#108000
1aaaaa
b101101000000010100000000000000001101110110000001 aaaar
b1010011111110110100000000000000001011001100011101 aaabb
r56853 aaabk
r39348 aaabl
r-58172.5865945002 aaabo
r-101438.8783673601 aaabp

#108500
0aaaaa

#109000
1aaaaa
b110000001001100100000000000000001001101000101000 aaaar
b1111111111111111000111001100001111111111111111100111001111000001 aaabb
r46085 aaabk
r56705 aaabl
r8346.075490581479 aaabo
r-152341.6931794172 aaabp

#109500
0aaaaa

#110000
1aaaaa
b100111000001000000000000000000001000101001011011 aaaar
b1000001001101011111111111111011010110011101010 aaabb
r49305 aaabk
r39464 aaabl
r45753.38707569474 aaabo
r57703.14098880431 aaabp

#110500
0aaaaa

#111000
1aaaaa
b10000100100000000000000000000001010110110010011 aaaar
b101100101011100100000000000000001110000101100111 aaabb
r39952 aaabk
r35419 aaabl
r99087.96948333946 aaabo
r-100569.5841781674 aaabp

#111500
0aaaaa

#112000
1aaaaa
b110100001000100100000000000000001100101001010111 aaaar
b1100000110001000011111111111111100111011100100110 aaabb
r16960 aaabk
r44435 aaabl
r-26295.43204961566 aaabo
r-34195.86363121968 aaabp

#112500
0aaaaa

#113000
1aaaaa
b110110110001010100000000000000001101101010111001 aaaar
b1111111111111111100110010100100111111111111111110111101001101100 aaabb
r53385 aaabk
r51799 aaabl
r-66279.54391557464 aaabo
r123193.1269620265 aaabp

#113500
0aaaaa

#114000
1aaaaa
b111000100101110000000000000000001100010011011110 aaaar
b1111111111111110111111010001100000000000000000011110000100111001 aaabb
r56085 aaabk
r55993 aaabl
r-56458.57884361368 aaabo
r-25086.31637355161 aaabp

#114500
0aaaaa

#115000
1aaaaa
b101101001111010000000000000000001101111100100110 aaaar
b1111111111111111001000110111010111111111111111111001111000000010 aaabb
r57948 aaabk
r50398 aaabl
r47007.07478249268 aaabo
r7091.044831946117 aaabp

#115500
0aaaaa

#116000
1aaaaa
b110111001000111100000000000000001001101010001100 aaaar
b101101111001111100000000000000000001101110110011 aaabb
r46324 aaabk
r57126 aaabl
r2967.047976695623 aaabo
r63990.14457957898 aaabp

#116500
0aaaaa

#117000
1aaaaa
b101100010011111000000000000000000100000110000001 aaaar
b10111001011100000000000000001111100111110110 aaabb
r56463 aaabk
r39564 aaabl
r633491 aaabo
r599340 aaabp

#117500
0aaaaa

#118000
1aaaaa
b100111110000000100000000000000000001000000101111 aaaar
b1001101010101001001100000000000010010010010100101100 aaabb
r45374 aaabk
r16769 aaabl
r66401 aaabo
r-18568 aaabp

#118500
0aaaaa

#119000
1aaaaa
b110101100111000100000000000000001100101110110101 aaaar
b1000000110110000111111111111111111011011101111000 aaabb
r40705 aaabk
r4143 aaabl
r-17538 aaabo
r59633 aaabp

#119500
0aaaaa

#120000
1aaaaa
b111111101000011000000000000000001111101110111000 aaaar
b1111111111111111101110110111111000000000000000001110100011110001 aaabb
r54897 aaabk
r52149 aaabl
r-43782 aaabo
r-77577 aaabp

#120500
0aaaaa

#121000
1aaaaa
b1001001001010000000000000000000001101010100100 aaaar
b1111111111111111010101001111101011111111111111101101000011110111 aaabb
r65158 aaabk
r64440 aaabl
r-20140.61668804279 aaabo
r-104656.4494989442 aaabp

#121500
0aaaaa

#122000
1aaaaa
b100001100000100100000000000000000101100100101111 aaaar
b1111111111111111101100010101001111111111111111100110011100110000 aaabb
r9364 aaabk
r6820 aaabl
r113328.6166880428 aaabo
r-55355.55050105576 aaabp

#122500
0aaaaa

#123000
1aaaaa
b1111010010000000000000000000110001011001101 aaaar
b1101110101011000111111111111111110010011111000100 aaabb
r34313 aaabk
r22831 aaabl
r-28632.39549032325 aaabo
r10123.25654906197 aaabp

#123500
0aaaaa

#124000
1aaaaa
b100011001110000100000000000000000010101001111100 aaaar
b1111111111111111100100000010100000000000000000000010011110001011 aaabb
r1956 aaabk
r25293 aaabl
r-28175.60450967675 aaabo
r40060.74345093803 aaabp

#124500
0aaaaa

#125000
1aaaaa
b111100000101101000000000000000000111010010100001 aaaar
b1111111111111111100100011111000000000000000000001001110001111101 aaabb
r36065 aaabk
r10876 aaabl
r28871.59564893124 aaabo
r55832.2032855295 aaabp

#125500
0aaaaa

#126000
1aaaaa
b101011011111011000000000000000000000111110011110 aaaar
b11100001100100000000000000000001101101000011000 aaabb
r61530 aaabk
r29857 aaabl
r-74792.56843745479 aaabo
r-1556.792327913514 aaabp

#126500
0aaaaa

#127000
1aaaaa
b11001111000011100000000000000000100111110110000 aaaar
b1111111111111110110110111101011111111111111111111111100111101011 aaabb
r44534 aaabk
r3998 aaabl
r69770.29196954721 aaabo
r-57829.53832387047 aaabp

#127500
0aaaaa

#128000
1aaaaa
b111101000001000000000000000001100111111100001 aaaar
b1000100001000101011111111111111110001111000011010 aaabb
r26503 aaabk
r20400 aaabl
r11938.68081897634 aaabo
r97974.12736625448 aaabp

#128500
0aaaaa

#129000
1aaaaa
b100010010111011000000000000000001011010001000101 aaaar
b1011101010001100000000000000010111111010110110 aaabb
r7810 aaabk
r53217 aaabl
r15913.0857178467 aaabo
r7587.393758441191 aaabp

#129500
0aaaaa

#130000
1aaaaa
b11010011111111000000000000000001101010100101011 aaaar
b1111100010100100000000000000000001110110100011 aaabb
r35190 aaabk
r46149 aaabl
r-5412.188909658242 aaabo
r-181495.5891188504 aaabp

#130500
0aaaaa

#131000
1aaaaa
b100001101110011000000000000000001000010110111100 aaaar
b1111111111111111111010101101110011111111111111010011101100001000 aaabb
r27134 aaabk
r54571 aaabl
r-100448.3420116467 aaabo
r33712.5286473728 aaabp

#131500
0aaaaa

#132000
1aaaaa
b101100110011011000000000000000001100100110100101 aaaar
b1111111111111110011101111010000000000000000000001000001110110001 aaabb
r34534 aaabk
r34236 aaabl
r84503.44520345831 aaabo
r47927.66671303634 aaabp

#132500
0aaaaa

#133000
1aaaaa
b111111010101110000000000000000000101001100001000 aaaar
b1010010100001011100000000000000001011101100111000 aaabb
r45878 aaabk
r51621 aaabl
r645029 aaabo
r513874 aaabp

#133500
0aaaaa

#134000
1aaaaa
b1001100100110000000000000000001000100111001110 aaaar
b1001110101111010010100000000000001111101011101010010 aaabb
r64860 aaabk
r21256 aaabl
r-40963 aaabo
r14940 aaabp

#134500
0aaaaa

