out/sweep/trace_N8_M4_A6.vcd
$date
     Jul 10, 2026       18:52:24
$end

$version
 SystemC 2.3.3-Accellera --- Jun 25 2026 10:44:53
$end

$timescale
     1 ps
$end

$scope module SystemC $end
$scope module Control $end
$var wire    1  aaaaa  clk       $end
$var wire    1  aaaab  rst_n       $end
$var wire    1  aaaac  start_signal       $end
$upscope $end
$scope module Core0 $end
$var wire   32  aaaaf  base_addr [31:0]  $end
$var wire   32  aaaag  num_samples [31:0]  $end
$var wire    1  aaaah  start       $end
$var wire    1  aaaai  busy       $end
$scope module AXI_AR $end
$var wire    1  aaaaj  ar_val       $end
$var wire    1  aaaak  ar_rdy       $end
$var wire    4  aaaal  ar_msg_id [3:0]  $end
$var wire   32  aaaam  ar_msg_addr [31:0]  $end
$var wire    8  aaaan  ar_msg_len [7:0]  $end
$upscope $end
$scope module AXI_AW $end
$var wire    1  aaaau  aw_val       $end
$var wire    1  aaaav  aw_rdy       $end
$var wire    4  aaaaw  aw_msg_id [3:0]  $end
$var wire   32  aaaax  aw_msg_addr [31:0]  $end
$var wire    8  aaaay  aw_msg_len [7:0]  $end
$upscope $end
$scope module AXI_B $end
$var wire    1  aaabe  b_val       $end
$var wire    1  aaabf  b_rdy       $end
$var wire    4  aaabg  b_msg_id [3:0]  $end
$var wire    2  aaabh  b_msg_resp [1:0]  $end
$upscope $end
$scope module AXI_R $end
$var wire    1  aaaao  r_val       $end
$var wire    1  aaaap  r_rdy       $end
$var wire    4  aaaaq  r_msg_id [3:0]  $end
$var wire   64  aaaar  r_msg_data [63:0]  $end
$var wire    2  aaaas  r_msg_resp [1:0]  $end
$var wire    1  aaaat  r_msg_last       $end
$upscope $end
$scope module AXI_W $end
$var wire    1  aaaaz  w_val       $end
$var wire    1  aaaba  w_rdy       $end
$var wire   64  aaabb  w_msg_data [63:0]  $end
$var wire    1  aaabc  w_msg_last       $end
$var wire    8  aaabd  w_msg_wstrb [7:0]  $end
$upscope $end
$scope module Internal $end
$var wire    1  aaabi  dma_to_fft_val       $end
$var wire    1  aaabj  dma_to_fft_rdy       $end
$var real    1  aaabk  dma_to_fft_msg_real       $end
$var real    1  aaabl  dma_to_fft_msg_imag       $end
$var wire    1  aaabm  fft_to_dma_val       $end
$var wire    1  aaabn  fft_to_dma_rdy       $end
$var real    1  aaabo  fft_to_dma_msg_real       $end
$var real    1  aaabp  fft_to_dma_msg_imag       $end
$upscope $end
$upscope $end
$scope module Stagger $end
$var wire    1  aaaad  active       $end
$var wire   32  aaaae  counter [31:0]  $end
$upscope $end
$upscope $end
$enddefinitions  $end

$comment
All initial values are dumped below at time 0 sec = 0 timescale units.
$end

$dumpvars
1aaaaa
0aaaab
0aaaac
0aaaad
b0 aaaae
b0 aaaaf
b0 aaaag
0aaaah
0aaaai
0aaaaj
0aaaak
b0 aaaal
b0 aaaam
b0 aaaan
0aaaao
0aaaap
b0 aaaaq
b0 aaaar
b0 aaaas
0aaaat
0aaaau
0aaaav
b0 aaaaw
b0 aaaax
b0 aaaay
0aaaaz
0aaaba
b0 aaabb
0aaabc
b11111111 aaabd
0aaabe
0aaabf
b0 aaabg
b0 aaabh
0aaabi
0aaabj
r0 aaabk
r0 aaabl
0aaabm
0aaabn
r0 aaabo
r0 aaabp
$end

#10
1aaaak
1aaaap
1aaaav
1aaaba
1aaabf
1aaabj
1aaabn

#500
0aaaaa

#1000
1aaaaa

#1500
0aaaaa

#2000
1aaaaa

#2500
0aaaaa

#3000
1aaaaa

#3500
0aaaaa

#4000
1aaaaa

#4500
0aaaaa

#5000
1aaaaa
1aaaab

#5500
0aaaaa

#6000
1aaaaa

#6500
0aaaaa

#7000
1aaaaa

#7500
0aaaaa

#8000
1aaaaa

#8500
0aaaaa

#9000
1aaaaa

#9500
0aaaaa

#10000
1aaaaa

#10500
0aaaaa

#11000
1aaaaa

#11500
0aaaaa

#12000
1aaaaa

#12500
0aaaaa

#13000
1aaaaa

#13500
0aaaaa

#14000
1aaaaa

#14500
0aaaaa

#15000
1aaaaa
1aaaac
1aaaad
b1 aaaae
b1000000000000 aaaag
1aaaah

#15500
0aaaaa

#16000
1aaaaa
0aaaac
b10 aaaae
0aaaah
1aaaai
b11111111 aaaan
b1000000 aaaax
b11111111 aaaay

#16010
1aaaaj
1aaaau

#16500
0aaaaa

#17000
1aaaaa
b11 aaaae
b100000000000 aaaam
b100001010101011000000000000000000101010100010111 aaaar

#17010
1aaaao
0aaaau

#17500
0aaaaa

#18000
1aaaaa
b100 aaaae
b1000000000000 aaaam
b10100110011101000000000000000001110011001100000 aaaar
r34134 aaabk
r21783 aaabl

#18010
1aaabi

#18500
0aaaaa

#19000
1aaaaa
0aaaad
b101 aaaae
b1100000000000 aaaam
b10110011010000100000000000000000010100101111101 aaaar
r21306 aaabk
r58976 aaabl

#19500
0aaaaa

#20000
1aaaaa
b10000000000000 aaaam
b101110110110000100000000000000001011111010110011 aaaar
r22945 aaabk
r10621 aaabl

#20500
0aaaaa

#21000
1aaaaa
b10100000000000 aaaam
b10100100000010000000000000000001110111101101001 aaaar
r47969 aaabk
r48819 aaabl

#21500
0aaaaa

#22000
1aaaaa
b11000000000000 aaaam
b101010001000101000000000000000000110101101111001 aaaar
r20996 aaabk
r61289 aaabl

#22500
0aaaaa

#23000
1aaaaa
b11100000000000 aaaam
b110110111001001000000000000000001001110100101011 aaaar
r43146 aaabk
r27513 aaabl

#23500
0aaaaa

#24000
1aaaaa
b100000000000000 aaaam
b100111100010001100000000000000000101111011101100 aaaar
r56210 aaabk
r40235 aaabl

#24500
0aaaaa

#25000
1aaaaa
b100100000000000 aaaam
b10011010010110000000000000000000110011011000110 aaaar
r40483 aaabk
r24300 aaabl

#25500
0aaaaa

#26000
1aaaaa
b101000000000000 aaaam
b100111001001110100000000000000000010000101100000 aaaar
r19756 aaabk
r26310 aaabl

#26500
0aaaaa

#27000
1aaaaa
b101100000000000 aaaam
b1111101111001100000000000000000010010100010011 aaaar
r40093 aaabk
r8544 aaabl

#27500
0aaaaa

#28000
1aaaaa
b110000000000000 aaaam
b110101000010101100000000000000001110010001010111 aaaar
r16115 aaabk
r9491 aaabl
r287189 aaabo
r293536 aaabp

#28010
1aaabm

#28500
0aaaaa

#29000
1aaaaa
b110100000000000 aaaam
b101011110010110000000000000000001100010110101000 aaaar
b100011000011101010100000000000001000111101010100000 aaabb
r54315 aaabk
r58455 aaabl
r-18619 aaabo
r-25680 aaabp

#29010
1aaaaz

#29500
0aaaaa

#30000
1aaaaa
b111000000000000 aaaam
b111100110101001000000000000000001010000100001100 aaaar
b1111111111111111101101110100010111111111111111111001101110110000 aaabb
r44844 aaabk
r50600 aaabl
r-10655 aaabo
r56216 aaabp

#30500
0aaaaa

#31000
1aaaaa
b111100000000000 aaaam
b101101011010011000000000000000001100110000100100 aaaar
b1111111111111111110101100110000100000000000000001101101110011000 aaabb
r62290 aaabk
r41228 aaabl
r-37395 aaabo
r8216 aaabp

#31500
0aaaaa

#32000
1aaaaa
b11011000010000000000000000000100101111001010 aaaar
b1111111111111111011011011110110100000000000000000010000000011000 aaabb
r46502 aaabk
r52260 aaabl
r2372.638359308603 aaabo
r8818.960225711089 aaabp

#32010
0aaaaj

#32500
0aaaaa

#33000
1aaaaa
b100001000011100100000000000000001000100111101000 aaaar
b10010100010100000000000000000010001001110011 aaabb
r3460 aaabk
r19402 aaabl
r-35324.63835930861 aaabo
r-21300.96022571109 aaabp

#33500
0aaaaa

#34000
1aaaaa
b10010010111100100000000000000000000111101100010 aaaar
b1111111111111111011101100000001111111111111111111010110011001011 aaabb
r33849 aaabk
r35304 aaabl
r103073.865289462 aaabo
r-67531.33875140767 aaabp

#34500
0aaaaa

#35000
1aaaaa
b101000111111111100000000000000000000001110100111 aaaar
b1100100101010001011111111111111101111100000110101 aaabb
r18809 aaabk
r3938 aaabl
r-17569.865289462 aaabo
r-78010.66124859233 aaabp

#35500
0aaaaa

#36000
1aaaaa
b100011101101011100000000000000000000010011100000 aaaar
b1111111111111111101110110101111011111111111111101100111101000101 aaabb
r41983 aaabk
r935 aaabl
r287375 aaabo
r266290 aaabp

#36500
0aaaaa

#37000
1aaaaa
b10111011010100100000000000000000011000000110001 aaaar
b100011000101000111100000000000001000001000000110010 aaabb
r36567 aaabk
r1248 aaabl
r-32941 aaabo
r11032 aaabp

#37500
0aaaaa

#38000
1aaaaa
b110100111110110000000000000000000011111001011000 aaaar
b1111111111111111011111110101001100000000000000000010101100011000 aaabb
r23977 aaabk
r12337 aaabl
r-26102 aaabo
r-29449 aaabp

#38500
0aaaaa

#39000
1aaaaa
b110000010111100100000000000000000000000110001110 aaaar
b1111111111111111100110100000101011111111111111111000110011110111 aaabb
r54252 aaabk
r15960 aaabl
r30068 aaabo
r59767 aaabp

#39500
0aaaaa

#40000
1aaaaa
b11000010100100100000000000000001000011001001001 aaaar
b11101010111010000000000000000001110100101110111 aaabb
r49529 aaabk
r398 aaabl
r-115009.0014898626 aaabo
r-64892.98529722345 aaabp

#40500
0aaaaa

#41000
1aaaaa
b100111011100011100000000000000001011000011010011 aaaar
b1111111111111110001111101011111111111111111111110000001010000011 aaabb
r24905 aaabk
r34377 aaabl
r-20704.99851013745 aaabo
r77086.98529722345 aaabp

#41500
0aaaaa

#42000
1aaaaa
b111011101001000000000000000000001001111111100000 aaaar
b1111111111111111101011110001111100000000000000010010110100011111 aaabb
r40391 aaabk
r45267 aaabl
r73840.1276686168 aaabo
r-24215.54697326471 aaabp

#42500
0aaaaa

#43000
1aaaaa
b11001101000010000000000000000001010010101011100 aaaar
b1001000000111000011111111111111111010000101101000 aaabb
r61072 aaabk
r40928 aaabl
r-38478.12766861679 aaabo
r-85138.45302673528 aaabp

#43500
0aaaaa

#44000
1aaaaa
b111010010011111100000000000000000101000100010000 aaaar
b1111111111111111011010011011001011111111111111101011001101101110 aaabb
r26244 aaabk
r42332 aaabl
r283871 aaabo
r104497 aaabp

#44500
0aaaaa

#45000
1aaaaa
b111011010000111100000000000000000110000101100101 aaaar
b100010101001101111100000000000000011001100000110001 aaabb
r59711 aaabk
r20752 aaabl
r14805 aaabo
r-6549 aaabp

#45500
0aaaaa

#46000
1aaaaa
b101001000111101000000000000000001111000001001011 aaaar
b1110011101010111111111111111111110011001101011 aaabb
r60687 aaabk
r24933 aaabl
r-49413 aaabo
r34719 aaabp

#46500
0aaaaa

#47000
1aaaaa
b111101010101000100000000000000001011110011111111 aaaar
b1111111111111111001111101111101100000000000000001000011110011111 aaabb
r42106 aaabk
r61515 aaabl
r-17959 aaabo
r57897 aaabp

#47500
0aaaaa

#48000
1aaaaa
b101101110010100000000000000000101010110111001 aaaar
b1111111111111111101110011101100100000000000000001110001000101001 aaabb
r62801 aaabk
r48383 aaabl
r-54825.84320514613 aaabo
r62253.60919390174 aaabp

#48500
0aaaaa

#49000
1aaaaa
b1000100101101100000000000000001110110000001110 aaaar
b1111111111111111001010011101011000000000000000001111001100101110 aaabb
r5861 aaabk
r21945 aaabl
r75643.84320514613 aaabo
r-1227.609193901742 aaabp

#49500
0aaaaa

#50000
1aaaaa
b11100011001000100000000000000001101010001000000 aaaar
b1001001110111110011111111111111111111101100110100 aaabb
r8795 aaabk
r60430 aaabl
r10716.68665043852 aaabo
r17311.80353289282 aaabp

#50500
0aaaaa

#51000
1aaaaa
b101101000100000000000000000000000111001111010010 aaaar
b1010011101110100000000000000000100001110100000 aaabb
r29073 aaabk
r54336 aaabl
r7953.313349561484 aaabo
r13530.19646710718 aaabp

#51500
0aaaaa

#52000
1aaaaa
b101011100001101000000000000000001000101111000010 aaaar
b111110001000100000000000000000011010011011010 aaabb
r46144 aaabk
r29650 aaabl
r358873 aaabo
r306055 aaabp

#52500
0aaaaa

#53000
1aaaaa
b1001110001001100000000000000000000011011110100 aaaar
b101011110011101100100000000000001001010101110000111 aaabb
r44570 aaabk
r35778 aaabl
r21373 aaabo
r15775 aaabp

#53500
0aaaaa

#54000
1aaaaa
b101100010111101000000000000000000111100010001000 aaaar
b10100110111110100000000000000000011110110011111 aaabb
r10003 aaabk
r1780 aaabl
r71779 aaabo
r-58120.99999999999 aaabp

#54500
0aaaaa

#55000
1aaaaa
b101111001010011100000000000000000101100011000010 aaaar
b1000110000110001111111111111111110001110011110111 aaabb
r45434 aaabk
r30856 aaabl
r-47713 aaabo
r17090.99999999999 aaabp

#55500
0aaaaa

#56000
1aaaaa
b111000110011010000000000000000001111011000010101 aaaar
b1111111111111111010001011001111100000000000000000100001011000011 aaabb
r48295 aaabk
r22722 aaabl
r-66414.49864915453 aaabo
r-8311.316293211545 aaabp

#56500
0aaaaa

#57000
1aaaaa
b10110101101110100000000000000001101110100001111 aaaar
b1111111111111110111111001001001011111111111111111101111110001001 aaabb
r58164 aaabk
r62997 aaabl
r13720.49864915452 aaabo
r122093.3162932115 aaabp

#57500
0aaaaa

#58000
1aaaaa
b101010011011110000000000000000000010100010000000 aaaar
b1101011001100000000000000000011101110011101101 aaabb
r23261 aaabk
r56591 aaabl
r-4979.072739331477 aaabo
r-53998.05846454774 aaabp

#58500
0aaaaa

#59000
1aaaaa
b111110101010000000000000000000000011011111110011 aaaar
b1111111111111111111011001000110111111111111111110010110100010010 aaabb
r43452 aaabk
r10368 aaabl
r-23510.92726066852 aaabo
r21552.05846454774 aaabp

#59500
0aaaaa

#60000
1aaaaa
b11101111101010000000000000000001011010000011100 aaaar
b1111111111111111101001000010100100000000000000000101010000110000 aaabb
r64160 aaabk
r14323 aaabl
r290478 aaabo
r298549 aaabp

#60500
0aaaaa

#61000
1aaaaa
b100111001001000100000000000000000001011110110011 aaaar
b100011011101010111000000000000001001000111000110101 aaabb
r30676 aaabk
r46108 aaabl
r-64004 aaabo
r-69385 aaabp

#61500
0aaaaa

#62000
1aaaaa
b11101100011101100000000000000000101110110000101 aaaar
b1111111111111111000001011111110011111111111111101111000011110111 aaabb
r40081 aaabk
r6067 aaabl
r-89224 aaabo
r38065 aaabp

#62500
0aaaaa

#63000
1aaaaa
b110100001101011100000000000000001110111000101001 aaaar
b1111111111111110101000110111100000000000000000001001010010110001 aaabb
r30267 aaabk
r23941 aaabl
r-62058 aaabo
r-18389 aaabp

#63500
0aaaaa

#64000
1aaaaa
b101010000010110100000000000000000111101111000000 aaaar
b1111111111111111000011011001011011111111111111111011100000101011 aaabb
r53463 aaabk
r60969 aaabl
r1119.563281600314 aaabo
r117831.9903298198 aaabp

#64500
0aaaaa

#65000
1aaaaa
b111101001100011100000000000000000110010100110001 aaaar
b1000110000000000000000000011100110001001000 aaabb
r43053 aaabk
r31680 aaabl
r10320.43671839969 aaabo
r3770.009670180196 aaabp

#65500
0aaaaa

#66000
1aaaaa
b100110001101000000000000000000010010111000110 aaaar
b1010000101000000000000000000000000111010111010 aaabb
r62663 aaabk
r25905 aaabl
r-8823.30779131332 aaabo
r41830.77693106626 aaabp

#66500
0aaaaa

#67000
1aaaaa
b1101010011110000000000000000000001111111010101 aaaar
b1111111111111111110111011000100100000000000000001010001101100111 aaabb
r4890 aaabk
r9670 aaabl
r-7448.692208686681 aaabo
r71167.22306893374 aaabp

#67500
0aaaaa

#68000
1aaaaa
b110000010101000000000000000001110010001100101 aaaar
b1111111111111111111000101110011100000000000000010001010111111111 aaabb
r13628 aaabk
r8149 aaabl
r328413 aaabo
r250047 aaabp

#68500
0aaaaa

#69000
1aaaaa
b10001010001000000000000000001101100110000011 aaaar
b101000000101101110100000000000000111101000010111111 aaabb
r6186 aaabk
r58469 aaabl
r33517 aaabo
r25853 aaabp

#69500
0aaaaa

#70000
1aaaaa
b110011011110001000000000000000001010001000010111 aaaar
b100000101110110100000000000000000110010011111101 aaabb
r2210 aaabk
r55683 aaabl
r-97760 aaabo
r-12624 aaabp

#70500
0aaaaa

#71000
1aaaaa
b11110010011111100000000000000001001101111111010 aaaar
b1111111111111110100000100010000011111111111111111100111010110000 aaabb
r52706 aaabk
r41495 aaabl
r-10802 aaabo
r-12644 aaabp

#71500
0aaaaa

#72000
1aaaaa
b110010100100000100000000000000001111100111100110 aaaar
b1111111111111111110101011100111011111111111111111100111010011100 aaabb
r31039 aaabk
r39930 aaabl
r-44786.36016139497 aaabo
r19455.96074079676 aaabp

#72500
0aaaaa

#73000
1aaaaa
b11011011001000000000000000000001001001011010 aaaar
b1111111111111111010100010000111000000000000000000100110000000000 aaabb
r51777 aaabk
r63974 aaabl
r-82145.63983860503 aaabo
r60198.03925920324 aaabp

#73500
0aaaaa

#74000
1aaaaa
b110110111111010000000000000000000000011110100111 aaaar
b1111111111111110101111110001111000000000000000001110101100100110 aaabb
r3506 aaabk
r4698 aaabl
r12355.51275722397 aaabo
r80449.35470080578 aaabp

#74500
0aaaaa

#75000
1aaaaa
b100100100011100000000000000001110001101001010 aaaar
b1100000100010000000000000000010011101001000001 aaabb
r56308 aaabk
r1959 aaabl
r47296.48724277603 aaabo
r41992.64529919422 aaabp

#75500
0aaaaa

#76000
1aaaaa
b10101100111000100000000000000000010110111011101 aaaar
b101110001100000000000000000000001010010000001001 aaabb
r4679 aaabk
r58186 aaabl
r225099 aaabo
r303275 aaabp

#76500
0aaaaa

#77000
1aaaaa
b111011000101100000000000000001101010101100111 aaaar
b11011011110100101100000000000001001010000010101011 aaabb
r22129 aaabk
r11741 aaabl
r-6019 aaabo
r-43941 aaabp

#77500
0aaaaa

#78000
1aaaaa
b110001011100011000000000000000000100100010111010 aaaar
b1111111111111111111010000111110111111111111111110101010001011011 aaabb
r7563 aaabk
r54631 aaabl
r-51072 aaabo
r33875.99999999999 aaabp

#78500
0aaaaa

#79000
1aaaaa
b100110111010101000000000000000000001000100011000 aaaar
b1111111111111111001110001000000000000000000000001000010001010100 aaabb
r50630 aaabk
r18618 aaabl
r91484 aaabo
r33142.00000000001 aaabp

#79500
0aaaaa

#80000
1aaaaa
b111110101001100000000000000000001101001100100010 aaaar
b1011001010101110000000000000000001000000101110110 aaabb
r39850 aaabk
r4376 aaabl
r702.3912701661102 aaabo
r35070.67262946191 aaabp

#80500
0aaaaa

#81000
1aaaaa
b100111000101010000000000000000001000101101010001 aaaar
b101011111000000000000000001000100011111111 aaabb
r64152 aaabk
r54050 aaabl
r56641.60872983389 aaabo
r-59804.67262946191 aaabp

#81500
0aaaaa

#82000
1aaaaa
b11000101110000000000000000000001010111000101111 aaaar
b110111010100001011111111111111110001011001100011 aaabb
r40020 aaabk
r35665 aaabl
r67411.01644644624 aaabo
r37470.77359112178 aaabp

#82500
0aaaaa

#83000
1aaaaa
b10011100110001000000000000000001011011100101111 aaaar
b1000001110101001100000000000000001001001001011111 aaabb
r25312 aaabk
r44591 aaabl
r117056.9835535538 aaabo
r-131848.7735911218 aaabp

#83500
0aaaaa

#84000
1aaaaa
b110100001000000000000000000000000110101110111000 aaaar
b1110010010100000111111111111111011111110011110111 aaabb
r20066 aaabk
r46895 aaabl
r248817 aaabo
r208259 aaabp

#84500
0aaaaa

#85000
1aaaaa
b110001110101100100000000000000000111101010010010 aaaar
b11110010111111000100000000000000110010110110000011 aaabb
r53376 aaabk
r27576 aaabl
r-137621 aaabo
r35523 aaabp

#85500
0aaaaa

#86000
1aaaaa
b111100111101000100000000000000001011000110011000 aaaar
b1111111111111101111001100110101100000000000000001000101011000011 aaabb
r51033 aaabk
r31378 aaabl
r-78674 aaabo
r-23890 aaabp

#86500
0aaaaa

#87000
1aaaaa
b100111111010111000000000000000001010010011000001 aaaar
b1111111111111110110011001010111011111111111111111010001010101110 aaabb
r62417 aaabk
r45464 aaabl
r11754 aaabo
r17424 aaabp

#87500
0aaaaa

#88000
1aaaaa
b110000110011000100000000000000000101111100010101 aaaar
b1011011110101000000000000000000100010000010000 aaabb
r40878 aaabk
r42177 aaabl
r41786.02789637117 aaabo
r29075.08489966001 aaabp

#88500
0aaaaa

#89000
1aaaaa
b100000011110011000000000000000001010100010111000 aaaar
b101000110011101000000000000000000111000110010011 aaabb
r49969 aaabk
r24341 aaabl
r57719.97210362883 aaabo
r-58599.08489966001 aaabp

#89500
0aaaaa

#90000
1aaaaa
b100100111111001100000000000000001001010111001010 aaaar
b111000010111100011111111111111110001101100011001 aaabb
r33254 aaabk
r43192 aaabl
r-133293.3732423878 aaabo
r-77541.49297520988 aaabp

#90500
0aaaaa

#91000
1aaaaa
b1100000110010000000000000000001111010010111111 aaaar
b1111111111111101111101110101001111111111111111101101000100011011 aaabb
r37875 aaabk
r38346 aaabl
r17559.37324238784 aaabo
r-92666.50702479012 aaabp

#91500
0aaaaa

#92000
1aaaaa
b110110000000000000000000000001111101111000101 aaaar
b10001001001011111111111111111101001011000000101 aaabb
r12388 aaabk
r62655 aaabl
r343071 aaabo
r298087 aaabp

#92500
0aaaaa

#93000
1aaaaa
b1001011100100000000000000000001100100010101 aaaar
b101001111000001111100000000000001001000110001100111 aaabb
r6912 aaabk
r64453 aaabl
r-39077 aaabo
r14143 aaabp

#93500
0aaaaa

#94000
1aaaaa
b100110011101110100000000000000000100011010111111 aaaar
b1111111111111111011001110101101100000000000000000011011100111111 aaabb
r1209 aaabk
r6421 aaabl
r68247 aaabo
r-6412.999999999998 aaabp

#94500
0aaaaa

#95000
1aaaaa
b111011000000101100000000000000001110101101011101 aaaar
b1000010101001011111111111111111111110011011110011 aaabb
r39389 aaabk
r18111 aaabl
r-8029 aaabo
r-37645 aaabp

#95500
0aaaaa

#96000
1aaaaa
b11110000100000100000000000000000000110010111100 aaaar
b1111111111111111111000001010001111111111111111110110110011110011 aaabb
r60427 aaabk
r60253 aaabl
r-33271.12370226679 aaabo
r46022.28965530994 aaabp

#96500
0aaaaa

#97000
1aaaaa
b101011000011000100000000000000000110111100011111 aaaar
b1111111111111111011111100000100100000000000000001011001111000110 aaabb
r30785 aaabk
r3260 aaabl
r20681.12370226679 aaabo
r4175.710344690062 aaabp

#97500
0aaaaa

#98000
1aaaaa
b100100011101000100000000000000001011110101101111 aaaar
b10100001100100100000000000000000001000001010000 aaabb
r44081 aaabk
r28447 aaabl
r14585.49613659204 aaabo
r10207.87896953862 aaabp

#98500
0aaaaa

#99000
1aaaaa
b111111000011110100000000000000001101001111100001 aaaar
b1110001111100100000000000000000010011111100000 aaabb
r37329 aaabk
r48495 aaabl
r-46047.49613659203 aaabo
r-43257.87896953862 aaabp

#99500
0aaaaa

#100000
1aaaaa
b111011010010100100000000000000000001101111010111 aaaar
b1111111111111111010011000010000111111111111111110101011100000110 aaabb
r64573 aaabk
r54241 aaabl
r222239 aaabo
r296691 aaabp

#100500
0aaaaa

#101000
1aaaaa
b11001010111000100000000000000001010111001001010 aaaar
b11011001000001111100000000000001001000011011110011 aaabb
r60713 aaabk
r7127 aaabl
r-7683 aaabo
r48351 aaabp

#101500
0aaaaa

#102000
1aaaaa
b10010000110100000000000000000001110010100011001 aaaar
b1111111111111111111000011111110100000000000000001011110011011111 aaabb
r25969 aaabk
r44618 aaabl
r-49608 aaabo
r-112862 aaabp

#102500
0aaaaa

#103000
1aaaaa
b110010101100110100000000000000000010110110000111 aaaar
b1111111111111111001111100011100011111111111111100100011100100010 aaabb
r18536 aaabk
r58649 aaabl
r-27096 aaabo
r-33728 aaabp

#103500
0aaaaa

#104000
1aaaaa
b1111100001010000000000000000000111111000011101 aaaar
b1111111111111111100101100010100011111111111111110111110001000000 aaabb
r51917 aaabk
r11655 aaabl
r107835.4914990082 aaabo
r73799.64031014427 aaabp

#104500
0aaaaa

#105000
1aaaaa
b100111010110000000000000000000000110111000010010 aaaar
b1101001010011101100000000000000010010000001001000 aaabb
r15892 aaabk
r32285 aaabl
r-38941.4914990082 aaabo
r95820.35968985573 aaabp

#105500
0aaaaa

#106000
1aaaaa
b1011011000010100000000000000000100100000101011 aaaar
b1111111111111111011001111110001100000000000000010111011001001100 aaabb
r40288 aaabk
r28178 aaabl
r71411.09045790818 aaabo
r35644.99939782149 aaabp

#106500
0aaaaa

#107000
1aaaaa
b110111100001010100000000000000001001100110110100 aaaar
b1000101101111001100000000000000001000101100111101 aaabb
r11653 aaabk
r18475 aaabl
r-12125.09045790817 aaabo
r-58180.99939782149 aaabp

#107500
0aaaaa

#108000
1aaaaa
b101101000000010100000000000000001101110110000001 aaaar
b1111111111111111110100001010001111111111111111110001110010111011 aaabb
r56853 aaabk
r39348 aaabl
r319010 aaabo
r285517 aaabp

#108500
0aaaaa

#109000
1aaaaa
b110000001001100100000000000000001001101000101000 aaaar
b100110111100010001000000000000001000101101101001101 aaabb
r46085 aaabk
r56705 aaabl
r54070 aaabo
r-7595 aaabp

#109500
0aaaaa

#110000
1aaaaa
b100111000001000000000000000000001000101001011011 aaaar
b110100110011011011111111111111111110001001010101 aaabb
r49305 aaabk
r39464 aaabl
r21292 aaabo
r27909 aaabp

#110500
0aaaaa

#111000
1aaaaa
b10000100100000000000000000000001010110110010011 aaaar
b10100110010110000000000000000000110110100000101 aaabb
r39952 aaabk
r35419 aaabl
r-114172 aaabo
r-13571 aaabp

#111500
0aaaaa

#112000
1aaaaa
b110100001000100100000000000000001100101001010111 aaaar
b1111111111111110010000100000010011111111111111111100101011111101 aaabb
r16960 aaabk
r44435 aaabl
r17324.07004201717 aaabo
r-63199.46063347808 aaabp

#112500
0aaaaa

#113000
1aaaaa
b110110110001010100000000000000001101101010111001 aaaar
b10000111010110011111111111111110000100100100001 aaabb
r53385 aaabk
r51799 aaabl
r104071.9299579828 aaabo
r5545.460633478084 aaabp

#113500
0aaaaa

#114000
1aaaaa
b111000100101110000000000000000001100010011011110 aaaar
b1100101101000100000000000000000000001010110101001 aaabb
r56085 aaabk
r55993 aaabl
r-31038.7793565359 aaabo
r-59106.320923324 aaabp

#114500
0aaaaa

#115000
1aaaaa
b101101001111010000000000000000001101111100100110 aaaar
b1111111111111111100001101100000111111111111111110001100100011110 aaabb
r57948 aaabk
r50398 aaabl
r-17909.2206434641 aaabo
r52076.320923324 aaabp

#115500
0aaaaa

#116000
1aaaaa
b110111001000111100000000000000001001101010001100 aaaar
b1111111111111111101110100000101100000000000000001100101101101100 aaabb
r46324 aaabk
r57126 aaabl
r314481 aaabo
r313823 aaabp

#116500
0aaaaa

#117000
1aaaaa
b101100010011111000000000000000000100000110000001 aaaar
b100110011000111000100000000000001001100100111011111 aaabb
r56463 aaabk
r39564 aaabl
r12331 aaabo
r-10973 aaabp

#117500
0aaaaa

#118000
1aaaaa
b100111110000000100000000000000000001000000101111 aaaar
b1100000010101111111111111111111101010100100011 aaabb
r45374 aaabk
r16769 aaabl
r-38830 aaabo
r31724 aaabp

#118500
0aaaaa

#119000
1aaaaa
b110101100111000100000000000000001100101110110101 aaaar
b1111111111111111011010000101001000000000000000000111101111101100 aaabb
r40705 aaabk
r4143 aaabl
r70390 aaabo
r-64006 aaabp

#119500
0aaaaa

#120000
1aaaaa
b111111101000011000000000000000001111101110111000 aaaar
b1000100101111011011111111111111110000010111111010 aaabb
r54897 aaabk
r52149 aaabl
r-37464.68673005997 aaabo
r-41456.98886546616 aaabp

#120500
0aaaaa

#121000
1aaaaa
b1001001001010000000000000000000001101010100100 aaaar
b1111111111111111011011011010011111111111111111110101111000001111 aaabb
r65158 aaabk
r64440 aaabl
r9256.686730059973 aaabo
r-60901.01113453384 aaabp

#121500
0aaaaa

#122000
1aaaaa
b100001100000100100000000000000000101100100101111 aaaar
b1001000010100111111111111111110001001000011011 aaabb
r9364 aaabk
r6820 aaabl
r2406.383866212644 aaabo
r69229.57747238596 aaabp

#122500
0aaaaa

#123000
1aaaaa
b1111010010000000000000000000110001011001101 aaaar
b10010110011000000000000000010000111001101110 aaabb
r34313 aaabk
r22831 aaabl
r-10266.38386621265 aaabo
r-12015.57747238596 aaabp

#123500
0aaaaa

#124000
1aaaaa
b100011001110000100000000000000000010101001111100 aaaar
b1111111111111111110101111110011011111111111111111101000100010000 aaabb
r1956 aaabk
r25293 aaabl
r422954 aaabo
r340582 aaabp

#124500
0aaaaa

#125000
1aaaaa
b111100000101101000000000000000000111010010100001 aaaar
b110011101000010101000000000000001010011001001100110 aaabb
r36065 aaabk
r10876 aaabl
r-17594 aaabo
r23492 aaabp

#125500
0aaaaa

#126000
1aaaaa
b101011011111011000000000000000000000111110011110 aaaar
b1111111111111111101110110100011000000000000000000101101111000100 aaabb
r61530 aaabk
r29857 aaabl
r-49225 aaabo
r-13545 aaabp

#126500
0aaaaa

#127000
1aaaaa
b11001111000011100000000000000000100111110110000 aaaar
b1111111111111111001111111011011111111111111111111100101100010111 aaabb
r44534 aaabk
r3998 aaabl
r49701 aaabo
r-59481 aaabp

#127500
0aaaaa

#128000
1aaaaa
b111101000001000000000000000001100111111100001 aaaar
b110000100010010111111111111111110001011110100111 aaabb
r26503 aaabk
r20400 aaabl
r49146.17156540386 aaabo
r92049.86368699771 aaabp

#128500
0aaaaa

#129000
1aaaaa
b100010010111011000000000000000001011010001000101 aaaar
b101111111111101000000000000000010110011110010010 aaabb
r7810 aaabk
r53217 aaabl
r-17770.17156540386 aaabo
r3544.136313002295 aaabp

#129500
0aaaaa

#130000
1aaaaa
b11010011111111000000000000000001101010100101011 aaaar
b1111111111111111101110101001011000000000000000000000110111011000 aaabb
r35190 aaabk
r46149 aaabl
r2510.300184570538 aaabo
r-25690.56121816292 aaabp

#130500
0aaaaa

#131000
1aaaaa
b100001101110011000000000000000001000010110111100 aaaar
b10011100111011111111111111111001101110100101 aaabb
r27134 aaabk
r54571 aaabl
r8957.699815429463 aaabo
r86992.56121816291 aaabp

#131500
0aaaaa

#132000
1aaaaa
b101100110011011000000000000000001100100110100101 aaaar
b1000101111111000000000000000010101001111010001 aaabb
r34534 aaabk
r34236 aaabl
r222075 aaabo
r173292 aaabp

#132500
0aaaaa

