out/sweep/trace_N16_M2_A2.vcd
$date
     Jul 10, 2026       18:52:39
$end

$version
 SystemC 2.3.3-Accellera --- Jun 25 2026 10:44:53
$end

$timescale
     1 ps
$end

$scope module SystemC $end
$scope module Control $end
$var wire    1  aaaaa  clk       $end
$var wire    1  aaaab  rst_n       $end
$var wire    1  aaaac  start_signal       $end
$upscope $end
$scope module Core0 $end
$var wire   32  aaaaf  base_addr [31:0]  $end
$var wire   32  aaaag  num_samples [31:0]  $end
$var wire    1  aaaah  start       $end
$var wire    1  aaaai  busy       $end
$scope module AXI_AR $end
$var wire    1  aaaaj  ar_val       $end
$var wire    1  aaaak  ar_rdy       $end
$var wire    4  aaaal  ar_msg_id [3:0]  $end
$var wire   32  aaaam  ar_msg_addr [31:0]  $end
$var wire    8  aaaan  ar_msg_len [7:0]  $end
$upscope $end
$scope module AXI_AW $end
$var wire    1  aaaau  aw_val       $end
$var wire    1  aaaav  aw_rdy       $end
$var wire    4  aaaaw  aw_msg_id [3:0]  $end
$var wire   32  aaaax  aw_msg_addr [31:0]  $end
$var wire    8  aaaay  aw_msg_len [7:0]  $end
$upscope $end
$scope module AXI_B $end
$var wire    1  aaabe  b_val       $end
$var wire    1  aaabf  b_rdy       $end
$var wire    4  aaabg  b_msg_id [3:0]  $end
$var wire    2  aaabh  b_msg_resp [1:0]  $end
$upscope $end
$scope module AXI_R $end
$var wire    1  aaaao  r_val       $end
$var wire    1  aaaap  r_rdy       $end
$var wire    4  aaaaq  r_msg_id [3:0]  $end
$var wire   64  aaaar  r_msg_data [63:0]  $end
$var wire    2  aaaas  r_msg_resp [1:0]  $end
$var wire    1  aaaat  r_msg_last       $end
$upscope $end
$scope module AXI_W $end
$var wire    1  aaaaz  w_val       $end
$var wire    1  aaaba  w_rdy       $end
$var wire   64  aaabb  w_msg_data [63:0]  $end
$var wire    1  aaabc  w_msg_last       $end
$var wire    8  aaabd  w_msg_wstrb [7:0]  $end
$upscope $end
$scope module Internal $end
$var wire    1  aaabi  dma_to_fft_val       $end
$var wire    1  aaabj  dma_to_fft_rdy       $end
$var real    1  aaabk  dma_to_fft_msg_real       $end
$var real    1  aaabl  dma_to_fft_msg_imag       $end
$var wire    1  aaabm  fft_to_dma_val       $end
$var wire    1  aaabn  fft_to_dma_rdy       $end
$var real    1  aaabo  fft_to_dma_msg_real       $end
$var real    1  aaabp  fft_to_dma_msg_imag       $end
$upscope $end
$upscope $end
$scope module Stagger $end
$var wire    1  aaaad  active       $end
$var wire   32  aaaae  counter [31:0]  $end
$upscope $end
$upscope $end
$enddefinitions  $end

$comment
All initial values are dumped below at time 0 sec = 0 timescale units.
$end

$dumpvars
1aaaaa
0aaaab
0aaaac
0aaaad
b0 aaaae
b0 aaaaf
b0 aaaag
0aaaah
0aaaai
0aaaaj
0aaaak
b0 aaaal
b0 aaaam
b0 aaaan
0aaaao
0aaaap
b0 aaaaq
b0 aaaar
b0 aaaas
0aaaat
0aaaau
0aaaav
b0 aaaaw
b0 aaaax
b0 aaaay
0aaaaz
0aaaba
b0 aaabb
0aaabc
b11111111 aaabd
0aaabe
0aaabf
b0 aaabg
b0 aaabh
0aaabi
0aaabj
r0 aaabk
r0 aaabl
0aaabm
0aaabn
r0 aaabo
r0 aaabp
$end

#10
1aaaak
1aaaap
1aaaav
1aaaba
1aaabf
1aaabj
1aaabn

#500
0aaaaa

#1000
1aaaaa

#1500
0aaaaa

#2000
1aaaaa

#2500
0aaaaa

#3000
1aaaaa

#3500
0aaaaa

#4000
1aaaaa

#4500
0aaaaa

#5000
1aaaaa
1aaaab

#5500
0aaaaa

#6000
1aaaaa

#6500
0aaaaa

#7000
1aaaaa

#7500
0aaaaa

#8000
1aaaaa

#8500
0aaaaa

#9000
1aaaaa

#9500
0aaaaa

#10000
1aaaaa

#10500
0aaaaa

#11000
1aaaaa

#11500
0aaaaa

#12000
1aaaaa

#12500
0aaaaa

#13000
1aaaaa

#13500
0aaaaa

#14000
1aaaaa

#14500
0aaaaa

#15000
1aaaaa
1aaaac
1aaaad
b1 aaaae
b1000000000000 aaaag
1aaaah

#15500
0aaaaa

#16000
1aaaaa
0aaaac
b10 aaaae
0aaaah
1aaaai
b11111111 aaaan
b10000000 aaaax
b11111111 aaaay

#16010
1aaaaj
1aaaau

#16500
0aaaaa

#17000
1aaaaa
b11 aaaae
b100000000000 aaaam
b100001010101011000000000000000000101010100010111 aaaar

#17010
1aaaao
0aaaau

#17500
0aaaaa

#18000
1aaaaa
b100 aaaae
b1000000000000 aaaam
b10100110011101000000000000000001110011001100000 aaaar
r34134 aaabk
r21783 aaabl

#18010
1aaabi

#18500
0aaaaa

#19000
1aaaaa
0aaaad
b101 aaaae
b1100000000000 aaaam
b10110011010000100000000000000000010100101111101 aaaar
r21306 aaabk
r58976 aaabl

#19500
0aaaaa

#20000
1aaaaa
b10000000000000 aaaam
b101110110110000100000000000000001011111010110011 aaaar
r22945 aaabk
r10621 aaabl

#20500
0aaaaa

#21000
1aaaaa
b10100000000000 aaaam
b10100100000010000000000000000001110111101101001 aaaar
r47969 aaabk
r48819 aaabl

#21500
0aaaaa

#22000
1aaaaa
b11000000000000 aaaam
b101010001000101000000000000000000110101101111001 aaaar
r20996 aaabk
r61289 aaabl

#22500
0aaaaa

#23000
1aaaaa
b11100000000000 aaaam
b110110111001001000000000000000001001110100101011 aaaar
r43146 aaabk
r27513 aaabl

#23500
0aaaaa

#24000
1aaaaa
b100000000000000 aaaam
b100111100010001100000000000000000101111011101100 aaaar
r56210 aaabk
r40235 aaabl

#24500
0aaaaa

#25000
1aaaaa
b100100000000000 aaaam
b10011010010110000000000000000000110011011000110 aaaar
r40483 aaabk
r24300 aaabl

#25500
0aaaaa

#26000
1aaaaa
b101000000000000 aaaam
b100111001001110100000000000000000010000101100000 aaaar
r19756 aaabk
r26310 aaabl

#26500
0aaaaa

#27000
1aaaaa
b101100000000000 aaaam
b1111101111001100000000000000000010010100010011 aaaar
r40093 aaabk
r8544 aaabl

#27500
0aaaaa

#28000
1aaaaa
b110000000000000 aaaam
b110101000010101100000000000000001110010001010111 aaaar
r16115 aaabk
r9491 aaabl

#28010
0aaabj

#28500
0aaaaa

#29000
1aaaaa
b110100000000000 aaaam
b101011110010110000000000000000001100010110101000 aaaar

#29500
0aaaaa

#30000
1aaaaa
b111000000000000 aaaam
b111100110101001000000000000000001010000100001100 aaaar

#30010
0aaaap

#30500
0aaaaa

#31000
1aaaaa
b111100000000000 aaaam

#31010
1aaabj

#31500
0aaaaa

#32000
1aaaaa
r54315 aaabk
r58455 aaabl

#32010
0aaaaj
1aaaap
0aaabj

#32500
0aaaaa

#33000
1aaaaa
b101101011010011000000000000000001100110000100100 aaaar

#33010
0aaaap

#33500
0aaaaa

#34000
1aaaaa

#34500
0aaaaa

#35000
1aaaaa

#35010
1aaabj

#35500
0aaaaa

#36000
1aaaaa
r44844 aaabk
r50600 aaabl

#36010
1aaaap
0aaabj

#36500
0aaaaa

#37000
1aaaaa
b11011000010000000000000000000100101111001010 aaaar

#37010
0aaaap

#37500
0aaaaa

#38000
1aaaaa

#38500
0aaaaa

#39000
1aaaaa

#39010
1aaabj

#39500
0aaaaa

#40000
1aaaaa
r62290 aaabk
r41228 aaabl

#40010
1aaaap
0aaabj

#40500
0aaaaa

#41000
1aaaaa
b100001000011100100000000000000001000100111101000 aaaar

#41010
0aaaap

#41500
0aaaaa

#42000
1aaaaa

#42500
0aaaaa

#43000
1aaaaa

#43010
1aaabj

#43500
0aaaaa

#44000
1aaaaa
r46502 aaabk
r52260 aaabl

#44010
1aaaap
0aaabj

#44500
0aaaaa

#45000
1aaaaa
b10010010111100100000000000000000000111101100010 aaaar

#45010
0aaaap

#45500
0aaaaa

#46000
1aaaaa

#46500
0aaaaa

#47000
1aaaaa

#47010
1aaabj

#47500
0aaaaa

#48000
1aaaaa
r3460 aaabk
r19402 aaabl

#48010
1aaaap
0aaabj

#48500
0aaaaa

#49000
1aaaaa
b101000111111111100000000000000000000001110100111 aaaar

#49010
0aaaap

#49500
0aaaaa

#50000
1aaaaa

#50500
0aaaaa

#51000
1aaaaa

#51010
1aaabj

#51500
0aaaaa

#52000
1aaaaa
r33849 aaabk
r35304 aaabl

#52010
1aaaap
0aaabj

#52500
0aaaaa

#53000
1aaaaa
b100011101101011100000000000000000000010011100000 aaaar

#53010
0aaaap

#53500
0aaaaa

#54000
1aaaaa

#54500
0aaaaa

#55000
1aaaaa

#55010
1aaabj

#55500
0aaaaa

#56000
1aaaaa
r18809 aaabk
r3938 aaabl

#56010
1aaaap
0aaabj

#56500
0aaaaa

#57000
1aaaaa
b10111011010100100000000000000000011000000110001 aaaar

#57010
0aaaap

#57500
0aaaaa

#58000
1aaaaa

#58500
0aaaaa

#59000
1aaaaa

#59010
1aaabj

#59500
0aaaaa

#60000
1aaaaa
r41983 aaabk
r935 aaabl

#60010
1aaaap

#60500
0aaaaa

#61000
1aaaaa
b110100111110110000000000000000000011111001011000 aaaar
r36567 aaabk
r1248 aaabl

#61500
0aaaaa

#62000
1aaaaa
b110000010111100100000000000000000000000110001110 aaaar
r23977 aaabk
r12337 aaabl

#62010
0aaabj

#62500
0aaaaa

#63000
1aaaaa
b11000010100100100000000000000001000011001001001 aaaar

#63010
0aaaap

#63500
0aaaaa

#64000
1aaaaa

#64500
0aaaaa

#65000
1aaaaa

#65010
1aaabj

#65500
0aaaaa

#66000
1aaaaa
r54252 aaabk
r15960 aaabl

#66010
1aaaap

#66500
0aaaaa

#67000
1aaaaa
b100111011100011100000000000000001011000011010011 aaaar
r49529 aaabk
r398 aaabl

#67500
0aaaaa

#68000
1aaaaa
b111011101001000000000000000000001001111111100000 aaaar
r24905 aaabk
r34377 aaabl

#68010
0aaabj

#68500
0aaaaa

#69000
1aaaaa
b11001101000010000000000000000001010010101011100 aaaar

#69010
0aaaap

#69500
0aaaaa

#70000
1aaaaa

#70500
0aaaaa

#71000
1aaaaa

#71010
1aaabj

#71500
0aaaaa

#72000
1aaaaa
r40391 aaabk
r45267 aaabl

#72010
1aaaap

#72500
0aaaaa

#73000
1aaaaa
b111010010011111100000000000000000101000100010000 aaaar
r61072 aaabk
r40928 aaabl

#73010
0aaabj

#73500
0aaaaa

#74000
1aaaaa
b111011010000111100000000000000000110000101100101 aaaar
r574564 aaabo
r559826 aaabp

#74010
0aaaap
1aaabm

#74500
0aaaaa

#75000
1aaaaa
b1000110001000110010000000000000010001000101011010010 aaabb
r-51560 aaabo
r-14648 aaabp

#75010
1aaaaz

#75500
0aaaaa

#76000
1aaaaa
b1111111111111111001101101001100011111111111111111100011011001000 aaabb

#76010
1aaabj
0aaabm

#76500
0aaaaa

#77000
1aaaaa
r26244 aaabk
r42332 aaabl

#77010
1aaaap
0aaaaz
0aaabj

#77500
0aaaaa

#78000
1aaaaa
b101001000111101000000000000000001111000001001011 aaaar

#78010
0aaaap

#78500
0aaaaa

#79000
1aaaaa
r-36757 aaabo
r26767 aaabp

#79010
1aaabm

#79500
0aaaaa

#80000
1aaaaa
b1111111111111111011100000110101100000000000000000110100010001111 aaabb
r-7327.000000000002 aaabo
r67983 aaabp

#80010
1aaaaz
1aaabj

#80500
0aaaaa

#81000
1aaaaa
b1111111111111111111000110110000100000000000000010000100110001111 aaabb
r59711 aaabk
r20752 aaabl

#81010
1aaaap
0aaabj
0aaabm

#81500
0aaaaa

#82000
1aaaaa
b111101010101000100000000000000001011110011111111 aaaar

#82010
0aaaap
0aaaaz

#82500
0aaaaa

#83000
1aaaaa

#83500
0aaaaa

#84000
1aaaaa
r-112636.3631305539 aaabo
r-56074.02507151235 aaabp

#84010
1aaabj
1aaabm

#84500
0aaaaa

#85000
1aaaaa
b1111111111111110010010000000010011111111111111110010010011110110 aaabb
r60687 aaabk
r24933 aaabl
r-56029.63686944607 aaabo
r55786.02507151234 aaabp

#85010
1aaaap
1aaaaz
0aaabj

#85500
0aaaaa

#86000
1aaaaa
b101101110010100000000000000000101010110111001 aaaar
b1111111111111111001001010010001000000000000000001101100111101010 aaabb

#86010
0aaaap
0aaabm

#86500
0aaaaa

#87000
1aaaaa

#87010
0aaaaz

#87500
0aaaaa

#88000
1aaaaa

#88010
1aaabj

#88500
0aaaaa

#89000
1aaaaa
r42106 aaabk
r61515 aaabl
r176913.9929580788 aaabo
r-91746.88572467238 aaabp

#89010
1aaaap
0aaabj
1aaabm

#89500
0aaaaa

#90000
1aaaaa
b1000100101101100000000000000001110110000001110 aaaar
b10101100110001001011111111111111101001100110011101 aaabb
r-56047.99295807877 aaabo
r-163149.1142753276 aaabp

#90010
0aaaap
1aaaaz

#90500
0aaaaa

#91000
1aaaaa
b1111111111111111001001010001000011111111111111011000001010110011 aaabb

#91010
0aaabm

#91500
0aaaaa

#92000
1aaaaa

#92010
0aaaaz
1aaabj

#92500
0aaaaa

#93000
1aaaaa
r62801 aaabk
r48383 aaabl

#93010
1aaaap
0aaabj

#93500
0aaaaa

#94000
1aaaaa
b11100011001000100000000000000001101010001000000 aaaar

#94010
0aaaap

#94500
0aaaaa

#95000
1aaaaa

#95500
0aaaaa

#96000
1aaaaa

#96010
1aaabj

#96500
0aaaaa

#97000
1aaaaa
r5861 aaabk
r21945 aaabl
r-31735.75249023945 aaabo
r77128.82832433496 aaabp

#97010
1aaaap
0aaabj
1aaabm

#97500
0aaaaa

#98000
1aaaaa
b101101000100000000000000000000000111001111010010 aaaar
b1111111111111111100001000000100000000000000000010010110101001001 aaabb
r62391.78909567482 aaabo
r-43271.11280584313 aaabp

#98010
0aaaap
1aaaaz

#98500
0aaaaa

#99000
1aaaaa
b111100111011100011111111111111110101011011111001 aaabb

#99010
0aaabm

#99500
0aaaaa

#100000
1aaaaa

#100010
0aaaaz
1aaabj

#100500
0aaaaa

#101000
1aaaaa
r8795 aaabk
r60430 aaabl

#101010
1aaaap
0aaabj

#101500
0aaaaa

#102000
1aaaaa
b101011100001101000000000000000001000101111000010 aaaar
r128041.6496776641 aaabo
r-18545.92840130633 aaabp

#102010
0aaaap
1aaabm

#102500
0aaaaa

#103000
1aaaaa
b1111101000010101011111111111111111011011110001110 aaabb
r-58429.68628309949 aaabo
r61972.21288281451 aaabp

#103010
1aaaaz

#103500
0aaaaa

#104000
1aaaaa
b1111111111111111000110111100001000000000000000001111001000010100 aaabb

#104010
1aaabj
0aaabm

#104500
0aaaaa

#105000
1aaaaa
r29073 aaabk
r54336 aaabl

#105010
1aaaap
0aaaaz
0aaabj

#105500
0aaaaa

#106000
1aaaaa
b1001110001001100000000000000000000011011110100 aaaar

#106010
0aaaap

#106500
0aaaaa

#107000
1aaaaa
r24893.04768085905 aaabo
r-62316.98670343566 aaabp

#107010
1aaabm

#107500
0aaaaa

#108000
1aaaaa
b11000010011110111111111111111110000110010010011 aaabb
r-28852.79781040415 aaabo
r-36425.25660410865 aaabp

#108010
1aaaaz
1aaabj

#108500
0aaaaa

#109000
1aaaaa
b1111111111111111100011110100101111111111111111110111000110110111 aaabb
r46144 aaabk
r29650 aaabl

#109010
1aaaap
0aaabm

#109500
0aaaaa

#110000
1aaaaa
b101100010111101000000000000000000111100010001000 aaaar
r44570 aaabk
r35778 aaabl

#110010
0aaaaz

#110500
0aaaaa

#111000
1aaaaa
b101111001010011100000000000000000101100011000010 aaaar
r10003 aaabk
r1780 aaabl

#111010
0aaabj

#111500
0aaaaa

#112000
1aaaaa
b111000110011010000000000000000001111011000010101 aaaar
r55622.37255590841 aaabo
r-34436.70048911104 aaabp

#112010
0aaaap
1aaabm

#112500
0aaaaa

#113000
1aaaaa
b110110010100011011111111111111110111100101111011 aaabb

#113010
1aaaaz
0aaabm

#113500
0aaaaa

#114000
1aaaaa

#114010
0aaaaz
1aaabj

#114500
0aaaaa

#115000
1aaaaa
r45434 aaabk
r30856 aaabl
r-36906.6224263633 aaabo
r19678.94379665536 aaabp

#115010
1aaaap
1aaabm

#115500
0aaaaa

#116000
1aaaaa
b10110101101110100000000000000001101110100001111 aaaar
b1111111111111111011011111101010100000000000000000100110011011111 aaabb
r48295 aaabk
r22722 aaabl

#116010
1aaaaz
0aaabm

#116500
0aaaaa

#117000
1aaaaa
b101010011011110000000000000000000010100010000000 aaaar
r58164 aaabk
r62997 aaabl

#117010
0aaaaz
0aaabj

#117500
0aaaaa

#118000
1aaaaa
b111110101010000000000000000000000011011111110011 aaaar

#118010
0aaaap

#118500
0aaaaa

#119000
1aaaaa

#119500
0aaaaa

#120000
1aaaaa

#120010
1aaabj

#120500
0aaaaa

#121000
1aaaaa
r23261 aaabk
r56591 aaabl

#121010
1aaaap

#121500
0aaaaa

#122000
1aaaaa
b11101111101010000000000000000001011010000011100 aaaar
r43452 aaabk
r10368 aaabl

#122010
0aaabj

#122500
0aaaaa

#123000
1aaaaa
b100111001001000100000000000000000001011110110011 aaaar
r642744 aaabo
r410552 aaabp

#123010
0aaaap
1aaabm

#123500
0aaaaa

#124000
1aaaaa
b1001110011101011100000000000000001100100001110111000 aaabb
r36178 aaabo
r9226 aaabp

#124010
1aaaaz

#124500
0aaaaa

#125000
1aaaaa
b100011010101001000000000000000000010010000001010 aaabb

#125010
1aaabj
0aaabm

#125500
0aaaaa

#126000
1aaaaa
r64160 aaabk
r14323 aaabl

#126010
1aaaap
0aaaaz
0aaabj

#126500
0aaaaa

#127000
1aaaaa
b11101100011101100000000000000000101110110000101 aaaar

#127010
0aaaap

#127500
0aaaaa

#128000
1aaaaa
r22366 aaabo
r-23402 aaabp

#128010
1aaabm

#128500
0aaaaa

#129000
1aaaaa
b10101110101111011111111111111111010010010010110 aaabb
r-65672 aaabo
r74988 aaabp

#129010
1aaaaz
1aaabj

#129500
0aaaaa

#130000
1aaaaa
b1111111111111110111111110111100000000000000000010010010011101100 aaabb
r30676 aaabk
r46108 aaabl

#130010
1aaaap
0aaabj
0aaabm

#130500
0aaaaa

#131000
1aaaaa
b110100001101011100000000000000001110111000101001 aaaar

#131010
0aaaap
0aaaaz

#131500
0aaaaa

#132000
1aaaaa

#132500
0aaaaa

#133000
1aaaaa
r-121240.3418543007 aaabo
r53942.29290069019 aaabp

#133010
1aaabj
1aaabm

#133500
0aaaaa

#134000
1aaaaa
b1111111111111110001001100110100000000000000000001101001010110110 aaabb
r40081 aaabk
r6067 aaabl
r89364.34185430066 aaabo
r120865.7070993098 aaabp

#134010
1aaaap
1aaaaz
0aaabj

#134500
0aaaaa

#135000
1aaaaa
b101010000010110100000000000000000111101111000000 aaaar
b1010111010001010000000000000000011101100000100010 aaabb

#135010
0aaaap
0aaabm

#135500
0aaaaa

#136000
1aaaaa

#136010
0aaaaz

#136500
0aaaaa

#137000
1aaaaa

#137010
1aaabj

#137500
0aaaaa

#138000
1aaaaa
r30267 aaabk
r23941 aaabl
r5737.613911107036 aaabo
r-36686.25493165491 aaabp

#138010
1aaaap
0aaabj
1aaabm

#138500
0aaaaa

#139000
1aaaaa
b111101001100011100000000000000000110010100110001 aaaar
b101100110101011111111111111110111000010110010 aaabb
r-15557.61391110703 aaabo
r35082.25493165491 aaabp

#139010
0aaaap
1aaaaz

#139500
0aaaaa

#140000
1aaaaa
b1111111111111111110000110011101000000000000000001000100100001010 aaabb

#140010
0aaabm

#140500
0aaaaa

#141000
1aaaaa

#141010
0aaaaz
1aaabj

#141500
0aaaaa

#142000
1aaaaa
r53463 aaabk
r60969 aaabl

#142010
1aaaap
0aaabj

#142500
0aaaaa

#143000
1aaaaa
b100110001101000000000000000000010010111000110 aaaar

#143010
0aaaap

#143500
0aaaaa

#144000
1aaaaa

#144500
0aaaaa

#145000
1aaaaa

#145010
1aaabj

#145500
0aaaaa

#146000
1aaaaa
r43053 aaabk
r31680 aaabl
r-201476.5425525202 aaabo
r13016.65260068405 aaabp

#146010
1aaaap
0aaabj
1aaabm

#146500
0aaaaa

#147000
1aaaaa
b1101010011110000000000000000000001111111010101 aaaar
b1111111111111100111011001111101100000000000000000011001011011001 aaabb
r77823.05557849407 aaabo
r46305.32148985547 aaabp

#147010
0aaaap
1aaaaz

#147500
0aaaaa

#148000
1aaaaa
b1001011111111111100000000000000001011010011100001 aaabb

#148010
0aaabm

#148500
0aaaaa

#149000
1aaaaa

#149010
0aaaaz
1aaabj

#149500
0aaaaa

#150000
1aaaaa
r62663 aaabk
r25905 aaabl

#150010
1aaaap
0aaabj

#150500
0aaaaa

#151000
1aaaaa
b110000010101000000000000000001110010001100101 aaaar
r16616.5758395245 aaabo
r84056.78572675753 aaabp

#151010
0aaaap
1aaabm

#151500
0aaaaa

#152000
1aaaaa
b10000001110100100000000000000010100100001011001 aaabb
r30484.91113450162 aaabo
r-36390.75981729705 aaabp

#152010
1aaaaz

#152500
0aaaaa

#153000
1aaaaa
b11101110001010111111111111111110111000111011001 aaabb

#153010
1aaabj
0aaabm

#153500
0aaaaa

#154000
1aaaaa
r4890 aaabk
r9670 aaabl

#154010
1aaaap
0aaaaz
0aaabj

#154500
0aaaaa

#155000
1aaaaa
b10001010001000000000000000001101100110000011 aaaar

#155010
0aaaap

#155500
0aaaaa

#156000
1aaaaa
r-66311.58976387396 aaabo
r-78814.01172321488 aaabp

#156010
1aaabm

#156500
0aaaaa

#157000
1aaaaa
b1111111111111110111111001111100011111111111111101100110000100010 aaabb
r-89013.39652616385 aaabo
r-27337.69208407353 aaabp

#157010
1aaaaz
1aaabj

#157500
0aaaaa

#158000
1aaaaa
b1111111111111110101001000100101111111111111111111001010100110110 aaabb
r13628 aaabk
r8149 aaabl

#158010
1aaaap
0aaabm

#158500
0aaaaa

#159000
1aaaaa
b110011011110001000000000000000001010001000010111 aaaar
r6186 aaabk
r58469 aaabl

#159010
0aaaaz

#159500
0aaaaa

#160000
1aaaaa
b11110010011111100000000000000001001101111111010 aaaar
r2210 aaabk
r55683 aaabl

#160010
0aaabj

#160500
0aaaaa

#161000
1aaaaa
b110010100100000100000000000000001111100111100110 aaaar
r90411.05573517868 aaabo
r14466.89377751821 aaabp

#161010
0aaaap
1aaabm

#161500
0aaaaa

#162000
1aaaaa
b1011000010010101100000000000000000011100010000011 aaabb

#162010
1aaaaz
0aaabm

#162500
0aaaaa

#163000
1aaaaa

#163010
0aaaaz
1aaabj

#163500
0aaaaa

#164000
1aaaaa
r52706 aaabk
r41495 aaabl
r89129.93055485912 aaabo
r-95007.18997022981 aaabp

#164010
1aaaap
1aaabm

#164500
0aaaaa

#165000
1aaaaa
b11011011001000000000000000000001001001011010 aaaar
b1010111000010101011111111111111101000110011100001 aaabb
r31039 aaabk
r39930 aaabl

#165010
1aaaaz
0aaabm

#165500
0aaaaa

#166000
1aaaaa
b110110111111010000000000000000000000011110100111 aaaar
r51777 aaabk
r63974 aaabl

#166010
0aaaaz
0aaabj

#166500
0aaaaa

#167000
1aaaaa
b100100100011100000000000000001110001101001010 aaaar

#167010
0aaaap

#167500
0aaaaa

#168000
1aaaaa

#168500
0aaaaa

#169000
1aaaaa

#169010
1aaabj

#169500
0aaaaa

#170000
1aaaaa
r3506 aaabk
r4698 aaabl

#170010
1aaaap

#170500
0aaaaa

#171000
1aaaaa
b10101100111000100000000000000000010110111011101 aaaar
r56308 aaabk
r1959 aaabl

#171010
0aaabj

#171500
0aaaaa

#172000
1aaaaa
b111011000101100000000000000001101010101100111 aaaar
r618891 aaabo
r548596 aaabp

#172010
0aaaap
1aaabm

#172500
0aaaaa

#173000
1aaaaa
b1001011100011000101100000000000010000101111011110100 aaabb
r-30487 aaabo
r-43532 aaabp

#173010
1aaaaz

#173500
0aaaaa

#174000
1aaaaa
b1111111111111111100010001110100111111111111111110101010111110100 aaabb

#174010
1aaabj
0aaabm

#174500
0aaaaa

#175000
1aaaaa
r4679 aaabk
r58186 aaabl

#175010
1aaaap
0aaaaz
0aaabj

#175500
0aaaaa

#176000
1aaaaa
b110001011100011000000000000000000100100010111010 aaaar

#176010
0aaaap

#176500
0aaaaa

#177000
1aaaaa
r-186984 aaabo
r25441 aaabp

#177010
1aaabm

#177500
0aaaaa

#178000
1aaaaa
b1111111111111101001001011001100000000000000000000110001101100001 aaabb
r-72860 aaabo
r-31033 aaabp

#178010
1aaaaz
1aaabj

#178500
0aaaaa

#179000
1aaaaa
b1111111111111110111000110110010011111111111111111000011011000111 aaabb
r22129 aaabk
r11741 aaabl

#179010
1aaaap
0aaabj
0aaabm

#179500
0aaaaa

#180000
1aaaaa
b100110111010101000000000000000000001000100011000 aaaar

#180010
0aaaap
0aaaaz

#180500
0aaaaa

#181000
1aaaaa

#181500
0aaaaa

#182000
1aaaaa
r-43666.79687979465 aaabo
r137287.9510706165 aaabp

#182010
1aaabj
1aaabm

#182500
0aaaaa

#183000
1aaaaa
b1111111111111111010101010110110100000000000000100001100001001000 aaabb
r7563 aaabk
r54631 aaabl
r-71825.20312020535 aaabo
r63968.04892938345 aaabp

#183010
1aaaap
1aaaaz
0aaabj

#183500
0aaaaa

#184000
1aaaaa
b111110101001100000000000000000001101001100100010 aaaar
b1111111111111110111001110110111100000000000000001111100111100000 aaabb

#184010
0aaaap
0aaabm

#184500
0aaaaa

#185000
1aaaaa

#185010
0aaaaz

#185500
0aaaaa

#186000
1aaaaa

#186010
1aaabj

#186500
0aaaaa

#187000
1aaaaa
r50630 aaabk
r18618 aaabl
r3532.204965910649 aaabo
r122280.131631872 aaabp

#187010
1aaaap
0aaabj
1aaabm

#187500
0aaaaa

#188000
1aaaaa
b100111000101010000000000000000001000101101010001 aaaar
b11011100110000000000000000011101110110101000 aaabb
r39847.79503408935 aaabo
r113159.868368128 aaabp

#188010
0aaaap
1aaaaz

#188500
0aaaaa

#189000
1aaaaa
b100110111010100000000000000000011011101000001000 aaabb

#189010
0aaabm

#189500
0aaaaa

#190000
1aaaaa

#190010
0aaaaz
1aaabj

#190500
0aaaaa

#191000
1aaaaa
r39850 aaabk
r4376 aaabl

#191010
1aaaap
0aaabj

#191500
0aaaaa

#192000
1aaaaa
b11000101110000000000000000000001010111000101111 aaaar

#192010
0aaaap

#192500
0aaaaa

#193000
1aaaaa

#193500
0aaaaa

#194000
1aaaaa

#194010
1aaabj

#194500
0aaaaa

#195000
1aaaaa
r64152 aaabk
r54050 aaabl
r-46121.8851705593 aaabo
r66152.73911817958 aaabp

#195010
1aaaap
0aaabj
1aaabm

#195500
0aaaaa

#196000
1aaaaa
b10011100110001000000000000000001011011100101111 aaaar
b1111111111111111010010111101011000000000000000010000001001101001 aaabb
r-41967.70552840158 aaabo
r110233.4655024544 aaabp

#196010
0aaaap
1aaaaz

#196500
0aaaaa

#197000
1aaaaa
b1111111111111111010111000001000000000000000000011010111010011001 aaabb

#197010
0aaabm

#197500
0aaaaa

#198000
1aaaaa

#198010
0aaaaz
1aaabj

#198500
0aaaaa

#199000
1aaaaa
r40020 aaabk
r35665 aaabl

#199010
1aaaap
0aaabj

#199500
0aaaaa

#200000
1aaaaa
b110100001000000000000000000000000110101110111000 aaaar
r87509.16565167908 aaabo
r-30687.84954116128 aaabp

#200010
0aaaap
1aaabm

#200500
0aaaaa

#201000
1aaaaa
b1010101011101010111111111111111111000100000100000 aaabb
r-74431.57495271821 aaabo
r-10030.35507947275 aaabp

#201010
1aaaaz

#201500
0aaaaa

#202000
1aaaaa
b1111111111111110110111010100000011111111111111111101100011010010 aaabb

#202010
1aaabj
0aaabm

#202500
0aaaaa

#203000
1aaaaa
r25312 aaabk
r44591 aaabl

#203010
1aaaap
0aaaaz
0aaabj

#203500
0aaaaa

#204000
1aaaaa
b110001110101100100000000000000000111101010010010 aaaar

#204010
0aaaap

#204500
0aaaaa

#205000
1aaaaa
r43450.91925096848 aaabo
r-16509.46102908768 aaabp

#205010
1aaabm

#205500
0aaaaa

#206000
1aaaaa
b101010011011101111111111111111111011111110000011 aaabb
r-78052.87825119028 aaabo
r-78946.48913143069 aaabp

#206010
1aaaaz
1aaabj

#206500
0aaaaa

#207000
1aaaaa
b1111111111111110110011110001101111111111111111101100101110011110 aaabb
r20066 aaabk
r46895 aaabl

#207010
1aaaap
0aaabm

#207500
0aaaaa

#208000
1aaaaa
b111100111101000100000000000000001011000110011000 aaaar
r53376 aaabk
r27576 aaabl

#208010
0aaaaz

#208500
0aaaaa

#209000
1aaaaa
b100111111010111000000000000000001010010011000001 aaaar
r51033 aaabk
r31378 aaabl

#209010
0aaabj

#209500
0aaaaa

#210000
1aaaaa
b110000110011000100000000000000000101111100010101 aaaar
r50330.61652534926 aaabo
r-36967.63646120687 aaabp

#210010
0aaaap
1aaabm

#210500
0aaaaa

#211000
1aaaaa
b110001001001101111111111111111110110111110011000 aaabb

#211010
1aaaaz
0aaabm

#211500
0aaaaa

#212000
1aaaaa

#212010
0aaaaz
1aaabj

#212500
0aaaaa

#213000
1aaaaa
r62417 aaabk
r45464 aaabl
r-56444.65752512744 aaabo
r27467.58662172524 aaabp

#213010
1aaaap
1aaabm

#213500
0aaaaa

#214000
1aaaaa
b100000011110011000000000000000001010100010111000 aaaar
b1111111111111111001000111000001100000000000000000110101101001100 aaabb
r40878 aaabk
r42177 aaabl

#214010
1aaaaz
0aaabm

#214500
0aaaaa

#215000
1aaaaa
b100100111111001100000000000000001001010111001010 aaaar
r49969 aaabk
r24341 aaabl

#215010
0aaaaz
0aaabj

#215500
0aaaaa

#216000
1aaaaa
b1100000110010000000000000000001111010010111111 aaaar

#216010
0aaaap

#216500
0aaaaa

#217000
1aaaaa

#217500
0aaaaa

#218000
1aaaaa

#218010
1aaabj

#218500
0aaaaa

#219000
1aaaaa
r33254 aaabk
r43192 aaabl

#219010
1aaaap

#219500
0aaaaa

#220000
1aaaaa
b110110000000000000000000000001111101111000101 aaaar
r37875 aaabk
r38346 aaabl

#220010
0aaabj

#220500
0aaaaa

#221000
1aaaaa
b1001011100100000000000000000001100100010101 aaaar
r473916 aaabo
r511534 aaabp

