out/test_runs/test_n4_stim/trace.vcd
$date
     Jun 30, 2026       06:39:58
$end

$version
 SystemC 2.3.3-Accellera --- Jun 25 2026 10:44:53
$end

$timescale
     1 ps
$end

$scope module SystemC $end
$scope module Control $end
$var wire    1  aaaaa  clk       $end
$var wire    1  aaaab  rst_n       $end
$var wire    1  aaaac  start_signal       $end
$upscope $end
$scope module Core0 $end
$var wire   32  aaaaf  base_addr [31:0]  $end
$var wire   32  aaaag  num_samples [31:0]  $end
$var wire    1  aaaah  start       $end
$var wire    1  aaaai  busy       $end
$scope module AXI_AR $end
$var wire    1  aaaaj  ar_val       $end
$var wire    1  aaaak  ar_rdy       $end
$var wire    4  aaaal  ar_msg_id [3:0]  $end
$var wire   32  aaaam  ar_msg_addr [31:0]  $end
$var wire    8  aaaan  ar_msg_len [7:0]  $end
$upscope $end
$scope module AXI_AW $end
$var wire    1  aaaau  aw_val       $end
$var wire    1  aaaav  aw_rdy       $end
$var wire    4  aaaaw  aw_msg_id [3:0]  $end
$var wire   32  aaaax  aw_msg_addr [31:0]  $end
$var wire    8  aaaay  aw_msg_len [7:0]  $end
$upscope $end
$scope module AXI_B $end
$var wire    1  aaabe  b_val       $end
$var wire    1  aaabf  b_rdy       $end
$var wire    4  aaabg  b_msg_id [3:0]  $end
$var wire    2  aaabh  b_msg_resp [1:0]  $end
$upscope $end
$scope module AXI_R $end
$var wire    1  aaaao  r_val       $end
$var wire    1  aaaap  r_rdy       $end
$var wire    4  aaaaq  r_msg_id [3:0]  $end
$var wire   64  aaaar  r_msg_data [63:0]  $end
$var wire    2  aaaas  r_msg_resp [1:0]  $end
$var wire    1  aaaat  r_msg_last       $end
$upscope $end
$scope module AXI_W $end
$var wire    1  aaaaz  w_val       $end
$var wire    1  aaaba  w_rdy       $end
$var wire   64  aaabb  w_msg_data [63:0]  $end
$var wire    1  aaabc  w_msg_last       $end
$var wire    8  aaabd  w_msg_wstrb [7:0]  $end
$upscope $end
$scope module Internal $end
$var wire    1  aaabi  dma_to_fft_val       $end
$var wire    1  aaabj  dma_to_fft_rdy       $end
$var real    1  aaabk  dma_to_fft_msg_real       $end
$var real    1  aaabl  dma_to_fft_msg_imag       $end
$var wire    1  aaabm  fft_to_dma_val       $end
$var wire    1  aaabn  fft_to_dma_rdy       $end
$var real    1  aaabo  fft_to_dma_msg_real       $end
$var real    1  aaabp  fft_to_dma_msg_imag       $end
$upscope $end
$upscope $end
$scope module Stagger $end
$var wire    1  aaaad  active       $end
$var wire   32  aaaae  counter [31:0]  $end
$upscope $end
$upscope $end
$enddefinitions  $end

$comment
All initial values are dumped below at time 0 sec = 0 timescale units.
$end

$dumpvars
1aaaaa
0aaaab
0aaaac
0aaaad
b0 aaaae
b0 aaaaf
b0 aaaag
0aaaah
0aaaai
0aaaaj
0aaaak
b0 aaaal
b0 aaaam
b0 aaaan
0aaaao
0aaaap
b0 aaaaq
b0 aaaar
b0 aaaas
0aaaat
0aaaau
0aaaav
b0 aaaaw
b0 aaaax
b0 aaaay
0aaaaz
0aaaba
b0 aaabb
0aaabc
b11111111 aaabd
0aaabe
0aaabf
b0 aaabg
b0 aaabh
0aaabi
0aaabj
r0 aaabk
r0 aaabl
0aaabm
0aaabn
r0 aaabo
r0 aaabp
$end

#10
1aaaak
1aaaap
1aaaav
1aaaba
1aaabf
1aaabj
1aaabn

#500
0aaaaa

#1000
1aaaaa

#1500
0aaaaa

#2000
1aaaaa

#2500
0aaaaa

#3000
1aaaaa

#3500
0aaaaa

#4000
1aaaaa

#4500
0aaaaa

#5000
1aaaaa
1aaaab

#5500
0aaaaa

#6000
1aaaaa

#6500
0aaaaa

#7000
1aaaaa

#7500
0aaaaa

#8000
1aaaaa

#8500
0aaaaa

#9000
1aaaaa

#9500
0aaaaa

#10000
1aaaaa

#10500
0aaaaa

#11000
1aaaaa

#11500
0aaaaa

#12000
1aaaaa

#12500
0aaaaa

#13000
1aaaaa

#13500
0aaaaa

#14000
1aaaaa

#14500
0aaaaa

#15000
1aaaaa
1aaaac
1aaaad
b1 aaaae
b10000000000 aaaag
1aaaah

#15500
0aaaaa

#16000
1aaaaa
0aaaac
b10 aaaae
0aaaah
1aaaai
b11111111 aaaan
b100000 aaaax
b11111111 aaaay

#16010
1aaaaj
1aaaau

#16500
0aaaaa

#17000
1aaaaa
b11 aaaae
b100000000000 aaaam

#17010
1aaaao
0aaaau

#17500
0aaaaa

#18000
1aaaaa
b100 aaaae
b1000000000000 aaaam
b1000000000000000000000000000000000 aaaar

#18010
1aaabi

#18500
0aaaaa

#19000
1aaaaa
0aaaad
b101 aaaae
b1100000000000 aaaam
b100000000000000000000000000000000 aaaar
r2 aaabk

#19500
0aaaaa

#20000
1aaaaa
b0 aaaar
r1 aaabk

#20010
0aaaaj

#20500
0aaaaa

#21000
1aaaaa
r0 aaabk

#21500
0aaaaa

#22000
1aaaaa
b100000000000000000000000000000000 aaaar

#22500
0aaaaa

#23000
1aaaaa
r1 aaabk
r3 aaabo

#23010
1aaabm

#23500
0aaaaa

#24000
1aaaaa
b1111111111111111111111111111111100000000000000000000000000000000 aaaar
b1100000000000000000000000000000000 aaabb
r-1 aaabo

#24010
1aaaaz

#24500
0aaaaa

#25000
1aaaaa
b0 aaaar
b1111111111111111111111111111111100000000000000000000000000000000 aaabb
r-1 aaabk
r-0.9999999999999999 aaabo
r-2 aaabp

#25500
0aaaaa

#26000
1aaaaa
b1111111111111111111111111111111000000000000000000000000000000000 aaaar
b1111111111111111111111111111111111111111111111111111111111111110 aaabb
r0 aaabk
r-1 aaabo
r2 aaabp

#26500
0aaaaa

#27000
1aaaaa
b1111111111111111111111111111111100000000000000000000000000000010 aaabb
r-2 aaabk
r1 aaabo
r0 aaabp

#27500
0aaaaa

#28000
1aaaaa
b0 aaaar
b100000000000000000000000000000000 aaabb

#28500
0aaaaa

#29000
1aaaaa
b100000000000000000000000000000000 aaaar
r0 aaabk
r-0.9999999999999999 aaabo
r-2 aaabp

#29500
0aaaaa

#30000
1aaaaa
b0 aaaar
b1111111111111111111111111111111111111111111111111111111111111110 aaabb
r1 aaabk
r-1 aaabo
r2 aaabp

#30500
0aaaaa

#31000
1aaaaa
b1111111111111111111111111111111100000000000000000000000000000000 aaaar
b1111111111111111111111111111111100000000000000000000000000000010 aaabb
r0 aaabk
r-4 aaabo
r0 aaabp

#31500
0aaaaa

#32000
1aaaaa
b100000000000000000000000000000000 aaaar
b1111111111111111111111111111110000000000000000000000000000000000 aaabb
r-1 aaabk
r0 aaabo

#32500
0aaaaa

#33000
1aaaaa
b1100000000000000000000000000000000 aaaar
b0 aaabb
r1 aaabk
r2 aaabo
r2 aaabp

#33500
0aaaaa

#34000
1aaaaa
b0 aaaar
b1000000000000000000000000000000010 aaabb
r3 aaabk
r2 aaabo
r-2 aaabp

#34500
0aaaaa

#35000
1aaaaa
b1011111111111111111111111111111110 aaabb
r0 aaabk
r1 aaabo
r0 aaabp

#35500
0aaaaa

#36000
1aaaaa
b100000000000000000000000000000000 aaabb
r-1 aaabo

#36500
0aaaaa

#37000
1aaaaa
b1111111111111111111111111111111100000000000000000000000000000000 aaaar
b1111111111111111111111111111111100000000000000000000000000000000 aaabb
r2 aaabo
r1 aaabp

#37500
0aaaaa

#38000
1aaaaa
b1000000000000000000000000000000001 aaabb
r-1 aaabk
r-1 aaabp

#38500
0aaaaa

#39000
1aaaaa
b1011111111111111111111111111111111 aaabb
r3 aaabo
r0 aaabp

#39500
0aaaaa

#40000
1aaaaa
b0 aaaar
b1100000000000000000000000000000000 aaabb

#40500
0aaaaa

#41000
1aaaaa
b1111111111111111111111111111111100000000000000000000000000000000 aaaar
r0 aaabk

#41500
0aaaaa

#42000
1aaaaa
b1111111111111111111111111111111000000000000000000000000000000000 aaaar
r-1 aaabk

#42500
0aaaaa

#43000
1aaaaa
b100000000000000000000000000000000 aaaar
r-2 aaabk
r-3 aaabo

#43500
0aaaaa

#44000
1aaaaa
b1000000000000000000000000000000000 aaaar
b1111111111111111111111111111110100000000000000000000000000000000 aaabb
r1 aaabk
r-1 aaabo

#44500
0aaaaa

#45000
1aaaaa
b0 aaaar
b1111111111111111111111111111111100000000000000000000000000000000 aaabb
r2 aaabk
r-6.123233995736766e-17 aaabo
r1 aaabp

#45500
0aaaaa

#46000
1aaaaa
b1 aaabb
r0 aaabk
r6.123233995736766e-17 aaabo
r-1 aaabp

#46500
0aaaaa

#47000
1aaaaa
b100000000000000000000000000000000 aaaar
b11111111111111111111111111111111 aaabb
r0 aaabo
r0 aaabp

#47500
0aaaaa

#48000
1aaaaa
b0 aaabb
r1 aaabk

#48500
0aaaaa

#49000
1aaaaa
b0 aaaar
r-2 aaabo
r4 aaabp

#49500
0aaaaa

#50000
1aaaaa
b1111111111111111111111111111111000000000000000000000000000000100 aaabb
r0 aaabk
r-2 aaabo
r-4 aaabp

#50500
0aaaaa

#51000
1aaaaa
b1111111111111111111111111111111011111111111111111111111111111100 aaabb
r2 aaabo
r0 aaabp

#51500
0aaaaa

#52000
1aaaaa
b1111111111111111111111111111111000000000000000000000000000000000 aaaar
b1000000000000000000000000000000000 aaabb
r0 aaabo

#52500
0aaaaa

#53000
1aaaaa
b1111111111111111111111111111111100000000000000000000000000000000 aaaar
b0 aaabb
r-2 aaabk
r-1 aaabo
r1 aaabp

#53500
0aaaaa

#54000
1aaaaa
b100000000000000000000000000000000 aaaar
b1111111111111111111111111111111100000000000000000000000000000001 aaabb
r-1 aaabk
r-0.9999999999999999 aaabo
r-1 aaabp

#54500
0aaaaa

#55000
1aaaaa
b0 aaaar
b1111111111111111111111111111111111111111111111111111111111111111 aaabb
r1 aaabk
r-2 aaabo
r0 aaabp

#55500
0aaaaa

#56000
1aaaaa
b1111111111111111111111111111111000000000000000000000000000000000 aaabb
r0 aaabk
r2 aaabo

#56500
0aaaaa

#57000
1aaaaa
b1111111111111111111111111111111100000000000000000000000000000000 aaaar
b1000000000000000000000000000000000 aaabb
r1.224646799147353e-16 aaabo
r-2 aaabp

#57500
0aaaaa

#58000
1aaaaa
b1000000000000000000000000000000000 aaaar
b11111111111111111111111111111110 aaabb
r-1 aaabk
r-1.224646799147353e-16 aaabo
r2 aaabp

#58500
0aaaaa

#59000
1aaaaa
b10 aaabb
r2 aaabk
r0 aaabo
r0 aaabp

#59500
0aaaaa

#60000
1aaaaa
b0 aaaar
b0 aaabb
r-2 aaabo

#60500
0aaaaa

#61000
1aaaaa
b100000000000000000000000000000000 aaaar
b1111111111111111111111111111111000000000000000000000000000000000 aaabb
r0 aaabk
r-0.9999999999999999 aaabo
r-1 aaabp

#61500
0aaaaa

#62000
1aaaaa
b0 aaaar
b1111111111111111111111111111111111111111111111111111111111111111 aaabb
r1 aaabk
r-1 aaabo
r1 aaabp

#62500
0aaaaa

#63000
1aaaaa
b1111111111111111111111111111111100000000000000000000000000000000 aaaar
b1111111111111111111111111111111100000000000000000000000000000001 aaabb
r0 aaabk
r3 aaabo
r0 aaabp

#63500
0aaaaa

#64000
1aaaaa
b1100000000000000000000000000000000 aaabb
r-1 aaabk
r-1 aaabo

#64500
0aaaaa

#65000
1aaaaa
b0 aaaar
b1111111111111111111111111111111100000000000000000000000000000000 aaabb
r-3 aaabo
r-2 aaabp

#65500
0aaaaa

#66000
1aaaaa
b1111111111111111111111111111110111111111111111111111111111111110 aaabb
r0 aaabk
r2 aaabp

#66500
0aaaaa

#67000
1aaaaa
b1111111111111111111111111111111000000000000000000000000000000000 aaaar
b1111111111111111111111111111110100000000000000000000000000000010 aaabb
r-1 aaabo
r0 aaabp

#67500
0aaaaa

#68000
1aaaaa
b1111111111111111111111111111111100000000000000000000000000000000 aaaar
b1111111111111111111111111111111100000000000000000000000000000000 aaabb
r-2 aaabk
r1 aaabo

#68500
0aaaaa

#69000
1aaaaa
b1000000000000000000000000000000000 aaaar
b100000000000000000000000000000000 aaabb
r-1 aaabk
r2 aaabo
r-1 aaabp

#69500
0aaaaa

#70000
1aaaaa
b100000000000000000000000000000000 aaaar
b1011111111111111111111111111111111 aaabb
r2 aaabk
r1 aaabp

#70500
0aaaaa

#71000
1aaaaa
b0 aaaar
b1000000000000000000000000000000001 aaabb
r1 aaabk
r-3 aaabo
r0 aaabp

#71500
0aaaaa

#72000
1aaaaa
b100000000000000000000000000000000 aaaar
b1111111111111111111111111111110100000000000000000000000000000000 aaabb
r0 aaabk
r-1 aaabo

#72500
0aaaaa

#73000
1aaaaa
b1111111111111111111111111111111100000000000000000000000000000000 aaabb
r1 aaabk
r2 aaabo
r-1 aaabp

#73500
0aaaaa

#74000
1aaaaa
b1011111111111111111111111111111111 aaabb
r1 aaabp

#74500
0aaaaa

#75000
1aaaaa
b1111111111111111111111111111111100000000000000000000000000000000 aaaar
b1000000000000000000000000000000001 aaabb
r4 aaabo
r0 aaabp

#75500
0aaaaa

#76000
1aaaaa
b0 aaaar
b10000000000000000000000000000000000 aaabb
r-1 aaabk
r0 aaabo

#76500
0aaaaa

#77000
1aaaaa
b1111111111111111111111111111111100000000000000000000000000000000 aaaar
b0 aaabb
r0 aaabk
r2 aaabo

#77500
0aaaaa

#78000
1aaaaa
b1111111111111111111111111111110100000000000000000000000000000000 aaaar
b1000000000000000000000000000000000 aaabb
r-1 aaabk

#78500
0aaaaa

#79000
1aaaaa
b0 aaaar
r-3 aaabk
r1 aaabo

#79500
0aaaaa

#80000
1aaaaa
b100000000000000000000000000000000 aaaar
b100000000000000000000000000000000 aaabb
r0 aaabk
r-1 aaabo

#80500
0aaaaa

#81000
1aaaaa
b0 aaaar
b1111111111111111111111111111111100000000000000000000000000000000 aaabb
r1 aaabk
r2 aaabo
r-1 aaabp

#81500
0aaaaa

#82000
1aaaaa
b1111111111111111111111111111111100000000000000000000000000000000 aaaar
b1011111111111111111111111111111111 aaabb
r0 aaabk
r1 aaabp

#82500
0aaaaa

#83000
1aaaaa
b0 aaaar
b1000000000000000000000000000000001 aaabb
r-1 aaabk
r-3 aaabo
r0 aaabp

#83500
0aaaaa

#84000
1aaaaa
b1100000000000000000000000000000000 aaaar
b1111111111111111111111111111110100000000000000000000000000000000 aaabb
r0 aaabk
r1 aaabo

#84500
0aaaaa

#85000
1aaaaa
b100000000000000000000000000000000 aaaar
b100000000000000000000000000000000 aaabb
r3 aaabk
r-1 aaabo
r4 aaabp

#85500
0aaaaa

#86000
1aaaaa
b0 aaaar
b1111111111111111111111111111111100000000000000000000000000000100 aaabb
r1 aaabk
r-0.9999999999999998 aaabo
r-4 aaabp

#86500
0aaaaa

#87000
1aaaaa
b100000000000000000000000000000000 aaaar
b1111111111111111111111111111111111111111111111111111111111111100 aaabb
r0 aaabk
r2 aaabo
r0 aaabp

#87500
0aaaaa

#88000
1aaaaa
b1111111111111111111111111111111100000000000000000000000000000000 aaaar
b1000000000000000000000000000000000 aaabb
r1 aaabk
r-2 aaabo

#88500
0aaaaa

#89000
1aaaaa
b1111111111111111111111111111111000000000000000000000000000000000 aaabb
r-1 aaabk
r-2.449293598294706e-16 aaabo
r4 aaabp

#89500
0aaaaa

#90000
1aaaaa
b100 aaabb
r2.449293598294706e-16 aaabo
r-4 aaabp

#90500
0aaaaa

#91000
1aaaaa
b0 aaaar
b11111111111111111111111111111100 aaabb
r1 aaabo
r0 aaabp

#91500
0aaaaa

#92000
1aaaaa
b1111111111111111111111111111111100000000000000000000000000000000 aaaar
b100000000000000000000000000000000 aaabb
r0 aaabk
r3 aaabo

#92500
0aaaaa

#93000
1aaaaa
b1111111111111111111111111111111000000000000000000000000000000000 aaaar
b1100000000000000000000000000000000 aaabb
r-1 aaabk
r6.123233995736766e-17 aaabo
r-1 aaabp

#93500
0aaaaa

#94000
1aaaaa
b100000000000000000000000000000000 aaaar
b11111111111111111111111111111111 aaabb
r-2 aaabk
r-6.123233995736766e-17 aaabo
r1 aaabp

#94500
0aaaaa

#95000
1aaaaa
b1000000000000000000000000000000000 aaaar
b1 aaabb
r1 aaabk
r-3 aaabo
r0 aaabp

#95500
0aaaaa

#96000
1aaaaa
b0 aaaar
b1111111111111111111111111111110100000000000000000000000000000000 aaabb
r2 aaabk
r1 aaabo

#96500
0aaaaa

#97000
1aaaaa
b100000000000000000000000000000000 aaabb
r0 aaabk
r-1 aaabo

#97500
0aaaaa

#98000
1aaaaa
b100000000000000000000000000000000 aaaar
b1111111111111111111111111111111100000000000000000000000000000000 aaabb

#98500
0aaaaa

#99000
1aaaaa
r1 aaabk
r1 aaabo

#99500
0aaaaa

#100000
1aaaaa
b0 aaaar
b100000000000000000000000000000000 aaabb
r-1 aaabo

#100500
0aaaaa

#101000
1aaaaa
b1111111111111111111111111111111100000000000000000000000000000000 aaaar
b1111111111111111111111111111111100000000000000000000000000000000 aaabb
r0 aaabk
r-4 aaabo
r-1 aaabp

#101500
0aaaaa

#102000
1aaaaa
b0 aaaar
b1111111111111111111111111111110011111111111111111111111111111111 aaabb
r-1 aaabk
r1 aaabp

#102500
0aaaaa

#103000
1aaaaa
b1111111111111111111111111111111000000000000000000000000000000000 aaaar
b1111111111111111111111111111110000000000000000000000000000000001 aaabb
r0 aaabk
r2 aaabo
r0 aaabp

#103500
0aaaaa

#104000
1aaaaa
b1000000000000000000000000000000000 aaabb
r-2 aaabk
r0 aaabo

#104500
0aaaaa

#105000
1aaaaa
b100000000000000000000000000000000 aaaar
b0 aaabb
r-0.9999999999999999 aaabo
r-1 aaabp

#105500
0aaaaa

#106000
1aaaaa
b0 aaaar
b1111111111111111111111111111111111111111111111111111111111111111 aaabb
r1 aaabk
r-1 aaabo
r1 aaabp

#106500
0aaaaa

#107000
1aaaaa
b1111111111111111111111111111111100000000000000000000000000000001 aaabb
r0 aaabk
r-5 aaabo
r0 aaabp

#107500
0aaaaa

#108000
1aaaaa
b1111111111111111111111111111111100000000000000000000000000000000 aaaar
b1111111111111111111111111111101100000000000000000000000000000000 aaabb
r-1 aaabo

#108500
0aaaaa

#109000
1aaaaa
b100000000000000000000000000000000 aaaar
b1111111111111111111111111111111100000000000000000000000000000000 aaabb
r-1 aaabk
r1 aaabo
r-2 aaabp

#109500
0aaaaa

#110000
1aaaaa
b1000000000000000000000000000000000 aaaar
b111111111111111111111111111111110 aaabb
r1 aaabk
r0.9999999999999999 aaabo
r2 aaabp

#110500
0aaaaa

#111000
1aaaaa
b0 aaaar
b100000000000000000000000000000010 aaabb
r2 aaabk
r0 aaabo
r0 aaabp

#111500
0aaaaa

#112000
1aaaaa
b0 aaabb
r0 aaabk
r2 aaabo

#112500
0aaaaa

#113000
1aaaaa
b1000000000000000000000000000000000 aaabb
r1 aaabo
r-1 aaabp

#113500
0aaaaa

#114000
1aaaaa
b1111111111111111111111111111111100000000000000000000000000000000 aaaar
b111111111111111111111111111111111 aaabb
r0.9999999999999999 aaabo
r1 aaabp

#114500
0aaaaa

#115000
1aaaaa
b100000000000000000000000000000001 aaabb
r-1 aaabk
r3 aaabo
r0 aaabp

#115500
0aaaaa

#116000
1aaaaa
b0 aaaar
b1100000000000000000000000000000000 aaabb
r-1 aaabo

#116500
0aaaaa

#117000
1aaaaa
b1111111111111111111111111111111100000000000000000000000000000000 aaabb
r0 aaabk
r1 aaabo
r-2 aaabp

#117500
0aaaaa

#118000
1aaaaa
b1111111111111111111111111111111000000000000000000000000000000000 aaaar
b111111111111111111111111111111110 aaabb
r0.9999999999999999 aaabo
r2 aaabp

#118500
0aaaaa

#119000
1aaaaa
b1111111111111111111111111111111100000000000000000000000000000000 aaaar
b100000000000000000000000000000010 aaabb
r-2 aaabk
r-2 aaabo
r0 aaabp

#119500
0aaaaa

#120000
1aaaaa
b1000000000000000000000000000000000 aaaar
b1111111111111111111111111111111000000000000000000000000000000000 aaabb
r-1 aaabk
r0 aaabo

#120500
0aaaaa

#121000
1aaaaa
b100000000000000000000000000000000 aaaar
b0 aaabb
r2 aaabk
r0.9999999999999999 aaabo
r1 aaabp

#121500
0aaaaa

#122000
1aaaaa
b0 aaaar
b100000000000000000000000000000001 aaabb
r1 aaabk
r1 aaabo
r-1 aaabp

#122500
0aaaaa

#123000
1aaaaa
b100000000000000000000000000000000 aaaar
b111111111111111111111111111111111 aaabb
r0 aaabk
r-1 aaabo
r0 aaabp

#123500
0aaaaa

#124000
1aaaaa
b1111111111111111111111111111111100000000000000000000000000000000 aaabb
r1 aaabk

#124500
0aaaaa

#125000
1aaaaa
r0.9999999999999998 aaabo
r4 aaabp

#125500
0aaaaa

#126000
1aaaaa
b0 aaaar
b100000000000000000000000000000100 aaabb
r1 aaabo
r-4 aaabp

#126500
0aaaaa

#127000
1aaaaa
b111111111111111111111111111111100 aaabb
r0 aaabk
r3 aaabo
r0 aaabp

#127500
0aaaaa

#128000
1aaaaa
b1100000000000000000000000000000000 aaabb
r1 aaabo

#128500
0aaaaa

#129000
1aaaaa
b1111111111111111111111111111110100000000000000000000000000000000 aaaar
b100000000000000000000000000000000 aaabb
r-6.123233995736766e-17 aaabo
r1 aaabp

#129500
0aaaaa

#130000
1aaaaa
b1111111111111111111111111111111100000000000000000000000000000000 aaaar
b1 aaabb
r-3 aaabk
r6.123233995736766e-17 aaabo
r-1 aaabp

#130500
0aaaaa

#131000
1aaaaa
b100000000000000000000000000000000 aaaar
b11111111111111111111111111111111 aaabb
r-1 aaabk
r1 aaabo
r0 aaabp

#131500
0aaaaa

#132000
1aaaaa
b0 aaaar
b100000000000000000000000000000000 aaabb
r1 aaabk

#132500
0aaaaa

#133000
1aaaaa
b1111111111111111111111111111111100000000000000000000000000000000 aaaar
r0 aaabk

#133500
0aaaaa

#134000
1aaaaa
b0 aaaar
r-1 aaabk

#134500
0aaaaa

#135000
1aaaaa
b1000000000000000000000000000000000 aaaar
r0 aaabk
r-3 aaabo

#135500
0aaaaa

#136000
1aaaaa
b1111111111111111111111111111110100000000000000000000000000000000 aaabb
r2 aaabk
r-1 aaabo

#136500
0aaaaa

#137000
1aaaaa
b0 aaaar
b1111111111111111111111111111111100000000000000000000000000000000 aaabb
r-4 aaabo
r1 aaabp

#137500
0aaaaa

#138000
1aaaaa
b100000000000000000000000000000000 aaaar
b1111111111111111111111111111110000000000000000000000000000000001 aaabb
r0 aaabk
r-1 aaabp

#138500
0aaaaa

#139000
1aaaaa
b1111111111111111111111111111111100000000000000000000000000000000 aaaar
b1111111111111111111111111111110011111111111111111111111111111111 aaabb
r1 aaabk
r3 aaabo
r0 aaabp

#139500
0aaaaa

#140000
1aaaaa
b1100000000000000000000000000000000 aaabb
r-1 aaabk
r-1 aaabo

#140500
0aaaaa

#141000
1aaaaa
b0 aaaar
b1111111111111111111111111111111100000000000000000000000000000000 aaabb
r-3 aaabo
r2 aaabp

#141500
0aaaaa

#142000
1aaaaa
b1111111111111111111111111111110100000000000000000000000000000010 aaabb
r0 aaabk
r-2 aaabp

#142500
0aaaaa

#143000
1aaaaa
b1111111111111111111111111111111100000000000000000000000000000000 aaaar
b1111111111111111111111111111110111111111111111111111111111111110 aaabb
r-1 aaabo
r0 aaabp

#143500
0aaaaa

#144000
1aaaaa
b1111111111111111111111111111111000000000000000000000000000000000 aaaar
b1111111111111111111111111111111100000000000000000000000000000000 aaabb
r-1 aaabk

#144500
0aaaaa

#145000
1aaaaa
b0 aaaar
r-2 aaabk
r1 aaabo
r-2 aaabp

#145500
0aaaaa

#146000
1aaaaa
b1000000000000000000000000000000000 aaaar
b111111111111111111111111111111110 aaabb
r0 aaabk
r0.9999999999999999 aaabo
r2 aaabp

#146500
0aaaaa

#147000
1aaaaa
b100000000000000000000000000000000 aaaar
b100000000000000000000000000000010 aaabb
r2 aaabk
r-3 aaabo
r0 aaabp

#147500
0aaaaa

#148000
1aaaaa
b0 aaaar
b1111111111111111111111111111110100000000000000000000000000000000 aaabb
r1 aaabk
r1 aaabo

#148500
0aaaaa

#149000
1aaaaa
b100000000000000000000000000000000 aaabb
r0 aaabk
r1 aaabo
r-2 aaabp

#149500
0aaaaa

#150000
1aaaaa
b100000000000000000000000000000000 aaaar
b111111111111111111111111111111110 aaabb
r0.9999999999999999 aaabo
r2 aaabp

#150500
0aaaaa

#151000
1aaaaa
b100000000000000000000000000000010 aaabb
r1 aaabk
r3 aaabo
r0 aaabp

#151500
0aaaaa

#152000
1aaaaa
b1111111111111111111111111111111100000000000000000000000000000000 aaaar
b1100000000000000000000000000000000 aaabb
r-1 aaabo

#152500
0aaaaa

#153000
1aaaaa
b0 aaaar
b1111111111111111111111111111111100000000000000000000000000000000 aaabb
r-1 aaabk
r-0.9999999999999999 aaabo
r-2 aaabp

#153500
0aaaaa

#154000
1aaaaa
b1111111111111111111111111111111000000000000000000000000000000000 aaaar
b1111111111111111111111111111111111111111111111111111111111111110 aaabb
r0 aaabk
r-1 aaabo
r2 aaabp

#154500
0aaaaa

#155000
1aaaaa
b1111111111111111111111111111111100000000000000000000000000000010 aaabb
r-2 aaabk
r1 aaabo
r0 aaabp

#155500
0aaaaa

#156000
1aaaaa
b0 aaaar
b100000000000000000000000000000000 aaabb

#156500
0aaaaa

#157000
1aaaaa
b100000000000000000000000000000000 aaaar
r0 aaabk
r-0.9999999999999999 aaabo
r-2 aaabp

#157500
0aaaaa

#158000
1aaaaa
b0 aaaar
b1111111111111111111111111111111111111111111111111111111111111110 aaabb
r1 aaabk
r-1 aaabo
r2 aaabp

#158500
0aaaaa

#159000
1aaaaa
b1111111111111111111111111111111100000000000000000000000000000000 aaaar
b1111111111111111111111111111111100000000000000000000000000000010 aaabb
r0 aaabk
r-4 aaabo
r0 aaabp

#159500
0aaaaa

#160000
1aaaaa
b100000000000000000000000000000000 aaaar
b1111111111111111111111111111110000000000000000000000000000000000 aaabb
r-1 aaabk
r0 aaabo

#160500
0aaaaa

#161000
1aaaaa
b1100000000000000000000000000000000 aaaar
b0 aaabb
r1 aaabk
r2 aaabo
r2 aaabp

#161500
0aaaaa

#162000
1aaaaa
b0 aaaar
b1000000000000000000000000000000010 aaabb
r3 aaabk
r2 aaabo
r-2 aaabp

#162500
0aaaaa

#163000
1aaaaa
b1011111111111111111111111111111110 aaabb
r0 aaabk
r1 aaabo
r0 aaabp

#163500
0aaaaa

#164000
1aaaaa
b100000000000000000000000000000000 aaabb
r-1 aaabo

#164500
0aaaaa

#165000
1aaaaa
b1111111111111111111111111111111100000000000000000000000000000000 aaaar
b1111111111111111111111111111111100000000000000000000000000000000 aaabb
r2 aaabo
r1 aaabp

#165500
0aaaaa

#166000
1aaaaa
b1000000000000000000000000000000001 aaabb
r-1 aaabk
r-1 aaabp

#166500
0aaaaa

#167000
1aaaaa
b1011111111111111111111111111111111 aaabb
r3 aaabo
r0 aaabp

#167500
0aaaaa

#168000
1aaaaa
b0 aaaar
b1100000000000000000000000000000000 aaabb

#168500
0aaaaa

#169000
1aaaaa
b1111111111111111111111111111111100000000000000000000000000000000 aaaar
r0 aaabk

#169500
0aaaaa

#170000
1aaaaa
b1111111111111111111111111111111000000000000000000000000000000000 aaaar
r-1 aaabk

#170500
0aaaaa

#171000
1aaaaa
b100000000000000000000000000000000 aaaar
r-2 aaabk
r-3 aaabo

#171500
0aaaaa

#172000
1aaaaa
b1000000000000000000000000000000000 aaaar
b1111111111111111111111111111110100000000000000000000000000000000 aaabb
r1 aaabk
r-1 aaabo

#172500
0aaaaa

#173000
1aaaaa
b0 aaaar
b1111111111111111111111111111111100000000000000000000000000000000 aaabb
r2 aaabk
r-6.123233995736766e-17 aaabo
r1 aaabp

#173500
0aaaaa

#174000
1aaaaa
b1 aaabb
r0 aaabk
r6.123233995736766e-17 aaabo
r-1 aaabp

#174500
0aaaaa

#175000
1aaaaa
b100000000000000000000000000000000 aaaar
b11111111111111111111111111111111 aaabb
r0 aaabo
r0 aaabp

#175500
0aaaaa

#176000
1aaaaa
b0 aaabb
r1 aaabk

#176500
0aaaaa

#177000
1aaaaa
b0 aaaar
r-2 aaabo
r4 aaabp

#177500
0aaaaa

#178000
1aaaaa
b1111111111111111111111111111111000000000000000000000000000000100 aaabb
r0 aaabk
r-2 aaabo
r-4 aaabp

#178500
0aaaaa

#179000
1aaaaa
b1111111111111111111111111111111011111111111111111111111111111100 aaabb
r2 aaabo
r0 aaabp

#179500
0aaaaa

#180000
1aaaaa
b1111111111111111111111111111111000000000000000000000000000000000 aaaar
b1000000000000000000000000000000000 aaabb
r0 aaabo

#180500
0aaaaa

#181000
1aaaaa
b1111111111111111111111111111111100000000000000000000000000000000 aaaar
b0 aaabb
r-2 aaabk
r-1 aaabo
r1 aaabp

#181500
0aaaaa

#182000
1aaaaa
b100000000000000000000000000000000 aaaar
b1111111111111111111111111111111100000000000000000000000000000001 aaabb
r-1 aaabk
r-0.9999999999999999 aaabo
r-1 aaabp

#182500
0aaaaa

#183000
1aaaaa
b0 aaaar
b1111111111111111111111111111111111111111111111111111111111111111 aaabb
r1 aaabk
r-2 aaabo
r0 aaabp

#183500
0aaaaa

#184000
1aaaaa
b1111111111111111111111111111111000000000000000000000000000000000 aaabb
r0 aaabk
r2 aaabo

#184500
0aaaaa

#185000
1aaaaa
b1111111111111111111111111111111100000000000000000000000000000000 aaaar
b1000000000000000000000000000000000 aaabb
r1.224646799147353e-16 aaabo
r-2 aaabp

#185500
0aaaaa

#186000
1aaaaa
b1000000000000000000000000000000000 aaaar
b11111111111111111111111111111110 aaabb
r-1 aaabk
r-1.224646799147353e-16 aaabo
r2 aaabp

#186500
0aaaaa

#187000
1aaaaa
b10 aaabb
r2 aaabk
r0 aaabo
r0 aaabp

#187500
0aaaaa

#188000
1aaaaa
b0 aaaar
b0 aaabb
r-2 aaabo

#188500
0aaaaa

#189000
1aaaaa
b100000000000000000000000000000000 aaaar
b1111111111111111111111111111111000000000000000000000000000000000 aaabb
r0 aaabk
r-0.9999999999999999 aaabo
r-1 aaabp

#189500
0aaaaa

