out/test_runs_wmem/test_n1024_full_data/trace.vcd
$date
     Jul 17, 2026       09:57:39
$end

$version
 SystemC 2.3.3-Accellera --- Jun 25 2026 10:44:53
$end

$timescale
     1 ps
$end

$scope module SystemC $end
$scope module Control $end
$var wire    1  aaaaa  clk       $end
$var wire    1  aaaab  rst_n       $end
$var wire    1  aaaac  start_signal       $end
$upscope $end
$scope module Core0 $end
$var wire   32  aaaaf  base_addr [31:0]  $end
$var wire   32  aaaag  num_samples [31:0]  $end
$var wire    1  aaaah  start       $end
$var wire    1  aaaai  busy       $end
$scope module AXI_AR $end
$var wire    1  aaaaj  ar_val       $end
$var wire    1  aaaak  ar_rdy       $end
$var wire    4  aaaal  ar_msg_id [3:0]  $end
$var wire   32  aaaam  ar_msg_addr [31:0]  $end
$var wire    8  aaaan  ar_msg_len [7:0]  $end
$upscope $end
$scope module AXI_AW $end
$var wire    1  aaaau  aw_val       $end
$var wire    1  aaaav  aw_rdy       $end
$var wire    4  aaaaw  aw_msg_id [3:0]  $end
$var wire   32  aaaax  aw_msg_addr [31:0]  $end
$var wire    8  aaaay  aw_msg_len [7:0]  $end
$upscope $end
$scope module AXI_B $end
$var wire    1  aaabe  b_val       $end
$var wire    1  aaabf  b_rdy       $end
$var wire    4  aaabg  b_msg_id [3:0]  $end
$var wire    2  aaabh  b_msg_resp [1:0]  $end
$upscope $end
$scope module AXI_R $end
$var wire    1  aaaao  r_val       $end
$var wire    1  aaaap  r_rdy       $end
$var wire    4  aaaaq  r_msg_id [3:0]  $end
$var wire   64  aaaar  r_msg_data [63:0]  $end
$var wire    2  aaaas  r_msg_resp [1:0]  $end
$var wire    1  aaaat  r_msg_last       $end
$upscope $end
$scope module AXI_W $end
$var wire    1  aaaaz  w_val       $end
$var wire    1  aaaba  w_rdy       $end
$var wire   64  aaabb  w_msg_data [63:0]  $end
$var wire    1  aaabc  w_msg_last       $end
$var wire    8  aaabd  w_msg_wstrb [7:0]  $end
$upscope $end
$scope module Internal $end
$var wire    1  aaabi  dma_to_fft_val       $end
$var wire    1  aaabj  dma_to_fft_rdy       $end
$var real    1  aaabk  dma_to_fft_msg_real       $end
$var real    1  aaabl  dma_to_fft_msg_imag       $end
$var wire    1  aaabm  fft_to_dma_val       $end
$var wire    1  aaabn  fft_to_dma_rdy       $end
$var real    1  aaabo  fft_to_dma_msg_real       $end
$var real    1  aaabp  fft_to_dma_msg_imag       $end
$upscope $end
$upscope $end
$scope module Core1 $end
$var wire   32  aaabq  base_addr [31:0]  $end
$var wire   32  aaabr  num_samples [31:0]  $end
$var wire    1  aaabs  start       $end
$var wire    1  aaabt  busy       $end
$scope module AXI_AR $end
$var wire    1  aaabu  ar_val       $end
$var wire    1  aaabv  ar_rdy       $end
$var wire    4  aaabw  ar_msg_id [3:0]  $end
$var wire   32  aaabx  ar_msg_addr [31:0]  $end
$var wire    8  aaaby  ar_msg_len [7:0]  $end
$upscope $end
$scope module AXI_AW $end
$var wire    1  aaacf  aw_val       $end
$var wire    1  aaacg  aw_rdy       $end
$var wire    4  aaach  aw_msg_id [3:0]  $end
$var wire   32  aaaci  aw_msg_addr [31:0]  $end
$var wire    8  aaacj  aw_msg_len [7:0]  $end
$upscope $end
$scope module AXI_B $end
$var wire    1  aaacp  b_val       $end
$var wire    1  aaacq  b_rdy       $end
$var wire    4  aaacr  b_msg_id [3:0]  $end
$var wire    2  aaacs  b_msg_resp [1:0]  $end
$upscope $end
$scope module AXI_R $end
$var wire    1  aaabz  r_val       $end
$var wire    1  aaaca  r_rdy       $end
$var wire    4  aaacb  r_msg_id [3:0]  $end
$var wire   64  aaacc  r_msg_data [63:0]  $end
$var wire    2  aaacd  r_msg_resp [1:0]  $end
$var wire    1  aaace  r_msg_last       $end
$upscope $end
$scope module AXI_W $end
$var wire    1  aaack  w_val       $end
$var wire    1  aaacl  w_rdy       $end
$var wire   64  aaacm  w_msg_data [63:0]  $end
$var wire    1  aaacn  w_msg_last       $end
$var wire    8  aaaco  w_msg_wstrb [7:0]  $end
$upscope $end
$scope module Internal $end
$var wire    1  aaact  dma_to_fft_val       $end
$var wire    1  aaacu  dma_to_fft_rdy       $end
$var real    1  aaacv  dma_to_fft_msg_real       $end
$var real    1  aaacw  dma_to_fft_msg_imag       $end
$var wire    1  aaacx  fft_to_dma_val       $end
$var wire    1  aaacy  fft_to_dma_rdy       $end
$var real    1  aaacz  fft_to_dma_msg_real       $end
$var real    1  aaada  fft_to_dma_msg_imag       $end
$upscope $end
$upscope $end
$scope module Stagger $end
$var wire    1  aaaad  active       $end
$var wire   32  aaaae  counter [31:0]  $end
$upscope $end
$upscope $end
$enddefinitions  $end

$comment
All initial values are dumped below at time 0 sec = 0 timescale units.
$end

$dumpvars
1aaaaa
0aaaab
0aaaac
0aaaad
b0 aaaae
b0 aaaaf
b0 aaaag
0aaaah
0aaaai
0aaaaj
0aaaak
b0 aaaal
b0 aaaam
b0 aaaan
0aaaao
0aaaap
b0 aaaaq
b0 aaaar
b0 aaaas
0aaaat
0aaaau
0aaaav
b0 aaaaw
b0 aaaax
b0 aaaay
0aaaaz
0aaaba
b0 aaabb
0aaabc
b11111111 aaabd
0aaabe
0aaabf
b0 aaabg
b0 aaabh
0aaabi
0aaabj
r0 aaabk
r0 aaabl
0aaabm
0aaabn
r0 aaabo
r0 aaabp
b0 aaabq
b0 aaabr
0aaabs
0aaabt
0aaabu
0aaabv
b0 aaabw
b0 aaabx
b0 aaaby
0aaabz
0aaaca
b0 aaacb
b0 aaacc
b0 aaacd
0aaace
0aaacf
0aaacg
b0 aaach
b0 aaaci
b0 aaacj
0aaack
0aaacl
b0 aaacm
0aaacn
b11111111 aaaco
0aaacp
0aaacq
b0 aaacr
b0 aaacs
0aaact
0aaacu
r0 aaacv
r0 aaacw
0aaacx
0aaacy
r0 aaacz
r0 aaada
$end

#10
1aaaak
1aaaap
1aaaav
1aaaba
1aaabf
1aaabj
1aaabn
1aaabv
1aaaca
1aaacg
1aaacl
1aaacq
1aaacu
1aaacy

#1000
0aaaaa

#2000
1aaaaa

#3000
0aaaaa

#4000
1aaaaa

#5000
0aaaaa

#6000
1aaaaa

#7000
0aaaaa

#8000
1aaaaa

#9000
0aaaaa

#10000
1aaaaa
1aaaab

#11000
0aaaaa

#12000
1aaaaa

#13000
0aaaaa

#14000
1aaaaa

#15000
0aaaaa

#16000
1aaaaa

#17000
0aaaaa

#18000
1aaaaa

#19000
0aaaaa

#20000
1aaaaa
1aaaac
1aaaad
b1 aaaae
b100000000000 aaaag
1aaaah
b100000000000 aaabr

#21000
0aaaaa

#22000
1aaaaa
0aaaac
b10 aaaae
0aaaah
1aaaai
b11111111 aaaan
b10000000000000 aaaax
b11111111 aaaay
1aaabs

#22010
1aaaaj
1aaaau

#23000
0aaaaa

#24000
1aaaaa
b11 aaaae
b100000000000 aaaam
0aaabs
1aaabt
b11111111 aaaby
b10000000000000 aaaci
b11111111 aaacj

#24010
0aaaau
1aaabu
1aaacf

#25000
0aaaaa

#26000
1aaaaa
b100 aaaae
b1000000000000 aaaam
b100000000000 aaabx

#26010
0aaaak
0aaacf

#27000
0aaaaa

#28000
1aaaaa
b101 aaaae
b1000000000000 aaabx

#28010
0aaabv

#29000
0aaaaa

#30000
1aaaaa
0aaaad
b110 aaaae

#31000
0aaaaa

#32000
1aaaaa

#32010
1aaaak
1aaaao

#33000
0aaaaa

#34000
1aaaaa
b1100000000000 aaaam

#34010
0aaaak
0aaaao
1aaabi
1aaabv
1aaabz

#35000
0aaaaa

#36000
1aaaaa
b1100000000000 aaabx

#36010
0aaabi
0aaabv
0aaabz
1aaact

#37000
0aaaaa

#38000
1aaaaa
b10110100000000000000000000000000000000 aaaar

#38010
1aaaak
1aaaao
0aaact

#39000
0aaaaa

#40000
1aaaaa
b10000000000000 aaaam
r45 aaabk
b10110100000000000000000000000000000000 aaacc

#40010
0aaaak
0aaaao
1aaabi
1aaabv
1aaabz

#41000
0aaaaa

#42000
1aaaaa
b10000000000000 aaabx
r45 aaacv

#42010
0aaabi
0aaabv
0aaabz
1aaact

#43000
0aaaaa

#44000
1aaaaa
b101100000000000000000000000000000000 aaaar

#44010
1aaaak
1aaaao
0aaact

#45000
0aaaaa

#46000
1aaaaa
b10100000000000 aaaam
r11 aaabk
b101100000000000000000000000000000000 aaacc

#46010
0aaaak
0aaaao
1aaabi
1aaabv
1aaabz

#47000
0aaaaa

#48000
1aaaaa
b10100000000000 aaabx
r11 aaacv

#48010
0aaabi
0aaabv
0aaabz
1aaact

#49000
0aaaaa

#50000
1aaaaa
b11100000000000000000000000000000000 aaaar

#50010
1aaaak
1aaaao
0aaact

#51000
0aaaaa

#52000
1aaaaa
b11000000000000 aaaam
r7 aaabk
b11100000000000000000000000000000000 aaacc

#52010
0aaaak
0aaaao
1aaabi
1aaabv
1aaabz

#53000
0aaaaa

#54000
1aaaaa
b11000000000000 aaabx
r7 aaacv

#54010
0aaabi
0aaabv
0aaabz
1aaact

#55000
0aaaaa

#56000
1aaaaa
b101000000000000000000000000000000000 aaaar

#56010
1aaaak
1aaaao
0aaact

#57000
0aaaaa

#58000
1aaaaa
b11100000000000 aaaam
r10 aaabk
b101000000000000000000000000000000000 aaacc

#58010
0aaaak
0aaaao
1aaabi
1aaabv
1aaabz

#59000
0aaaaa

#60000
1aaaaa
b11100000000000 aaabx
r10 aaacv

#60010
0aaabi
0aaabv
0aaabz
1aaact

#61000
0aaaaa

#62000
1aaaaa
b1010000000000000000000000000000000000 aaaar

#62010
1aaaak
1aaaao
0aaact

#63000
0aaaaa

#64000
1aaaaa
r20 aaabk
b1010000000000000000000000000000000000 aaacc

#64010
0aaaaj
0aaaak
0aaaao
1aaabi
1aaabv
1aaabz

#65000
0aaaaa

#66000
1aaaaa
r20 aaacv

#66010
0aaabi
0aaabu
0aaabv
0aaabz
1aaact

#67000
0aaaaa

#68000
1aaaaa
b110000000000000000000000000000000000 aaaar

#68010
1aaaak
1aaaao
0aaact

#69000
0aaaaa

#70000
1aaaaa
r12 aaabk
b110000000000000000000000000000000000 aaacc

#70010
0aaaao
1aaabi
1aaabv
1aaabz

#71000
0aaaaa

#72000
1aaaaa
r12 aaacv

#72010
0aaabi
0aaabz
1aaact

#73000
0aaaaa

#74000
1aaaaa
b1111111111111111111111111111001000000000000000000000000000000000 aaaar

#74010
1aaaao
0aaact

#75000
0aaaaa

#76000
1aaaaa
r-14 aaabk
b1111111111111111111111111111001000000000000000000000000000000000 aaacc

#76010
0aaaao
1aaabi
1aaabz

#77000
0aaaaa

#78000
1aaaaa
r-14 aaacv

#78010
0aaabi
0aaabz
1aaact

#79000
0aaaaa

#80000
1aaaaa
b1000000000000000000000000000000000 aaaar

#80010
1aaaao
0aaact

#81000
0aaaaa

#82000
1aaaaa
r2 aaabk
b1000000000000000000000000000000000 aaacc

#82010
0aaaao
1aaabi
1aaabz

#83000
0aaaaa

#84000
1aaaaa
r2 aaacv

#84010
0aaabi
0aaabz
1aaact

#85000
0aaaaa

#86000
1aaaaa
b1111111111111111111111111110001000000000000000000000000000000000 aaaar

#86010
1aaaao
0aaact

#87000
0aaaaa

#88000
1aaaaa
r-30 aaabk
b1111111111111111111111111110001000000000000000000000000000000000 aaacc

#88010
0aaaao
1aaabi
1aaabz

#89000
0aaaaa

#90000
1aaaaa
r-30 aaacv

#90010
0aaabi
0aaabz
1aaact

#91000
0aaaaa

#92000
1aaaaa
b1111111111111111111111111101001100000000000000000000000000000000 aaaar

#92010
1aaaao
0aaact

#93000
0aaaaa

#94000
1aaaaa
r-45 aaabk
b1111111111111111111111111101001100000000000000000000000000000000 aaacc

#94010
0aaaao
1aaabi
1aaabz

#95000
0aaaaa

#96000
1aaaaa
r-45 aaacv

#96010
0aaabi
0aaabz
1aaact

#97000
0aaaaa

#98000
1aaaaa
b11000000000000000000000000000000000 aaaar

#98010
1aaaao
0aaact

#99000
0aaaaa

#100000
1aaaaa
r6 aaabk
b11000000000000000000000000000000000 aaacc

#100010
0aaaao
1aaabi
1aaabz

#101000
0aaaaa

#102000
1aaaaa
r6 aaacv

#102010
0aaabi
0aaabz
1aaact

#103000
0aaaaa

#104000
1aaaaa
b101000000000000000000000000000000000 aaaar

#104010
1aaaao
0aaact

#105000
0aaaaa

#106000
1aaaaa
r10 aaabk
b101000000000000000000000000000000000 aaacc

#106010
0aaaao
1aaabi
1aaabz

#107000
0aaaaa

#108000
1aaaaa
r10 aaacv

#108010
0aaabi
0aaabz
1aaact

#109000
0aaaaa

#110000
1aaaaa
b1111111111111111111111111111111000000000000000000000000000000000 aaaar

#110010
1aaaao
0aaact

#111000
0aaaaa

#112000
1aaaaa
r-2 aaabk
b1111111111111111111111111111111000000000000000000000000000000000 aaacc

#112010
0aaaao
1aaabi
1aaabz

#113000
0aaaaa

#114000
1aaaaa
r-2 aaacv

#114010
0aaabi
0aaabz
1aaact

#115000
0aaaaa

#116000
1aaaaa
b1111111111111111111111111111000100000000000000000000000000000000 aaaar

#116010
1aaaao
0aaact

#117000
0aaaaa

#118000
1aaaaa
r-15 aaabk
b1111111111111111111111111111000100000000000000000000000000000000 aaacc

#118010
0aaaao
1aaabi
1aaabz

#119000
0aaaaa

#120000
1aaaaa
r-15 aaacv

#120010
0aaabi
0aaabz
1aaact

#121000
0aaaaa

#122000
1aaaaa
b110100000000000000000000000000000000 aaaar

#122010
1aaaao
0aaact

#123000
0aaaaa

#124000
1aaaaa
r13 aaabk
b110100000000000000000000000000000000 aaacc

#124010
0aaaao
1aaabi
1aaabz

#125000
0aaaaa

#126000
1aaaaa
r13 aaacv

#126010
0aaabi
0aaabz
1aaact

#127000
0aaaaa

#128000
1aaaaa
b11001100000000000000000000000000000000 aaaar

#128010
1aaaao
0aaact

#129000
0aaaaa

#130000
1aaaaa
r51 aaabk
b11001100000000000000000000000000000000 aaacc

#130010
0aaaao
1aaabi
1aaabz

#131000
0aaaaa

#132000
1aaaaa
r51 aaacv

#132010
0aaabi
0aaabz
1aaact

#133000
0aaaaa

#134000
1aaaaa
b101000000000000000000000000000000000 aaaar

#134010
1aaaao
0aaact

#135000
0aaaaa

#136000
1aaaaa
r10 aaabk
b101000000000000000000000000000000000 aaacc

#136010
0aaaao
1aaabi
1aaabz

#137000
0aaaaa

#138000
1aaaaa
r10 aaacv

#138010
0aaabi
0aaabz
1aaact

#139000
0aaaaa

#140000
1aaaaa
b10000000000000000000000000000000000 aaaar

#140010
1aaaao
0aaact

#141000
0aaaaa

#142000
1aaaaa
r4 aaabk
b10000000000000000000000000000000000 aaacc

#142010
0aaaao
1aaabi
1aaabz

#143000
0aaaaa

#144000
1aaaaa
r4 aaacv

#144010
0aaabi
0aaabz
1aaact

#145000
0aaaaa

#146000
1aaaaa
b100000000000000000000000000000000000 aaaar

#146010
1aaaao
0aaact

#147000
0aaaaa

#148000
1aaaaa
r8 aaabk
b100000000000000000000000000000000000 aaacc

#148010
0aaaao
1aaabi
1aaabz

#149000
0aaaaa

#150000
1aaaaa
r8 aaacv

#150010
0aaabi
0aaabz
1aaact

#151000
0aaaaa

#152000
1aaaaa
b1111111111111111111111111110101000000000000000000000000000000000 aaaar

#152010
1aaaao
0aaact

#153000
0aaaaa

#154000
1aaaaa
r-22 aaabk
b1111111111111111111111111110101000000000000000000000000000000000 aaacc

#154010
0aaaao
1aaabi
1aaabz

#155000
0aaaaa

#156000
1aaaaa
r-22 aaacv

#156010
0aaabi
0aaabz
1aaact

#157000
0aaaaa

#158000
1aaaaa
b1111111111111111111111111111001000000000000000000000000000000000 aaaar

#158010
1aaaao
0aaact

#159000
0aaaaa

#160000
1aaaaa
r-14 aaabk
b1111111111111111111111111111001000000000000000000000000000000000 aaacc

#160010
0aaaao
1aaabi
1aaabz

#161000
0aaaaa

#162000
1aaaaa
r-14 aaacv

#162010
0aaabi
0aaabz
1aaact

#163000
0aaaaa

#164000
1aaaaa
b1111111111111111111111111111011000000000000000000000000000000000 aaaar

#164010
1aaaao
0aaact

#165000
0aaaaa

#166000
1aaaaa
r-10 aaabk
b1111111111111111111111111111011000000000000000000000000000000000 aaacc

#166010
0aaaao
1aaabi
1aaabz

#167000
0aaaaa

#168000
1aaaaa
r-10 aaacv

#168010
0aaabi
0aaabz
1aaact

#169000
0aaaaa

#170000
1aaaaa
b1111111111111111111111111111110000000000000000000000000000000000 aaaar

#170010
1aaaao
0aaact

#171000
0aaaaa

#172000
1aaaaa
r-4 aaabk
b1111111111111111111111111111110000000000000000000000000000000000 aaacc

#172010
0aaaao
1aaabi
1aaabz

#173000
0aaaaa

#174000
1aaaaa
r-4 aaacv

#174010
0aaabi
0aaabz
1aaact

#175000
0aaaaa

#176000
1aaaaa
b1111111111111111111111111110011000000000000000000000000000000000 aaaar

#176010
1aaaao
0aaact

#177000
0aaaaa

#178000
1aaaaa
r-26 aaabk
b1111111111111111111111111110011000000000000000000000000000000000 aaacc

#178010
0aaaao
1aaabi
1aaabz

#179000
0aaaaa

#180000
1aaaaa
r-26 aaacv

#180010
0aaabi
0aaabz
1aaact

#181000
0aaaaa

#182000
1aaaaa
b1111111111111111111111111101100100000000000000000000000000000000 aaaar

#182010
1aaaao
0aaact

#183000
0aaaaa

#184000
1aaaaa
r-39 aaabk
b1111111111111111111111111101100100000000000000000000000000000000 aaacc

#184010
0aaaao
1aaabi
1aaabz

#185000
0aaaaa

#186000
1aaaaa
r-39 aaacv

#186010
0aaabi
0aaabz
1aaact

#187000
0aaaaa

#188000
1aaaaa
b1110100000000000000000000000000000000 aaaar

#188010
1aaaao
0aaact

#189000
0aaaaa

#190000
1aaaaa
r29 aaabk
b1110100000000000000000000000000000000 aaacc

#190010
0aaaao
1aaabi
1aaabz

#191000
0aaaaa

#192000
1aaaaa
r29 aaacv

#192010
0aaabi
0aaabz
1aaact

#193000
0aaaaa

#194000
1aaaaa
b10001000000000000000000000000000000000 aaaar

#194010
1aaaao
0aaact

#195000
0aaaaa

#196000
1aaaaa
r34 aaabk
b10001000000000000000000000000000000000 aaacc

#196010
0aaaao
1aaabi
1aaabz

#197000
0aaaaa

#198000
1aaaaa
r34 aaacv

#198010
0aaabi
0aaabz
1aaact

#199000
0aaaaa

#200000
1aaaaa
b10000000000000000000000000000000000 aaaar

#200010
1aaaao
0aaact

#201000
0aaaaa

#202000
1aaaaa
r4 aaabk
b10000000000000000000000000000000000 aaacc

#202010
0aaaao
1aaabi
1aaabz

#203000
0aaaaa

#204000
1aaaaa
r4 aaacv

#204010
0aaabi
0aaabz
1aaact

#205000
0aaaaa

#206000
1aaaaa
b101000000000000000000000000000000000 aaaar

#206010
1aaaao
0aaact

#207000
0aaaaa

#208000
1aaaaa
r10 aaabk
b101000000000000000000000000000000000 aaacc

#208010
0aaaao
1aaabi
1aaabz

#209000
0aaaaa

#210000
1aaaaa
r10 aaacv

#210010
0aaabi
0aaabz
1aaact

#211000
0aaaaa

#212000
1aaaaa
b101100000000000000000000000000000000 aaaar

#212010
1aaaao
0aaact

#213000
0aaaaa

#214000
1aaaaa
r11 aaabk
b101100000000000000000000000000000000 aaacc

#214010
0aaaao
1aaabi
1aaabz

#215000
0aaaaa

#216000
1aaaaa
r11 aaacv

#216010
0aaabi
0aaabz
1aaact

#217000
0aaaaa

#218000
1aaaaa
b1011100000000000000000000000000000000 aaaar

#218010
1aaaao
0aaact

#219000
0aaaaa

#220000
1aaaaa
r23 aaabk
b1011100000000000000000000000000000000 aaacc

#220010
0aaaao
1aaabi
1aaabz

#221000
0aaaaa

#222000
1aaaaa
r23 aaacv

#222010
0aaabi
0aaabz
1aaact

#223000
0aaaaa

#224000
1aaaaa
b1111111111111111111111111111111000000000000000000000000000000000 aaaar

#224010
1aaaao
0aaact

#225000
0aaaaa

#226000
1aaaaa
r-2 aaabk
b1111111111111111111111111111111000000000000000000000000000000000 aaacc

#226010
0aaaao
1aaabi
1aaabz

#227000
0aaaaa

#228000
1aaaaa
r-2 aaacv

#228010
0aaabi
0aaabz
1aaact

#229000
0aaaaa

#230000
1aaaaa
b1111111111111111111111111111011100000000000000000000000000000000 aaaar

#230010
1aaaao
0aaact

#231000
0aaaaa

#232000
1aaaaa
r-9 aaabk
b1111111111111111111111111111011100000000000000000000000000000000 aaacc

#232010
0aaaao
1aaabi
1aaabz

#233000
0aaaaa

#234000
1aaaaa
r-9 aaacv

#234010
0aaabi
0aaabz
1aaact

#235000
0aaaaa

#236000
1aaaaa
b1111111111111111111111111111111000000000000000000000000000000000 aaaar

#236010
1aaaao
0aaact

#237000
0aaaaa

#238000
1aaaaa
r-2 aaabk
b1111111111111111111111111111111000000000000000000000000000000000 aaacc

#238010
0aaaao
1aaabi
1aaabz

#239000
0aaaaa

#240000
1aaaaa
r-2 aaacv

#240010
0aaabi
0aaabz
1aaact

#241000
0aaaaa

#242000
1aaaaa
b1111111111111111111111111101000000000000000000000000000000000000 aaaar

#242010
1aaaao
0aaact

#243000
0aaaaa

#244000
1aaaaa
r-48 aaabk
b1111111111111111111111111101000000000000000000000000000000000000 aaacc

#244010
0aaaao
1aaabi
1aaabz

#245000
0aaaaa

#246000
1aaaaa
r-48 aaacv

#246010
0aaabi
0aaabz
1aaact

#247000
0aaaaa

#248000
1aaaaa
b1111111111111111111111111110011100000000000000000000000000000000 aaaar

#248010
1aaaao
0aaact

#249000
0aaaaa

#250000
1aaaaa
r-25 aaabk
b1111111111111111111111111110011100000000000000000000000000000000 aaacc

#250010
0aaaao
1aaabi
1aaabz

#251000
0aaaaa

#252000
1aaaaa
r-25 aaacv

#252010
0aaabi
0aaabz
1aaact

#253000
0aaaaa

#254000
1aaaaa
b111100000000000000000000000000000000 aaaar

#254010
1aaaao
0aaact

#255000
0aaaaa

#256000
1aaaaa
r15 aaabk
b111100000000000000000000000000000000 aaacc

#256010
0aaaao
1aaabi
1aaabz

#257000
0aaaaa

#258000
1aaaaa
r15 aaacv

#258010
0aaabi
0aaabz
1aaact

#259000
0aaaaa

#260000
1aaaaa
b10100000000000000000000000000000000 aaaar

#260010
1aaaao
0aaact

#261000
0aaaaa

#262000
1aaaaa
r5 aaabk
b10100000000000000000000000000000000 aaacc

#262010
0aaaao
1aaabi
1aaabz

#263000
0aaaaa

#264000
1aaaaa
r5 aaacv

#264010
0aaabi
0aaabz
1aaact

#265000
0aaaaa

#266000
1aaaaa
b1111111111111111111111111111100100000000000000000000000000000000 aaaar

#266010
1aaaao
0aaact

#267000
0aaaaa

#268000
1aaaaa
r-7 aaabk
b1111111111111111111111111111100100000000000000000000000000000000 aaacc

#268010
0aaaao
1aaabi
1aaabz

#269000
0aaaaa

#270000
1aaaaa
r-7 aaacv

#270010
0aaabi
0aaabz
1aaact

#271000
0aaaaa

#272000
1aaaaa
b1111111111111111111111111111010000000000000000000000000000000000 aaaar

#272010
1aaaao
0aaact

#273000
0aaaaa

#274000
1aaaaa
r-12 aaabk
b1111111111111111111111111111010000000000000000000000000000000000 aaacc

#274010
0aaaao
1aaabi
1aaabz

#275000
0aaaaa

#276000
1aaaaa
r-12 aaacv

#276010
0aaabi
0aaabz
1aaact

#277000
0aaaaa

#278000
1aaaaa
b10010000000000000000000000000000000000 aaaar

#278010
1aaaao
0aaact

#279000
0aaaaa

#280000
1aaaaa
r36 aaabk
b10010000000000000000000000000000000000 aaacc

#280010
0aaaao
1aaabi
1aaabz

#281000
0aaaaa

#282000
1aaaaa
r36 aaacv

#282010
0aaabi
0aaabz
1aaact

#283000
0aaaaa

#284000
1aaaaa
b10100000000000000000000000000000000000 aaaar

#284010
1aaaao
0aaact

#285000
0aaaaa

#286000
1aaaaa
r40 aaabk
b10100000000000000000000000000000000000 aaacc

#286010
0aaaao
1aaabi
1aaabz

#287000
0aaaaa

#288000
1aaaaa
r40 aaacv

#288010
0aaabi
0aaabz
1aaact

#289000
0aaaaa

#290000
1aaaaa
b1111111111111111111111111111111000000000000000000000000000000000 aaaar

#290010
1aaaao
0aaact

#291000
0aaaaa

#292000
1aaaaa
r-2 aaabk
b1111111111111111111111111111111000000000000000000000000000000000 aaacc

#292010
0aaaao
1aaabi
1aaabz

#293000
0aaaaa

#294000
1aaaaa
r-2 aaacv

#294010
0aaabi
0aaabz
1aaact

#295000
0aaaaa

#296000
1aaaaa
b110000000000000000000000000000000000 aaaar

#296010
1aaaao
0aaact

#297000
0aaaaa

#298000
1aaaaa
r12 aaabk
b110000000000000000000000000000000000 aaacc

#298010
0aaaao
1aaabi
1aaabz

#299000
0aaaaa

#300000
1aaaaa
r12 aaacv

#300010
0aaabi
0aaabz
1aaact

#301000
0aaaaa

#302000
1aaaaa
b1111111111111111111111111111101100000000000000000000000000000000 aaaar

#302010
1aaaao
0aaact

#303000
0aaaaa

#304000
1aaaaa
r-5 aaabk
b1111111111111111111111111111101100000000000000000000000000000000 aaacc

#304010
0aaaao
1aaabi
1aaabz

#305000
0aaaaa

#306000
1aaaaa
r-5 aaacv

#306010
0aaabi
0aaabz
1aaact

#307000
0aaaaa

#308000
1aaaaa
b1111111111111111111111111110101000000000000000000000000000000000 aaaar

#308010
1aaaao
0aaact

#309000
0aaaaa

#310000
1aaaaa
r-22 aaabk
b1111111111111111111111111110101000000000000000000000000000000000 aaacc

#310010
0aaaao
1aaabi
1aaabz

#311000
0aaaaa

#312000
1aaaaa
r-22 aaacv

#312010
0aaabi
0aaabz
1aaact

#313000
0aaaaa

#314000
1aaaaa
b1111111111111111111111111111011000000000000000000000000000000000 aaaar

#314010
1aaaao
0aaact

#315000
0aaaaa

#316000
1aaaaa
r-10 aaabk
b1111111111111111111111111111011000000000000000000000000000000000 aaacc

#316010
0aaaao
1aaabi
1aaabz

#317000
0aaaaa

#318000
1aaaaa
r-10 aaacv

#318010
0aaabi
0aaabz
1aaact

#319000
0aaaaa

#320000
1aaaaa
b1111111111111111111111111111011100000000000000000000000000000000 aaaar

#320010
1aaaao
0aaact

#321000
0aaaaa

#322000
1aaaaa
r-9 aaabk
b1111111111111111111111111111011100000000000000000000000000000000 aaacc

#322010
0aaaao
1aaabi
1aaabz

#323000
0aaaaa

#324000
1aaaaa
r-9 aaacv

#324010
0aaabi
0aaabz
1aaact

#325000
0aaaaa

#326000
1aaaaa
b1111111111111111111111111111101000000000000000000000000000000000 aaaar

#326010
1aaaao
0aaact

#327000
0aaaaa

#328000
1aaaaa
r-6 aaabk
b1111111111111111111111111111101000000000000000000000000000000000 aaacc

#328010
0aaaao
1aaabi
1aaabz

#329000
0aaaaa

#330000
1aaaaa
r-6 aaacv

#330010
0aaabi
0aaabz
1aaact

#331000
0aaaaa

#332000
1aaaaa
b1111111111111111111111111101011100000000000000000000000000000000 aaaar

#332010
1aaaao
0aaact

#333000
0aaaaa

#334000
1aaaaa
r-41 aaabk
b1111111111111111111111111101011100000000000000000000000000000000 aaacc

#334010
0aaaao
1aaabi
1aaabz

#335000
0aaaaa

#336000
1aaaaa
r-41 aaacv

#336010
0aaabi
0aaabz
1aaact

#337000
0aaaaa

#338000
1aaaaa
b1111111111111111111111111111000100000000000000000000000000000000 aaaar

#338010
1aaaao
0aaact

#339000
0aaaaa

#340000
1aaaaa
r-15 aaabk
b1111111111111111111111111111000100000000000000000000000000000000 aaacc

#340010
0aaaao
1aaabi
1aaabz

#341000
0aaaaa

#342000
1aaaaa
r-15 aaacv

#342010
0aaabi
0aaabz
1aaact

#343000
0aaaaa

#344000
1aaaaa
b10110000000000000000000000000000000000 aaaar

#344010
1aaaao
0aaact

#345000
0aaaaa

#346000
1aaaaa
r44 aaabk
b10110000000000000000000000000000000000 aaacc

#346010
0aaaao
1aaabi
1aaabz

#347000
0aaaaa

#348000
1aaaaa
r44 aaacv

#348010
0aaabi
0aaabz
1aaact

#349000
0aaaaa

#350000
1aaaaa
b1001000000000000000000000000000000000 aaaar

#350010
1aaaao
0aaact

#351000
0aaaaa

#352000
1aaaaa
r18 aaabk
b1001000000000000000000000000000000000 aaacc

#352010
0aaaao
1aaabi
1aaabz

#353000
0aaaaa

#354000
1aaaaa
r18 aaacv

#354010
0aaabi
0aaabz
1aaact

#355000
0aaaaa

#356000
1aaaaa
b10100000000000000000000000000000000 aaaar

#356010
1aaaao
0aaact

#357000
0aaaaa

#358000
1aaaaa
r5 aaabk
b10100000000000000000000000000000000 aaacc

#358010
0aaaao
1aaabi
1aaabz

#359000
0aaaaa

#360000
1aaaaa
r5 aaacv

#360010
0aaabi
0aaabz
1aaact

#361000
0aaaaa

#362000
1aaaaa
b101000000000000000000000000000000000 aaaar

#362010
1aaaao
0aaact

#363000
0aaaaa

#364000
1aaaaa
r10 aaabk
b101000000000000000000000000000000000 aaacc

#364010
0aaaao
1aaabi
1aaabz

#365000
0aaaaa

#366000
1aaaaa
r10 aaacv

#366010
0aaabi
0aaabz
1aaact

#367000
0aaaaa

#368000
1aaaaa
b1000000000000000000000000000000000000 aaaar

#368010
1aaaao
0aaact

#369000
0aaaaa

#370000
1aaaaa
r16 aaabk
b1000000000000000000000000000000000000 aaacc

#370010
0aaaao
1aaabi
1aaabz

#371000
0aaaaa

#372000
1aaaaa
r16 aaacv

#372010
0aaabi
0aaabz
1aaact

#373000
0aaaaa

#374000
1aaaaa
b1001000000000000000000000000000000000 aaaar

#374010
1aaaao
0aaact

#375000
0aaaaa

#376000
1aaaaa
r18 aaabk
b1001000000000000000000000000000000000 aaacc

#376010
0aaaao
1aaabi
1aaabz

#377000
0aaaaa

#378000
1aaaaa
r18 aaacv

#378010
0aaabi
0aaabz
1aaact

#379000
0aaaaa

#380000
1aaaaa
b1111111111111111111111111111010000000000000000000000000000000000 aaaar

#380010
1aaaao
0aaact

#381000
0aaaaa

#382000
1aaaaa
r-12 aaabk
b1111111111111111111111111111010000000000000000000000000000000000 aaacc

#382010
0aaaao
1aaabi
1aaabz

#383000
0aaaaa

